name,age,street,city,state,zip,lng,lat
Mason Patton,33,296 Ayala Station Apt. 366,New Sophiastad,Florida,34346,-88.728160,-34.610736
Rhonda Adams,40,503 Jordan Motorway,Lake Lisastad,Oregon,96382,-40.601044,88.684910
Kristin Hammond,80,9063 Krueger Roads Suite 974,Kimberlyview,Hawaii,91168,-121.948188,74.384005
James Nelson,78,620 Kathryn Stravenue Apt. 906,Davenportborough,Hawaii,83750,-1.264662,-78.9130975
Larry Hamilton,34,67505 Jared Wall Suite 793,Port Tiffany,Arizona,90295,8.694818,-61.9413205
Christopher Rivera,24,9363 Pamela Garden,New James,Virginia,05846,22.913831,-1.763884
Laura Dawson,37,657 Spencer Via Apt. 331,Port Meganchester,North Dakota,04918,-105.558889,-52.190154
Monica Thompson,47,4888 Caroline Stream,Rochaberg,Georgia,13039,63.816670,-24.3783525
Lauren Valdez,41,406 Jessica Square Apt. 782,Lake Heather,West Virginia,23355,20.304981,-41.838933
Carol Serrano,61,7457 Dixon Coves Suite 538,West Timothy,Texas,55191,-164.508078,-23.0254385
Jeffrey Morgan,27,26958 Hays Streets,New Jennifer,North Dakota,72693,-2.197066,-68.537720
Jose Nelson,73,5339 Ryan Run,Grantside,Nebraska,14720,-29.104890,-83.1344225
Darlene Simpson,37,76038 Eric Valley Apt. 789,East Jeffrey,Mississippi,85668,-36.039167,-37.6120845
Travis Freeman,29,91661 Murphy Loaf,Parksbury,Tennessee,26068,29.447889,79.5842665
Lisa Hall,73,2096 Dyer Landing,Lake Kenneth,North Dakota,63290,161.761828,-76.9654245
Michael Barber,65,55005 Willie Trafficway,Lake Patrick,Idaho,54491,-57.246185,83.217860
Timothy Ward,79,960 Daniel Burgs Suite 640,Joycestad,Wisconsin,56252,-85.222902,-74.3782065
Anthony Wilson,77,0203 Dustin Summit,Lisahaven,West Virginia,16440,97.632030,8.2116835
Nicholas Jones,25,5719 George Plain,Wilsonburgh,Missouri,67981,104.667787,14.653524
Dawn Dennis,51,263 Thomas Cape,Larabury,Delaware,23057,138.351643,43.689772
William Drake,34,4617 King Greens,Morenoland,Ohio,18494,131.403931,-82.2962225
Mitchell Gonzales,25,17640 John Brook Suite 133,North Shirleyfurt,Texas,39638,-128.343753,-68.6860975
Danny Golden,40,60389 Karen Island Suite 094,Barnesmouth,North Carolina,20593,36.009882,-2.9225535
Mrs. Kimberly Smith,28,895 Aguirre Tunnel Apt. 483,Smithfurt,Missouri,72629,65.447285,-41.718877
George Strickland,73,619 Scott Plains Suite 026,Stewartfurt,Kansas,75061,-135.909773,-86.2662535
Aimee Chung,58,725 Ferguson Camp Suite 430,West Danielle,New York,77140,-119.934117,-45.3097815
Kimberly Atkins,78,44081 David Hills,East Gary,Louisiana,69096,160.374116,89.789860
Tara Horton,34,17521 Andrea Brook,East Sarahberg,Iowa,74285,147.674399,-57.0080825
Sherry Cuevas,20,75346 Johnson Run,Markport,West Virginia,49708,179.462825,18.1155755
Cheryl Nichols,43,7897 Gonzalez Knolls,Port Shaneport,Wyoming,79132,-26.751001,-25.0456285
Bradley Meyer,30,154 Lewis Tunnel,East Brian,Florida,42837,35.876640,53.6335465
Jonathan Miller,43,8408 Steven Loaf Suite 500,Lake Brian,Kentucky,32598,145.228263,30.4893725
Steven Dominguez,80,059 Jason Landing,Welchport,Colorado,34539,-86.904250,-28.373161
Adriana Davis,78,71958 Lopez Key Apt. 464,Jennifermouth,Iowa,95174,-135.550411,-59.889190
Mike Wheeler,39,009 Erickson Vista,North Steven,Arizona,79669,34.236309,-68.9701235
Eric Neal,42,395 David Avenue,Greentown,Georgia,41222,-16.995671,-23.7685075
Dr. Justin Rocha MD,54,814 Atkins Islands,East Julie,South Dakota,30182,49.090325,-56.780992
Stephanie Santana,51,45622 Stacy Drives,Port Gloria,Maine,77143,-88.147517,-45.5330805
Sara Singh,41,692 Mary Plains Suite 638,Beltranshire,West Virginia,33506,123.823228,23.127367
Ms. Angela Mendez,59,158 Chang Throughway,Hurleymouth,Rhode Island,15663,118.670057,-29.767446
Richard Bullock,50,84926 Mcdaniel Springs,Kathrynberg,Missouri,19226,-172.971890,31.6414285
Ronnie Huffman,42,3541 Jenna Ferry,Darlenemouth,Virginia,66165,147.499093,-31.6341735
Laura Woods,53,340 Jennifer Stream,Ginaberg,South Carolina,57700,131.508803,-54.6449645
Robert Cook,66,5221 Michael Rest,Heatherfort,North Dakota,30510,122.513516,-22.7402235
Stephanie Santiago,25,3603 Aaron Cliffs Apt. 353,Christinechester,Mississippi,59882,-43.072910,53.1241555
Robert Nelson,34,789 Murray Underpass,Port Christina,New Hampshire,01860,-98.505163,-11.0249925
Eric Meyer,76,751 Wright Circles Suite 910,West Sierra,Arkansas,72338,39.827086,-39.8331865
Denise Smith,65,8934 Jensen Loaf Apt. 173,Marissahaven,Rhode Island,30042,175.996272,75.2779185
Kim Roman,65,2884 Lane Forge,Abigailchester,Pennsylvania,38747,93.720485,27.054624
Robert Acosta,55,543 Wendy Plaza,South Jasonmouth,Connecticut,98530,-78.193070,-48.9723795
Rebecca Shannon,80,49213 Morgan Fork Suite 768,West Curtismouth,Nevada,65547,177.195623,-51.655087
Melissa Cherry,53,24932 Johnson Parkways Apt. 697,North Alexandertown,Vermont,58075,118.024164,62.148612
Elaine Benton,22,815 Sutton Overpass Suite 590,West Tina,Wisconsin,40198,-61.965548,17.7263725
Alan Harper,18,217 Doyle Fall,Lake Calebview,Ohio,92022,56.284280,41.100070
Matthew Nelson,70,170 Julie Trail Apt. 540,Brettberg,Illinois,64492,69.975245,42.305164
Elizabeth Wall,22,97840 Wolfe Villages Suite 222,Kellyville,Nevada,96565,-157.506378,9.576103
Kelsey Pineda,57,13388 Paul Shoal Apt. 708,Randallmouth,Indiana,23922,-35.372785,-4.389960
Michelle Kim,35,1959 Delgado Spring,Johnstonburgh,New York,77219,-14.365210,62.610275
Damon Morales,70,16907 Jones Crossing,East Philip,Oregon,62629,111.730675,-89.995995
Marissa Rose,65,86344 Friedman Radial Suite 237,Port Michelle,Alaska,50801,-93.701337,-82.522327
Brian Brooks,45,37559 Justin Knoll,Port Lindaville,Indiana,88635,42.164549,-69.641319
Jenny Lewis,54,3878 Aaron Mills,Baldwinfurt,Georgia,46632,-92.956620,34.717827
Jose Tate,59,4601 Bishop Center,Scottmouth,Florida,58822,-2.607558,-82.7871645
Jeffrey Levy,77,950 Sutton Drive Suite 024,Reynoldsfurt,Maine,55966,-89.430819,-83.094339
Aaron Jones,48,3676 Schneider Throughway,Stephensview,Montana,06338,96.711397,-7.0239545
Lisa Clark,51,2069 Wolf Forge Suite 109,Patriciatown,Virginia,89849,173.813914,5.5395735
Abigail Massey,27,223 Marquez Green Suite 882,Rodriguezfort,New York,19194,-19.741966,59.3772385
Diane Hawkins,22,62812 Derek Burgs Suite 084,Garychester,New Mexico,83768,149.861461,49.254892
Jennifer Gallagher,74,64569 Rebecca Stream,New Lisa,Nevada,59779,-149.624666,34.552236
Philip Smith,18,88976 Dustin Loop Apt. 277,Kellystad,Louisiana,64422,109.996084,27.4575865
Dustin Garcia,24,88623 Nicholas Garden Apt. 696,Lake Karenton,Arizona,56406,25.339300,78.4638325
Kathleen Kent,70,1228 Williams Keys,Charlesview,Colorado,31578,6.039214,52.6743105
Patrick Edwards,42,5184 Ryan Isle,Randyville,Florida,41893,173.971840,70.5782255
Joshua Norton,60,89670 Tiffany Gateway Apt. 112,North Richardbury,Vermont,46313,92.912025,58.600130
Nicole Little,71,4151 Jenkins Isle,Williamshire,Florida,20698,-65.775512,57.668331
Brian Young,18,9173 Allen Hollow Apt. 569,New Ginashire,Wisconsin,28992,-128.358856,-33.259738
Julie Leonard,24,8908 Rodriguez Islands,East Deanport,Oklahoma,25042,142.903943,-49.861128
Alexandra Brown,31,7561 Jonathan Street,Armstrongton,Iowa,07565,162.563092,-72.074764
Jenna Taylor,18,7671 Gregory Shoals Suite 992,Micheleview,Indiana,86084,-105.397772,80.791785
Katrina Rodriguez,65,868 Johnson Stravenue Apt. 451,North Davidside,New Jersey,01536,-101.005696,60.012625
Nicole Rios,71,017 Matthew Forest,Foleyview,New York,45078,-78.691982,84.374656
Robert Taylor,33,87701 Erin Road,Port Michelleview,Oregon,62400,80.247301,-1.781493
Misty Ross,67,39640 Ponce Rapids Apt. 497,Gregoryview,North Carolina,28738,-38.476536,49.7361385
Allison Green,54,62991 James Lane Suite 052,South Erictown,Oregon,77792,175.660928,40.3948185
Christopher Spence,35,2355 Cory Lakes Suite 960,South Elizabeth,Delaware,40281,153.687280,-21.5381555
George Jackson,67,59479 Butler Lodge Apt. 817,Stephenborough,Hawaii,56493,-49.423767,40.3916545
Misty Perkins,54,6022 Brown Roads Apt. 661,Lake Jasmine,New Jersey,88858,-163.595251,-70.969104
Stephanie Garcia,19,2490 Francisco Cliffs Apt. 279,West Amandaside,Idaho,32080,-148.297357,-4.7164775
Steven Deleon,42,9184 Allen Via,West Nathanton,New Jersey,61650,57.237357,86.953707
Sherri Mathis,54,568 Todd Station Suite 523,West Derrick,Colorado,14229,-98.806020,48.2086025
James Arnold,43,25437 Bush Loop Suite 570,Gutierreztown,Indiana,99137,169.695536,15.693140
Susan Stuart,46,0614 Green Club Apt. 440,Brianshire,Arkansas,59958,25.598749,-41.045404
Bradley Rodriguez,66,00326 Adam Summit Suite 892,Port Kayla,Maine,44783,-73.398214,86.0652505
Morgan Stewart,51,0740 Erica Ford,Lake James,New Mexico,86071,15.743425,-29.2049675
Joseph Rodriguez,37,8628 Lee Row Apt. 527,South Virginia,Pennsylvania,08736,-12.484104,58.981139
James Wilkerson,66,9415 Kennedy Court Suite 038,Port Amandatown,Texas,34361,112.248224,-38.641740
Parker Wright,29,5740 Nathan Roads Suite 211,East Jonathanshire,Oklahoma,96109,-25.601414,38.679554
Steven Mcdowell,80,6982 Newman Mill Suite 235,Lake Nancyfurt,Alaska,74834,-107.312704,14.9665115
Crystal Perry,53,269 Sandra Courts,North Jennifer,New Mexico,51898,-13.727576,-81.7054865
Danielle Andersen,66,866 Cain Avenue,Destinyton,Nevada,29253,-42.164548,-40.3426895
Ann Bates,19,255 Holmes Plains Suite 359,Rebeccahaven,Georgia,85170,-125.800810,34.872076
Nathan Love,53,778 Nathan Mews Apt. 120,Natalieborough,West Virginia,98173,-8.068776,81.403579
Michael Lucas,59,584 Stephanie Lakes Suite 527,Warnerfort,Alaska,85441,-147.466979,-11.1795575
Jeanne Bailey,28,699 Cooper Run,East Davidstad,South Carolina,80096,124.912781,45.739428
Bobby Houston,18,38732 Mary Ville Suite 506,Jamesburgh,Indiana,58279,-53.502107,-8.378735
Jasmine Vargas,29,18843 Brandon Divide Apt. 441,Pamelaville,Kentucky,73986,-26.395039,-52.6573515
Emily Guerrero,65,5756 Robert Course Apt. 094,Port John,Arkansas,46834,-16.793966,-41.7535645
Jessica Kennedy,58,057 Deleon Crescent,South Matthew,Ohio,26948,52.443887,65.469080
Jonathan Perez,70,093 Joan Prairie Apt. 923,North Frankbury,Massachusetts,23491,105.718421,-31.8839445
Michael Morris,52,034 Williams Pines Suite 471,South Christopherland,Oklahoma,50814,-98.477137,46.722903
Dennis Ortiz,65,2493 Eric Manor,Mccoytown,Indiana,19381,-93.458700,-10.1871845
Brenda Cook,32,1279 Ward Mountains,Port Ronaldborough,New Mexico,69267,-113.613806,24.9273765
Samuel Burns,62,99353 Carlson Divide,North Pamelafort,Maine,16870,-44.122306,-24.6870095
Michelle West,43,1232 Eric Well,Deniseborough,Illinois,07895,92.016319,20.4150435
Anthony Patel,50,49110 Timothy Drive Apt. 558,South Meganbury,Louisiana,16398,-12.757616,39.719198
Dylan Hunter,51,4601 Hogan Plain Apt. 307,Lake Lorraine,Ohio,69152,-158.864957,32.7046705
Sarah Garrett,72,161 Derek Tunnel Apt. 166,Port Jessica,Idaho,56627,145.651325,0.0806065
Meghan Johnson,20,37216 Dunn Extension Suite 787,North Amyborough,Rhode Island,42473,-67.622999,71.7640645
Keith Bell,23,9724 Fowler Viaduct,East Jean,Wyoming,06787,152.400802,56.681794
Stephanie French,36,8185 Laura Lock Apt. 654,Starkport,Nebraska,19968,172.772917,-11.249175
Anna Donaldson MD,21,16989 Bennett Street,New Stephenside,Montana,71722,82.848342,58.738039
Traci Callahan,57,379 William Club,Lake Andreaside,Missouri,98542,82.232922,-34.061547
James Lawson,40,558 Greene Union Suite 686,South Jason,Connecticut,46614,169.301129,37.178235
Joseph Davies,75,88821 Johnson Prairie,Sullivanburgh,Missouri,64508,-103.125474,-53.912123
Karen Graham,75,0630 Vargas Prairie Suite 893,Jenniferside,Alaska,51348,-58.159081,62.922748
Tina Craig,77,5345 Clark Square Suite 347,Sullivanshire,New Hampshire,21915,-113.927208,-54.045956
Amy Smith,74,3137 Lynch Parkways Suite 018,North Stevenland,Minnesota,08488,-111.467603,80.0740225
Ann Jackson,27,82563 Oliver Forks,Ashleyborough,Oregon,94887,83.068407,69.735570
Debra Tran,37,24808 Kathy Extension Suite 748,North Brandon,Delaware,45187,55.055315,44.1590055
Tracie Kennedy,79,001 Katherine Shoal,East Deborahberg,Maine,90410,127.041970,-23.822746
Sandra Ingram,72,37710 Mccarty Way,Carrollfort,Wisconsin,68477,130.141081,33.268410
Toni Ramos,43,99764 Pierce Ports,East Charlene,Indiana,89933,67.463600,84.5144335
Laurie Nelson,71,056 Kevin Bypass,Jasminebury,Iowa,49333,-10.426714,-9.210879
Sean Obrien,52,30258 Lewis Drive Suite 348,Dudleyport,Texas,39872,-104.347532,75.130807
James Erickson,28,4378 Emily Manor Apt. 151,Williamsshire,Wisconsin,21010,3.982321,-7.170532
Jessica Lyons,80,8375 Lee Island,Taylorfort,Pennsylvania,18671,-143.944563,42.9287225
Jo Ruiz,80,2404 Irwin Extensions Apt. 069,Josephstad,North Carolina,66205,27.231015,64.704347
Philip Martin,18,358 Sheri Center Apt. 840,Taylorchester,Illinois,85126,130.542653,15.351407
Lauren Patel,43,501 Cody Junction,New Josephberg,Maryland,12129,-70.664444,-50.903010
Jennifer Perry,53,0671 Priscilla Brooks,Bakerview,North Carolina,69591,-173.287419,-34.8056865
Tyler Wells,29,7650 David Heights Apt. 323,West Barbaraside,Maryland,06404,83.572905,-84.887122
Peter Davis,65,24598 Julie Avenue Apt. 673,Daniellemouth,North Dakota,83262,163.120771,-10.456609
David Escobar,69,576 Fuller Dam,Smithmouth,New Jersey,05462,-71.107128,72.757931
Amy Hartman,65,74730 Ethan Heights Suite 404,West Angela,Vermont,03911,137.952215,-16.0229475
Jeffrey Compton,55,0074 Valerie Plaza,East Savannahland,Tennessee,45192,54.161634,11.309239
Shirley Higgins,40,4857 Miller Unions Suite 956,North Nicholasfurt,Tennessee,13373,-111.906410,52.516818
Kiara Williamson DDS,52,9735 Mejia Corners,New Heidimouth,Colorado,54474,11.590086,49.0942525
Jason Rose,76,501 Tyler Plain Suite 021,North Christopher,Michigan,20548,-0.964875,-53.578039
Christina Peters,70,3333 Beck Neck,East Joyce,Virginia,92758,-52.718830,-36.5025365
Timothy Berger,48,830 Kenneth Walks,West Damonside,Illinois,52306,-18.424340,-55.959583
Jeffrey Jones,22,18327 Anne Estates Apt. 137,Lake Pennyborough,Georgia,73450,82.197008,-9.236399
Rachel Boyd,57,7378 Steven Ramp,Buchananville,Oklahoma,94205,40.337678,-76.201554
Kara Barry,50,07232 Megan Drive,Peterchester,Georgia,95896,140.345930,-71.5245315
Seth Juarez,21,82132 Megan Roads Suite 818,Lisaview,Kansas,52149,140.246623,71.0312345
Daniel Garcia,73,5789 Tate Run Suite 310,Wellsbury,North Carolina,82990,137.126507,-49.949719
Edgar Carrillo,51,1381 Collins Rest,Deanton,Nebraska,12839,-15.242514,1.056705
James Little DVM,39,0481 Kristina Flats Suite 987,Jerryside,Colorado,99140,112.361972,41.5379545
Dwayne Haley,29,80324 Lori Union Suite 955,Johnsonshire,South Dakota,90611,42.705538,-7.8255255
Larry Ortiz,69,722 George Extensions Apt. 740,New Jenniferberg,New Hampshire,80361,9.336783,-72.8954425
Brian Jackson DVM,78,60906 Jennifer Route Suite 406,East Robertbury,North Dakota,39901,133.552695,74.7861435
Taylor Soto,66,8171 Obrien Grove Suite 302,Lake Christy,Kentucky,74958,-82.840031,14.1216075
Dana Carter,19,06816 Butler Stravenue,South Jonathanport,Maryland,63882,115.258417,65.369182
Cody Rodriguez,63,90088 Donna Walk,Lake Michellemouth,Louisiana,17455,-89.292421,-58.331160
Joshua Carter,29,75648 Mariah Meadows,South Rachelshire,Michigan,90410,35.640236,-81.9830795
Kimberly Briggs,47,707 Rebecca Isle Apt. 179,South Charles,Rhode Island,51090,144.000257,53.241247
Dale Bush,37,8380 Nash Valley Apt. 453,Cherylville,Nevada,42886,81.771572,-72.955668
Gloria Zimmerman,53,47378 Fitzpatrick Port,Murraymouth,Montana,96572,-41.229947,38.0772395
Gary Ramsey,60,301 Branch Glen Suite 785,Brianfurt,Colorado,12110,-97.069548,-12.7747905
John Myers,69,6165 Shawn Shores,South Ashley,South Carolina,91220,-131.951762,21.428788
Brandi Roth,76,9972 Lisa Ridges,Katherinehaven,Mississippi,77179,29.611006,-65.6966805
Stacey Salazar,77,915 Jackson Hollow Apt. 563,Ortegafurt,Montana,46692,53.958774,36.7287305
Thomas Mcconnell,25,9761 Brown Circle,Zacharymouth,Hawaii,34374,38.209242,-10.164495
Gerald Owens,21,941 Heather Squares Suite 328,Port William,Mississippi,03405,167.444582,50.774212
Heather Moore,51,97319 Ricky Stravenue Apt. 346,West Scottville,Minnesota,17858,138.258779,71.5799075
Anthony Clark,64,0867 Pamela Street,Kyleville,Idaho,49038,-97.539421,42.9586835
Travis Williams,48,024 James Coves,Mcclurefort,Michigan,20899,64.544566,28.320078
James Glass,40,729 Scott Island,Port Alexmouth,Connecticut,82423,156.205972,-42.642204
Jamie Johnston,42,2998 Christopher Centers,Rowechester,Wisconsin,70611,102.274704,-21.441303
Cassandra Guzman,61,54248 Walter Oval,Veronicatown,Oklahoma,17944,21.942686,-79.576998
Donna Wagner,21,2318 Amy Drive,Turnerport,Idaho,00992,-177.743189,51.9253915
Carrie Montes,53,25697 Lindsay Causeway Apt. 860,North Rita,Michigan,62837,-149.148044,-52.7631615
Ann Myers,39,3992 Cannon Village,South Geraldland,Iowa,59861,136.014883,50.390557
Daniel King,29,5020 Johnson Cape Apt. 394,Clarkmouth,Vermont,04589,41.334264,-7.0934215
Michael Smith,48,826 Charles Key Suite 645,West Daniel,Arizona,53192,-62.045054,14.371692
Jimmy Garcia,80,60665 Zamora Greens Apt. 811,South Laurie,Kentucky,46508,-40.792346,31.3025865
Pamela Clayton,28,028 Sydney Turnpike,Jeffreystad,New Jersey,01343,95.414031,60.5301115
Thomas Perkins,40,70613 Tina Roads Apt. 465,Smithtown,Arizona,35128,-56.251631,-47.836927
Heather Velasquez,31,37452 Watson Glen Suite 762,Butlerstad,Arkansas,66339,-172.442877,-1.5841795
Charles Smith,43,83789 Reid Rue,North Jamesfurt,Nebraska,74639,28.282110,-87.510070
Ashley Francis,76,221 Richards Summit,Lake Jennifer,Hawaii,83856,40.197741,47.097361
Courtney Phillips,75,25706 Dixon Walks Suite 023,Lauramouth,Connecticut,04329,146.583803,42.1989335
Kristen Davis,37,34932 Richard Overpass,West Natalie,Texas,75238,156.930877,-38.9050065
Phillip Buchanan,59,5765 Adams Run,Donaldmouth,Rhode Island,34891,-87.490573,70.273028
Kathleen Hill,37,64669 Michael Flats,South Dustinland,North Dakota,46805,-50.645329,88.508765
Adam Cline,35,393 Darrell Shores,Jeffshire,Virginia,96090,144.955766,10.582987
Mark Lee,34,171 Barrett Terrace,Millsville,Illinois,26922,-44.134016,-51.7334215
Matthew Peterson,76,138 Sean Estate Apt. 205,North Williammouth,Minnesota,90981,86.931018,73.8831565
Denise Wilson,25,876 Lee View,Bishopview,Pennsylvania,09817,-44.811050,44.763796
Peter Stout,35,6659 Wright Bypass,West Ronald,Wyoming,60473,-69.734584,41.9200475
Jennifer Herrera,48,6876 Jerry Circles,North Robinstad,Connecticut,10768,-168.316911,78.8617535
Jason Richards,40,077 Thomas Crescent,New Franciscoburgh,Montana,21701,156.752679,-15.906039
Ashley Jackson,52,67432 Grant Canyon Suite 117,Matthewstad,Alabama,86507,-174.767851,-70.888853
Jessica Curry,74,255 Caitlin Summit Apt. 824,Stevenburgh,California,71227,154.186556,85.4906845
Maria Ashley,45,9611 Chris Fork Suite 413,Martinhaven,Oklahoma,17627,-177.694141,48.8108245
Karl Parks,74,39707 Charlene Mill,Mendezbury,North Dakota,76247,109.470712,-46.0020475
Russell Johnson,36,1314 Nelson Glens,New Jill,Delaware,59791,-137.721290,37.1597885
Alison Downs,54,822 Mark Roads,Alexanderberg,Illinois,69749,-122.889074,77.5215365
Ryan Wiggins,74,7124 Margaret Tunnel Suite 931,Crosbyport,Oregon,23463,-140.752003,21.198871
Martha Peterson,54,45812 Martin Gardens Apt. 092,South Dawnburgh,Illinois,51114,56.320871,45.3521805
Cathy Myers,47,283 Bryan Canyon Suite 638,Sandrachester,Missouri,10540,-39.294404,-18.845643
Grant House,55,1137 Clark Vista Suite 430,Buckstad,Texas,47894,-90.575412,71.097726
Chad Hood,50,4462 Newman Keys Apt. 610,Jonathanfort,Delaware,48755,166.031467,-78.681393
Juan Carr,38,45422 Anthony Village,East Rachel,Delaware,50039,-61.761862,71.836777
Robert Pearson,73,6465 Matthew Key,Lake Nicoletown,Maine,28848,69.599042,-27.9097835
Sheryl Goodman,41,87394 Murphy Drive Suite 956,New Shirley,Wyoming,28321,44.838184,-33.2713705
Adam Jones,36,86910 Villanueva Locks,South Jeanette,Mississippi,58748,-46.242067,-62.120192
Justin Lewis,51,37946 Cooper Overpass Suite 985,Carolynchester,Mississippi,62408,-128.548315,75.161499
William Kelley,56,48954 Michelle Flat Apt. 257,Madisonmouth,Louisiana,30036,171.605986,40.1364975
Katrina Knox,76,14704 Perry Track,New Danielmouth,Massachusetts,94393,-169.124024,55.471077
Brenda Brown,61,7915 Jones Skyway,Craigmouth,Pennsylvania,06657,-28.919653,63.9690475
Melissa Murray,64,90842 Smith Square,South Sharon,Ohio,66233,43.780221,30.9478735
Eugene Horne Jr.,49,4429 Salazar Parkways Apt. 179,Lake Kerri,Delaware,80006,18.025006,-20.8519655
Patricia Hinton,49,4404 Cox Shoals,New Kylebury,Virginia,06116,-10.965783,-57.6828625
Johnny Terry,19,507 Wilson Radial Apt. 309,Mendozafort,Missouri,92151,-30.617256,21.2562955
Isaac Walker,37,5545 Shannon Haven Apt. 735,Bryanland,Colorado,06151,-167.494989,38.213792
Ricky Ellison,66,56667 Zachary Freeway Apt. 767,West Julie,Indiana,28062,-99.218926,79.372176
Thomas Ruiz,71,5385 Guerrero Mountain Apt. 917,Kaylaside,Iowa,12664,156.187423,-29.8176885
Joshua Watson,47,119 Sanders Lodge,Port Nicole,New Mexico,11398,-169.557271,13.9228005
Grant Frank,62,40082 Dawson Keys Apt. 284,Howardmouth,Virginia,35699,-151.813831,-56.7995205
Paul Bradley,55,1017 Kathleen Circle,Thomasville,Utah,46963,70.793906,38.0284195
Clifford Dixon,52,26243 Molly Circles,Jeffreyshire,Wisconsin,95620,103.324996,-9.713486
Megan Ramos,66,2434 Derek Mount Suite 445,East Martin,Ohio,54211,63.033835,9.476709
Brianna Armstrong,33,977 Brian Expressway Apt. 675,Port John,Maryland,37919,118.269800,27.7765215
Kevin King,45,392 Lucas Highway,Olsonview,Pennsylvania,20410,-170.221757,8.623919
Richard Phillips,40,2822 King Route,South Allison,Oklahoma,59365,112.925577,-43.145833
Brandon Johnson,75,6811 Patrick Ranch Suite 109,Brayside,Oklahoma,05877,142.631431,-49.010719
Amanda White,61,607 Shelton Stravenue Suite 597,New William,Minnesota,79838,-177.237566,-10.854958
Harold Nelson,18,6910 Brewer Pine Apt. 323,North David,South Dakota,39158,108.538230,35.0630245
Charles Barrett,22,24995 Rosales Villages,Kaiserport,Nevada,68687,149.147673,16.5425525
Angela Marshall,23,8630 Karen Estate,Solismouth,Maryland,38381,131.239655,10.824530
Michael Ramirez,26,5528 Robin Hollow Apt. 460,Colefort,Alaska,40783,-155.818332,26.9768215
Thomas Vasquez,31,6343 Heather Island Suite 555,Matthewhaven,Arizona,93902,-90.742685,81.886759
Christina Bailey,51,86179 Hodge Mission Apt. 655,Port Edwardmouth,Alaska,78821,161.068146,24.262134
Nicholas Zimmerman,31,10611 Brittany Isle,Chenbury,Montana,83275,163.420819,-15.0398915
Lindsey Ellis,39,180 Barry Courts,Kleinberg,Mississippi,35546,-3.825108,-45.5095475
Matthew Davis,26,597 Kevin Common,New Randy,New Mexico,51363,32.026768,-50.708649
Melody Buchanan,79,5727 James Flats Suite 915,South Gregory,Massachusetts,24479,173.233496,29.9312175
David Casey,45,1447 Marcus Corners,Brownchester,Kansas,91386,75.056609,-79.703466
Stephanie Barr,78,73947 Poole Square Suite 696,Laurenberg,Ohio,64381,-122.956741,-54.5816825
Robert Rubio,33,289 Cathy Mills Apt. 674,Lake Nicholasland,Indiana,19709,-19.869226,-36.5951265
Brandon Parks,35,970 Catherine Wells Suite 330,Port Tammy,South Carolina,91106,76.719943,-37.1246725
Steven Yates,44,941 Johnson Islands,Ericchester,Georgia,25402,-170.132435,32.060974
Dennis Johnston,46,8671 Rush Landing,Hancockchester,New Mexico,29629,144.419200,34.0990645
Anthony Gonzalez,38,59568 Lauren Tunnel,West Janet,Alaska,90801,2.660873,-63.468041
Stacey Small,52,771 James Overpass,Jenniferview,Georgia,68196,115.732741,57.850218
Christina Rose,65,18383 Eddie Village Suite 123,North Nicoleburgh,Alabama,97307,-143.819524,-3.7783705
Miss Bailey Douglas MD,62,506 Gentry Branch Suite 845,Lake Johnmouth,South Carolina,91768,143.905344,-53.5177295
Karen Duncan,77,8081 Sarah Square,South Nicholeville,Indiana,70712,-81.042290,-85.0029665
Sandra Lopez,57,474 Karen Garden,West Michaelfurt,Alabama,25345,165.458213,-38.3702785
Jessica Lewis,67,2497 Melissa Club,Byrdtown,Mississippi,22225,-5.128777,-64.443676
Caroline Soto,52,476 Heather Glen Suite 659,Swansontown,North Carolina,22303,-78.438402,13.166943
Brent Huang,37,985 Renee Prairie Suite 757,Beckyville,Tennessee,17890,137.061567,-81.6730165
Kylie Miller,19,41080 Burton Road,Robinbury,New Jersey,55379,123.257275,-78.4412195
Anthony Bradley,63,12114 George Walk,East Craigfort,Vermont,11888,93.152894,-72.8913655
Victor Thompson,64,06687 Wilson Drives Suite 111,Wileyhaven,California,16520,-162.069079,44.0424085
Amy Ramirez,32,7618 Underwood Spurs Apt. 116,Mathisside,Illinois,53214,-19.829435,27.329892
Rachael Adams,31,9315 Shaw Track Suite 328,Lake Amber,Indiana,81842,151.448305,31.6755915
Chad Hale,64,98864 Johnson Stream,Glennburgh,Delaware,17608,12.537658,27.801170
Jasmine Gonzalez,66,8522 Laura Lodge,Mendozatown,Tennessee,85970,135.997316,20.586980
Travis Miller,69,557 Darin Forest,Anthonyfurt,Iowa,02921,177.276495,42.8640805
Deborah Mahoney,25,245 Holt Fall,West Diana,Arizona,64254,-11.686363,74.549836
Roy Trevino,35,8728 Lauren Coves,Amybury,Georgia,12144,2.881344,83.630408
Matthew Lopez,48,33606 House Green Apt. 559,Angelatown,Georgia,47873,-119.311697,-10.368478
Kristy Ramirez,61,9722 Mark Neck Suite 743,New Christinamouth,Michigan,82762,-134.636462,-84.049817
Dorothy Hill,54,25888 Page Path Suite 584,South Christian,Maryland,10351,-142.577394,2.562793
Candace Palmer,79,68102 Clark Union Apt. 981,South Coryport,Wisconsin,06587,56.486103,45.2981445
Mckenzie Rosario,58,34253 Rhonda Springs,Stevensontown,Texas,40572,-155.705991,-12.0080545
Melissa Johnson,40,40233 Robert Courts,New Diana,Louisiana,30158,34.582950,-20.799319
Amanda Miller,30,715 Kyle Haven Suite 807,Bellshire,Maryland,60265,-8.028342,4.3296665
Kenneth Adams,39,510 Serrano Ridges Suite 962,North Daniel,Montana,34173,150.535485,25.2421585
Hunter Henson,73,0776 Moore Turnpike Suite 075,South Derekton,New Jersey,71498,79.974663,52.1128935
Cindy Torres,56,57199 Fisher Valley,East Bradley,New York,01031,-78.482109,-20.6268805
Erin Smith,39,52304 Gloria Underpass Suite 356,Tiffanyberg,Maryland,64697,117.898605,-25.255936
Paul Robertson,59,995 Maldonado Corner,Mossmouth,New Hampshire,81748,-44.693024,-55.480803
Christian Daniels,77,025 Johnson Coves Suite 226,Brentland,Kansas,96658,87.357769,83.9841935
April Horne,56,82761 Collins Avenue Suite 337,Amandaland,Maine,96067,134.526367,-36.4985765
Jean Williams,79,970 Ward Estate,Lake Randy,Tennessee,25379,-105.188822,79.047396
Michael Lewis,19,24450 Crystal Alley Apt. 244,Potterberg,Hawaii,83581,135.713307,-32.761479
Brandon Moyer,26,2294 White Brooks Suite 903,Shanestad,Florida,79067,-43.809277,89.9396675
Thomas Martinez,19,2142 Jonathan Plaza,East Tracy,Nebraska,60534,39.490838,18.579061
Mary Rios,33,34380 Harris Springs,Johnsonchester,Texas,94217,81.127256,69.339284
Joseph Ray,79,3650 Henry Dale Apt. 622,Lake Geraldshire,Ohio,03923,-158.448484,-15.431137
Lauren Alexander,52,67499 Torres Alley Apt. 532,South Lynnstad,Virginia,22396,-30.173160,-10.940894
Dr. Stacy Zamora,74,807 Jason Plains Suite 637,Lake Joeport,Alabama,72629,66.063048,38.2515615
Sarah Butler,76,82123 Ronald Terrace Suite 022,Samanthaberg,Kansas,03754,-154.277578,-76.8224685
David Barrett,73,314 Deborah Branch,Bennetthaven,Illinois,13607,105.827983,64.663319
Susan Mueller,33,183 Cummings Ports,Port Christine,Iowa,59326,-60.063983,-27.104315
Joshua Ortega,59,6027 Jenna Prairie Apt. 071,West Vincent,Arizona,97923,-177.161313,-34.9469305
Joshua Kelley,70,2860 Scott Cliff Apt. 027,Mandyport,Delaware,70803,161.607504,50.9354895
James Kennedy,63,46487 Taylor Passage,Port Garychester,Arizona,92269,-123.916988,-57.5102935
Adam Kent,55,34743 Colleen Plains Apt. 995,Laurenside,Kansas,40923,-67.531435,-86.4853405
Larry Mosley,64,28984 Cherry Run Apt. 097,Port Misty,Arkansas,14289,174.296237,66.8271235
Kerri Solis,20,04209 Rodriguez Knoll Apt. 926,South Donaldbury,Alaska,54575,175.461847,56.0468265
Katie Huynh MD,37,08646 Mcdonald Knolls Apt. 269,South Cynthia,California,25708,-77.093658,51.638834
Casey Williams,67,72296 Shelley Village Suite 972,Jonshire,Alabama,00651,167.513073,-61.8215915
Christopher Hernandez,60,27583 Glenn Passage Suite 586,North Christophermouth,Utah,89504,-64.206332,21.880309
Erin Terry,58,04257 Brandon Center Suite 499,Heathfurt,California,39792,-95.915274,52.540152
Andrew Davidson,45,844 Underwood Lock,Bakerhaven,Wyoming,46715,125.020545,13.455166
Juan Poole,56,03182 Howard Light,Jacobstad,Utah,50728,-102.986053,19.958631
Matthew Pierce,58,862 Mark Summit,South Alexisshire,Utah,17840,-136.410452,54.833942
Amy Buck,58,16810 Kimberly Camp,Sullivanside,Pennsylvania,58386,68.139008,-58.832507
Sandy Warren,21,11945 Andrade Freeway,East Michael,North Carolina,50245,-169.660546,-14.1977025
Matthew Davis,49,9349 Frank Brook Suite 229,Kellermouth,Rhode Island,86981,-135.839741,-5.4887835
Brian Sellers,40,4028 Lewis Estates,Lisahaven,Mississippi,62340,-95.545611,-83.190463
Jeffrey Silva,47,307 Watson Cape Suite 127,Williamsbury,West Virginia,81390,-139.915877,-0.944871
Ashley Hopkins,32,4262 Munoz Mall,Port Rebecca,Colorado,20520,-153.077803,22.1209445
Timothy Butler,68,6224 Gray Course,South Jessicafort,Texas,47288,114.080364,45.7709035
Andrea Ochoa,54,7411 Mccann Court,Lake Kristinborough,Indiana,37754,156.334106,7.5799795
Carl Maynard,65,31505 Spencer Gateway,Susanburgh,Missouri,17259,-41.125198,-14.341081
William Rogers,44,733 Preston Glens Suite 668,Thompsonland,Iowa,08782,-116.930997,-78.325094
Emily Ingram,72,41912 Travis Dale Apt. 098,Port Jennifer,Vermont,17429,48.328309,-2.7333785
Michael Patton,49,6478 Rebecca Skyway,Port Jessicaberg,Wisconsin,29448,-123.746820,36.0758355
Cody Knox,40,5952 Chad Village,Port Edward,Delaware,55950,-88.235244,47.980906
Daniel Diaz,25,52302 Megan Branch,Port Daniel,New Jersey,70758,119.485889,1.5965055
Desiree Rosales,67,5492 Ho Well,North William,Wyoming,89087,160.804765,68.780266
Cynthia Lopez,71,8688 Smith Throughway Suite 798,East Michael,Utah,59828,138.033505,32.313340
Angela Williams,19,0147 Harris Stream,Port Kennethside,Idaho,01205,-75.656808,-11.883517
William Huff,75,812 Tucker Pines Suite 409,Schmidtport,Indiana,82582,-81.657245,28.525436
Eileen Nielsen,26,841 Chad Street,Hughesmouth,New Jersey,34499,179.887259,-69.478698
Matthew Torres,33,7668 English Prairie,West Tylershire,Wyoming,74045,114.448552,-68.080846
Angela Hodges,65,0291 Robert Prairie Suite 753,Lake Raymondtown,Arkansas,19727,-159.257930,-39.5391595
Thomas Parker,56,08033 Matthew Villages Suite 139,Russellton,Nebraska,42687,-70.548876,-17.5690545
Michael Clark,21,106 Monica Camp,New Katherineport,Rhode Island,55505,129.978469,-16.9081465
Dawn Lynch,24,843 Melanie Fields Apt. 814,New Mathew,Maryland,01284,-49.489089,-17.937049
Taylor Blair,79,7059 Lopez Junction,Nguyenborough,Michigan,76619,132.623181,37.186852
Melissa Jones,78,93340 Hudson Prairie,New Caroline,Wisconsin,38325,-168.986908,19.718454
Lisa Rios,61,7509 Jared Springs Apt. 446,Port Williamshire,New Mexico,32080,-13.315133,-54.2282885
Anna Cook,32,516 Arthur Alley Apt. 942,East Joseph,New Hampshire,69334,116.936668,84.8958065
Mark Smith,32,493 Mark Trace Apt. 138,Port John,Hawaii,68827,108.754048,4.2095325
Larry Young,66,3698 Vincent Wells Suite 632,Charleshaven,Vermont,74617,-55.156686,16.176215
James Foley,69,6087 Jason Cape Suite 700,Gillespieberg,Maine,61399,7.741631,19.701653
Leslie Garcia,46,343 Matthew Vista Apt. 988,Shahhaven,Virginia,96690,-97.170222,-39.899694
Jennifer Carter,30,6115 Edwards Turnpike,South Andre,Louisiana,98063,-90.320489,76.996609
Alexis Price,25,5017 Neal Hollow Suite 392,South Sharon,Montana,75117,123.636362,-77.2844695
Casey Brewer,47,1366 Parks Light Suite 467,Kaitlinberg,North Carolina,89692,-8.577377,-64.7283335
Deborah Powell,35,402 Larsen Manors Suite 630,Andrewview,New Jersey,57131,68.581680,16.5768905
Aaron Marsh,70,20906 Leslie Circle,North Samanthamouth,Virginia,49635,-49.734827,-24.2865915
Robert Reyes,23,35532 Valentine Path,Kingport,Idaho,77626,-76.348596,10.014544
David Palmer,78,78028 Riley Heights Apt. 623,Jimport,Alaska,08826,-27.707545,4.257255
Peter Martin,68,92860 Kenneth Mews,Lambertmouth,Maryland,74385,151.725546,-33.4065835
Hunter Ortiz,74,045 Kyle Shoal Apt. 571,New Alexisfort,Kentucky,16757,85.438545,45.1787345
James Green,53,540 Katherine Plaza Suite 916,Lake Shawnfort,Iowa,39132,-44.112421,-70.439002
Dominique Tucker,71,4411 Cohen Mall Apt. 937,Andrademouth,Colorado,56626,-21.465391,66.9159685
Dr. Jennifer Horne,72,180 Vaughn Neck,South Marialand,South Carolina,32982,165.706907,-86.748098
David Reynolds,23,987 Campbell Plaza Suite 593,Rodneyshire,Hawaii,36287,-34.300405,25.0631315
Melanie Weaver,38,850 Vasquez Motorway Suite 483,South Bruce,Delaware,94849,7.782438,79.345510
David Houston,79,15096 Thompson Ridges Apt. 477,Millermouth,West Virginia,59251,36.726144,-46.0627945
Natalie Warner,53,021 Dunn Mission,Lake Pamelaborough,New Mexico,76496,-159.336134,-0.411409
Julia Mitchell,25,74352 Weeks Ramp,Fergusonhaven,Florida,16941,-57.377404,10.517274
Jonathan Wright,75,8365 Smith Plain Suite 546,Port Lauren,Indiana,18640,60.439698,-25.1877735
Luis Keller,79,64565 Marc Pines Suite 439,Luisberg,Nebraska,61863,-140.771935,41.8212625
Dr. Cynthia Becker DDS,46,101 Andrew Trace,North Gabrielhaven,Arizona,86964,-78.950611,24.2854075
Shelby Mendez,34,972 Moran Estates Suite 163,Duncanmouth,Iowa,57428,-21.733681,60.5786165
Valerie Gutierrez,68,6093 Warren Cove,Chenfort,New Mexico,50609,71.458897,-37.6188245
Larry King,57,159 Hubbard Lock Suite 001,Susanfort,Massachusetts,99180,121.358551,78.339092
Jonathan Walker,57,5590 Thomas Forges Suite 880,Michellechester,Arkansas,05228,61.922019,40.312273
Karen Washington,20,969 Michael Squares Suite 267,South Jonathanfurt,Nebraska,56215,93.570370,56.611752
Morgan Avila,53,8116 Richards Lights Suite 806,Donaldport,Alaska,64803,-67.162667,11.173623
Christian Alexander,47,553 Chase Lights,Lewisside,Rhode Island,93846,-6.044989,42.413981
Andrew Clay,31,6731 Cindy Rue Apt. 249,Codyville,Hawaii,39543,-153.593807,-63.8259755
Mark Lester,55,4799 Jordan Gateway,Antonioburgh,California,83495,-140.512079,27.519781
Peter Ballard,59,460 Pittman Street,Williefurt,Missouri,81152,158.138137,44.477027
Laura Edwards,71,888 Heather Club Suite 190,West Joseph,Mississippi,54719,161.241566,-23.3674845
Holly Manning,56,3105 Ashley Knoll,Lisafort,Rhode Island,53066,177.232245,-45.562108
Heidi Melendez,29,56718 Breanna Brooks Suite 572,South David,Delaware,78417,65.656039,12.3084705
Bryan Blackburn,65,3201 Sullivan Freeway Suite 157,Johnsonberg,Wisconsin,28255,-137.417453,11.2855005
Lori Mueller,50,21411 Joshua Lakes Apt. 443,Rebeccatown,Oklahoma,71864,-176.666770,30.9902975
Daniel Andrews,26,6001 Miller Estate Suite 017,Williamsfurt,Illinois,95692,3.639364,10.1460485
Michael Hubbard,55,033 Wilson Pine,Jaredbury,Iowa,68264,-64.716672,-50.9829945
Eric Mcmillan,44,4122 Kenneth Ridges,Kimberlyberg,Alaska,48153,-175.508668,73.9471865
Kayla Brown,71,421 Brian Fords,North Tony,Minnesota,20611,100.847470,60.290644
Michael Hanna,69,85675 Johnson Roads Apt. 817,South Robinview,Massachusetts,25534,-0.775689,77.355809
Joshua Moore,27,58303 Sydney Pike,North Samanthatown,Michigan,89549,174.441293,-14.426129
Bradley Jones,70,301 Jacob Mission Suite 449,Daniellestad,West Virginia,27284,13.322514,32.4309775
Gloria Dickson,46,8301 Dillon Lane Suite 519,Lake Sherri,Pennsylvania,79656,-104.057902,73.030876
Edwin Gibson,47,620 Kristina Port,Garciaview,Vermont,65581,176.474992,56.5883695
Kevin Figueroa,53,4168 Pamela Fork,Williamsmouth,California,28218,136.603151,-9.8914065
Melissa Richards,77,3983 George Shore,Kevinside,Montana,12732,-175.346204,0.515983
Valerie Smith,64,4262 Erin Avenue,Staceyberg,Wisconsin,05504,-115.594433,-48.7841895
Victoria Thomas,38,8794 Christina Prairie,South Antoniohaven,Minnesota,31972,157.534784,-85.0764535
Michelle Moore,52,48783 Small Stream Suite 853,South Lauraton,Colorado,75774,-86.177043,-25.9066225
Isabel Santiago,34,47297 Williams Common Apt. 973,East Tiffany,Ohio,26551,40.531346,56.681373
Raymond Ortiz,43,20305 Susan Ford,South Lauren,Pennsylvania,47076,-2.880342,-62.0757115
Kelsey Lambert,27,758 Joyce Locks,West Janet,Indiana,78029,-102.250211,-60.855409
Thomas Fox,76,642 Megan Cape,North James,Virginia,57783,-36.149323,5.799088
Karen Ortiz,32,942 Victoria Port Apt. 013,South Rachel,Colorado,66147,48.204041,-78.460373
Katelyn Michael,26,5583 Rivera Dale,Jessicashire,Oregon,09076,-39.991080,-74.579306
Linda Medina,18,55495 Michael Plains,New Kimberly,Delaware,93571,-51.863032,79.9818055
Laura Riley,37,9117 Andrea Hills Apt. 394,West Jerryhaven,Texas,39627,-93.576820,61.4041175
Mary Hensley,75,646 Derrick Club,West Jillianfurt,Mississippi,45914,-75.383455,-77.213330
Bryan Flores,21,40722 Rodgers Rue,Paulachester,Georgia,85405,-84.510824,-39.2495045
John Larsen,44,794 Madison Vista Apt. 708,East Toddview,Utah,28737,151.879846,-31.922932
Joseph Clark,56,13132 Debbie Wall Suite 325,North Jennifer,Oklahoma,78177,-101.179416,78.676882
Amanda Todd,80,2753 Dixon Fork Apt. 221,Lake Anthony,Maine,31813,-64.285165,-4.606722
John George,60,7141 Shaffer Mews,East Keithmouth,Vermont,09955,-153.062077,-16.5848155
Donna Thomas,68,29894 Thompson Mission,Lake Elizabeth,Maine,19817,119.491757,-74.9814935
Steven Harris,49,493 Jessica Course,South Austinstad,Rhode Island,04415,-67.537415,69.3537305
Kevin Trevino,22,126 John Rapids,West Shawn,South Carolina,36432,62.948264,82.767870
Kevin Miller,59,14447 Scott Meadows,North Ryanfurt,Arizona,44873,-68.675954,29.1716185
Kyle Deleon,31,8858 Nicholas Canyon,Brooksside,Montana,99329,161.422426,88.7639215
Christopher Andersen,56,296 Ramirez Curve,West Michaelton,Washington,21841,-151.132633,-87.7723525
Tara Smith,23,51921 Collin Lodge,South Cassie,Washington,92651,-41.927141,-29.0979245
Amanda Phillips,78,64133 Cantu Stravenue Suite 388,East Anthonyside,Mississippi,99786,57.858229,33.263203
Amanda Barnes MD,66,21841 Campos Rue,Lake Lawrence,Oklahoma,93726,-173.709304,5.2331305
April Lee,53,195 Craig Vista,Jessicahaven,Washington,93162,-23.691251,72.9669815
Daniel George,78,72644 Baker Mountain,Lisaville,Missouri,64430,12.376305,23.026705
Melissa Cox,80,9781 Allen Lodge,West John,Mississippi,09876,-89.409407,63.4077955
Veronica Hubbard,24,2769 Timothy Centers,North Jared,Michigan,74211,178.407825,-0.1404175
Christina Wilson,43,426 Tonya Knolls,Hartmanfurt,Nevada,08022,-106.008386,-50.837305
Victor Brown,76,1115 Samantha Skyway Suite 839,Kristenside,Pennsylvania,27275,101.782009,-84.3655225
Alexander Myers,67,990 Herrera Drive,Johnburgh,Delaware,92388,-50.412219,36.4113935
Jessica Pena,20,01586 Rebecca Road Apt. 894,East Nicholas,Idaho,56426,-166.123005,72.7195935
Monica Mccoy,58,548 Michael Valleys,North Johnnyport,Nebraska,14053,-130.434613,-65.995154
Dr. Edward Hansen,47,577 Ashley Throughway Suite 249,Lake Cindy,Louisiana,65868,162.950373,83.7932375
Brent Tanner,34,966 Juarez Oval Suite 035,Howardmouth,Colorado,77556,173.980271,-52.503420
Christina Schroeder,32,84826 Mark Coves,Cruzborough,New Hampshire,75659,17.788224,-13.1290405
Michele Cardenas,41,08134 Zamora Road Apt. 882,Samanthamouth,Nevada,45524,172.605758,28.5937005
Brett Hudson,20,9411 Huffman Club,West Meganberg,New Hampshire,99528,-128.724493,1.511152
Amber Wright,80,94195 Hicks Shore,North Carolynfort,Arkansas,39180,-72.713954,-23.6154585
Gregory Jimenez,36,48956 Amanda Creek Apt. 654,West Rebeccaside,Washington,82364,-74.691419,-57.538392
Mrs. Rebecca Reed DDS,36,446 Kathryn Knolls Suite 488,Hurleyville,Oklahoma,98897,-14.426388,-65.025726
Tyler Long,77,62503 Rick Centers,Beverlytown,Pennsylvania,46617,33.922603,73.162120
Angela Guzman,48,04286 Johnson Roads,Katherineberg,Arkansas,52900,-11.384139,-51.1693825
Paul French,33,3337 Clark Bridge Apt. 114,Christinaville,Oregon,06120,-4.441679,-65.3843705
Leah Moore,48,935 Rita Roads Apt. 552,Zavalaland,Kansas,50496,-90.441071,-9.186912
Sonia Rivera,42,91577 Kevin Greens Apt. 161,Wendyfort,Maine,69728,-61.132000,51.8260165
Madison Taylor,59,2281 Leach Fort,North Sarahberg,Pennsylvania,42364,90.063032,-8.5285885
Jason Watkins,23,6692 Roberts Corner,Ricardoborough,Delaware,57324,-73.498482,89.605960
Doris Thompson,37,06155 Melton Inlet Suite 053,Port Joshuashire,Mississippi,58901,34.968899,51.5033635
Wesley Andrews,67,366 Matthew Forges,North Jennifer,Idaho,80523,-24.800283,-21.939939
Brett Clark,62,001 Swanson Road,West Stephen,Oklahoma,41186,-99.788414,2.488333
Lacey Martin,30,690 Amanda Parkway Suite 572,East Jessica,Delaware,54062,106.579055,11.3634925
Scott Cameron,47,88270 Cook Plains,Melissaview,Maine,93998,-29.673374,35.4712655
Dennis Sanders,24,81221 Steven Trace,Latoyaside,West Virginia,44590,153.580145,-68.4407235
Christopher Torres,21,557 Freeman Knoll,Longshire,Mississippi,94991,94.746610,-69.3230825
Theresa King,41,139 Gallegos Trafficway,Shermanport,Pennsylvania,75355,-177.922866,-62.1900975
Angel Obrien,21,404 Jose Island Apt. 163,Jessicaland,North Dakota,22789,-59.527671,-61.2985225
Wanda Leach,64,041 Angel Crossroad Suite 503,East James,Utah,84806,-83.497339,-57.2738385
Edward Bennett,75,8677 James Neck Suite 846,Lake Evelyn,North Carolina,85518,46.038755,21.9256055
Kim Hickman,34,4045 Nunez Brook Apt. 298,Danielmouth,Delaware,38662,24.131234,25.899700
Bradley Moreno,21,7054 Autumn Station,Laurenborough,Maryland,79111,-95.024255,14.921413
James Weiss,20,3208 Erik Coves Apt. 037,North Danieltown,Oklahoma,86753,-13.869886,-63.401932
Robert Holland,55,916 Chung Landing,Port Davidshire,Virginia,82006,129.355890,-2.810159
Max Wood,40,44144 Tiffany Spring Suite 069,Port Jenna,Virginia,72996,126.910491,-49.925635
Jennifer Powers,27,52281 Kimberly Mountains Apt. 184,Meltonside,Massachusetts,61806,-52.333314,-13.5625215
Gina Delacruz,23,6694 Juan Fort,Thompsonfurt,California,97950,-72.087251,8.1476185
Michele Williams,75,95195 Joseph Junctions Apt. 290,Port Jacobmouth,Pennsylvania,63402,38.642105,52.9718725
Cheryl Romero,63,0579 Castillo Ferry Apt. 556,New Phillip,West Virginia,23059,-153.595652,-88.613353
Tyler Murphy,72,945 Melissa Flats Apt. 619,New Anthony,California,90298,-110.303122,-6.3139965
Shannon Chan MD,27,6850 Timothy Square,West Angela,Alaska,31706,-97.365785,8.521795
Tyler Riley,18,424 David Bridge,West Matthewfurt,Wisconsin,35157,-155.948779,70.4317705
Rachel Hammond,35,3666 Holmes Burg,Lake Jesseport,Texas,81135,-38.256176,-27.1767695
Carrie Jones,69,819 Joseph Islands,Mannview,New Jersey,82789,114.332873,-35.4969835
Brendan Dawson,79,81860 Natasha Course,Jasonburgh,Iowa,52044,-139.386820,84.1544795
Robert Yates,74,65377 Benton Lights Apt. 651,East Nicoleshire,Arizona,14470,71.961854,44.842357
William Martin,53,3637 Jason Throughway Apt. 190,North Scott,Michigan,31875,-131.804439,56.6186395
Steven Mcdowell,70,18859 Kathy Branch,West Bettyfurt,West Virginia,04033,28.222524,11.7698615
Nathaniel Steele,24,165 Julie Ranch Suite 178,Lake Susan,Georgia,20865,-109.072663,-74.250286
Amy Harrison,79,244 Sarah Valleys Suite 958,South Adam,Colorado,57971,143.878409,10.199863
Amber Medina,31,71375 Kristopher Ford Suite 251,Littlefort,Colorado,92355,134.921510,63.1854295
Kelly Robertson,32,2765 Jordan Parkways Apt. 384,Robertstad,Tennessee,69782,67.137558,-31.1737195
Jonathan Cortez,53,4046 Wolf Oval Suite 292,Danielhaven,Wyoming,80123,-167.949745,65.4799815
Wendy Brown,57,6384 Cummings Avenue,East Kimberlybury,Nebraska,85699,-150.487749,41.128689
Michael Kennedy,60,5573 Kathryn Camp Suite 536,Ramirezburgh,Delaware,66546,107.647059,-22.660050
Kimberly Miller,75,3630 Baker Gateway,South Kennethborough,Rhode Island,38061,119.233272,-81.4508925
Sarah Case,65,291 Guzman Terrace Apt. 884,North Ericafort,Idaho,10699,-105.352996,56.1648445
Brian Diaz,53,2471 Alex Pike,East Janice,Montana,40448,-177.522926,61.1643015
Stephanie Elliott,37,4315 Murphy Mountains,New Christopher,North Carolina,88849,-2.765301,18.910405
Maria Brown,70,249 Rodriguez Pine,Travismouth,Pennsylvania,15296,3.784881,-55.322548
Nicole English,71,872 Black Neck,Oscartown,New Hampshire,63614,-13.037096,28.298411
Matthew Taylor,66,2805 Ramos Junction,Patriciabury,Idaho,07814,3.893358,48.3435725
Whitney Johnson,19,280 Hunt Spurs Suite 073,Karatown,Alabama,57726,-136.294950,78.1806835
Elaine Burgess,55,20970 Sullivan Drive Apt. 820,Port Robert,Delaware,39121,132.584923,-39.350439
Jeremy Jefferson,69,283 Powell Green,Michellemouth,California,59473,-96.749370,18.091752
James Duncan,54,75373 Anthony Cove,North Karenfort,North Carolina,12039,17.623194,37.582385
Tristan Miller,69,09911 Robert Harbors Apt. 347,Port John,Illinois,50694,138.777810,24.1580865
Deborah Brewer DDS,52,96053 Traci Pine,West Christine,Missouri,66176,131.416976,-27.171886
Patrick Kim,45,28200 Wood Divide,Racheltown,Montana,90574,-74.392395,-15.266568
Keith Miller,58,30884 Thomas Plaza,North Tracybury,Arkansas,97568,-116.585128,51.171741
Steven Henderson,32,8698 Ortiz Centers,Loganview,North Carolina,62920,91.294763,-9.9606545
Bianca Nguyen,25,71770 Matthew Shoal Apt. 041,Maryfort,Illinois,39366,-138.780398,27.4189585
Shannon Buchanan,41,077 Moreno Locks,Mitchellmouth,Wyoming,94604,101.566003,1.804615
Alejandra Mills,55,2188 Debbie Highway,Hallview,North Carolina,57328,-167.686953,85.4721295
Zachary Lane,42,159 John Springs Suite 226,Port Rachel,Georgia,64269,-12.878095,38.0873085
Jason Martin,19,119 Coleman Skyway,New Teresatown,Indiana,59012,-157.283000,21.7640915
Kimberly Schmidt,64,70992 Richard Forge,South Elizabeth,Nevada,59808,-30.805940,42.384680
Brandon Wilson,35,3534 Morrison Burgs Suite 989,Chloechester,Pennsylvania,35853,9.761660,-79.1218735
David Orozco,29,272 Brian Islands Apt. 320,New Theresa,California,10747,9.574291,73.279804
Kyle Patterson,48,6397 Samuel Stravenue Apt. 926,Millsfort,Nebraska,27332,71.967913,59.365732
Catherine Cruz,70,30025 Hudson Pike,North Andrewborough,Kentucky,89875,125.556559,-57.844652
Daniel Hunter,25,64825 Evans Expressway Apt. 318,Susanport,Minnesota,38493,178.899267,-40.8942375
Sheri Thomas,49,83961 Samuel Mission Apt. 765,Port Michael,New Mexico,70696,143.303688,-10.699661
Dana Moody,68,33523 Cory Course Apt. 224,Christineville,New Mexico,37297,-5.507658,-27.490994
William Lopez,21,1216 Nathaniel Pines,Port Stephanieberg,California,74532,118.489864,-6.677617
Jose Chandler,57,537 Henderson Canyon,New Sherrifurt,Idaho,26367,145.475565,36.6162535
Hayden Ponce,43,3674 Leah Flat,Sarafurt,Minnesota,41895,83.269167,-84.6551395
Shannon Boyd,25,9148 Kimberly Forest,Joanberg,Kansas,77585,147.266877,1.463361
Roger Miller,22,9758 Hardy Wells Apt. 323,West Lisa,Hawaii,98560,33.141509,-42.647760
Cody Vaughn,29,6125 Bryan Centers Suite 845,East Danielle,Florida,80395,122.793578,-68.857800
Rachel Mitchell,24,8684 Natalie Union,Port John,Utah,18868,-122.002946,63.978533
Brian Cruz,29,8692 Barbara Spur,West Jeffrey,Oregon,85915,-165.627936,-6.611138
Stephanie Bennett,80,360 Choi Vista Suite 844,Laneshire,New Jersey,18147,131.638486,3.1527795
Melissa Lane,22,31434 Jeffrey Vista Suite 029,Port Diamond,Utah,02633,119.446707,75.6134205
Michael Flores,71,71128 Bethany Plaza Apt. 281,Whitetown,Virginia,13326,69.104021,-60.9667505
Stuart Reid,64,5981 Bruce Flat Suite 180,East Benjaminport,Georgia,19026,81.778879,-72.4630415
Wayne Casey,55,116 Thomas Shore,Huffmanmouth,Rhode Island,74793,139.746840,17.821621
Jeffrey Phillips,32,520 Johnson Ramp,Martinberg,Kansas,67438,-174.593536,-53.7092425
Kathleen Jones,75,0218 Logan Skyway,Trujillofurt,Louisiana,74718,-162.686394,-3.995333
Brandon Morrison,34,7256 Emma Trail,New Nathaniel,Virginia,43053,-87.409295,16.0142345
Brian Rosales,69,02221 Garcia Underpass,West Wendyland,Arizona,66185,-132.973445,-31.127323
Ryan Curtis,70,3214 Christina Plaza Apt. 001,Mannbury,Massachusetts,42581,-76.480523,-76.971115
Bryan Brooks,72,139 Erika Harbor,Boothborough,California,31144,-101.501300,-13.477030
Tony Maldonado,72,686 Murphy Course Suite 060,Port Jamesville,Louisiana,32417,101.547584,-69.468444
Julie Meyers,51,2589 Flynn Rue Suite 093,Lake Betty,Iowa,47363,-56.448002,-55.2735425
Cory White,77,37856 Perez Lake,Meghanberg,Michigan,99538,-14.275384,-61.333630
Deanna Williams,48,9272 Arthur Highway Suite 165,West Meganberg,Kentucky,58127,-59.719133,12.251725
Lindsey Howe,27,409 Williams Mission Suite 049,Jonathanhaven,Texas,32564,-154.820797,54.733794
Mary Nunez,34,55521 Copeland Unions Suite 230,Howardstad,Hawaii,24774,-164.420951,-19.210066
Martha Robinson,30,346 Turner Way Suite 774,West Steven,Wisconsin,27863,167.919086,31.9792765
Aaron Buchanan,71,476 Ross Well,Lake Tammy,Ohio,56420,30.291007,-76.3549705
Peter West,78,539 Guzman Street Suite 765,Stevensonfurt,Florida,45277,-133.478668,-41.4839565
Kevin Hall,53,877 Brett Wall Suite 155,Jasonmouth,Delaware,65863,1.334743,-11.735860
Michael Burke,56,977 Erika Key Suite 668,East Nicole,Oklahoma,61112,80.109855,77.543552
Kevin French,23,86782 Jessica Parkway Apt. 840,Stevenberg,North Dakota,16442,145.109691,-42.7850275
Kimberly Monroe,54,9726 Hopkins Stravenue Apt. 494,Woodwardshire,Missouri,80841,-101.200505,-65.4288925
Bryan Smith,63,30301 Miller Corner Apt. 000,North Danielstad,Arkansas,72834,83.581097,-75.397206
Mitchell Ford,76,42337 Charles Cliff Apt. 786,New Benjaminburgh,Ohio,75948,124.106387,52.137849
Kelly Eaton,72,311 Baker Square Suite 578,Lake Mitchellmouth,New York,94905,164.341724,-47.753421
Joseph Fritz,60,079 Miller Point,South Martinmouth,Michigan,22748,-146.508054,-9.6529315
Mallory Perez,34,6180 Ramirez Union,West Georgehaven,Massachusetts,70504,88.523644,-41.575179
Catherine Knight,28,926 Burke Run,West Chad,Montana,97552,44.124780,-19.5862425
Christopher Burke,60,9519 Everett Rue Suite 690,North Monicaside,Wyoming,49498,-161.301565,41.964700
Holly Becker,61,251 Michael Court,Harrisview,Connecticut,09156,-24.276463,17.573501
Kristopher Sanders,46,62502 James Mountains,Michaelport,North Dakota,06107,41.425006,-60.278478
Susan Wolf,58,0888 Ferguson Point Apt. 075,Port Maria,Arkansas,24716,82.423002,11.374570
William Skinner,38,53772 Rebecca Falls Suite 482,Adamsborough,West Virginia,57149,95.554719,-80.1726905
Amanda Lee,57,685 Spencer Harbors,Stevensland,Nevada,78757,-10.009073,3.2649145
Manuel Beck,43,90088 Kaitlyn Cape Apt. 052,New Stephanie,Alaska,68055,-152.206934,-36.062546
Anthony Miller,29,812 Flores Orchard Apt. 251,South Jonathan,Minnesota,81085,107.905274,58.183212
Erica Jackson,21,3552 Samantha Divide Suite 881,Lake Scott,Illinois,76527,50.853427,-27.788445
Thomas Hale,79,885 Garrett Tunnel Suite 680,Johnburgh,Georgia,36261,94.787607,-17.7668665
Amy Jacobs,50,1735 Michael Extension Suite 373,Davidside,Nevada,80612,112.973835,-34.915989
James Martinez,46,3990 Jeffrey Overpass,West Allisonside,Tennessee,84964,-153.438282,-15.3664075
Robert Clark,44,06451 Diaz Points,Molinafort,Connecticut,45773,-140.360524,-18.825927
Amanda Miller,62,899 Jacob Fork Apt. 623,Loweville,New Mexico,61375,135.549859,56.3062675
Jennifer Ford,47,8163 Brown Station Apt. 118,South Jeanetteville,Kentucky,10149,-28.982768,12.3866795
Marissa Orr,52,88107 Moore Lock,Johnfort,Maine,87918,2.129865,-11.0383315
Pamela Edwards,52,607 Arroyo Prairie Apt. 216,Christophermouth,West Virginia,19803,-119.803920,84.1916245
Dawn Kramer,78,62958 Decker Isle Apt. 400,Port Cassandrastad,Tennessee,20874,178.252031,-6.662729
Brian Padilla,72,10211 Randy Spurs Apt. 366,West Samanthaville,California,77598,32.833538,78.1841425
Charles Padilla,56,65066 Johnson Burgs,Jennifermouth,Arkansas,54667,179.552890,-61.315734
Rebecca Jordan,58,80008 Foster Mountain,Westview,Maryland,78135,150.788290,-65.204576
Molly Jackson,43,628 Joshua Island,East Valerie,Kansas,65348,81.178846,85.4416665
Jason Barnett,39,18866 Jacobs Forge,East Charlesborough,Arizona,08068,78.831761,18.718150
Laurie Armstrong,29,5140 Herrera Islands Apt. 997,East Lisaville,Nebraska,89921,-60.904109,16.785733
Michelle Douglas,64,4366 Moore Hill,Lake Tonya,Michigan,32988,-128.266866,8.6837215
Stephanie Lyons,31,64189 Zuniga Falls Suite 729,New Randy,Oklahoma,43942,94.909850,-72.0763015
Martha Wang,69,08569 Daniel Loaf Apt. 184,South Derrick,Iowa,42195,61.846546,1.5593185
Mark Farrell,20,22876 Smith Point Suite 116,Torresbury,Minnesota,41381,-163.840928,31.7173335
Wyatt Schultz,47,80206 Gibson Fork,Thomasmouth,Utah,20958,37.191093,-50.5498645
Taylor Taylor,69,252 Snyder Estates,Robertfurt,Virginia,04529,13.401254,-68.566903
Shawn Doyle,67,2951 Leslie Ville Apt. 085,Livingstonside,New York,34314,-19.918692,34.3463025
Vickie Thomas,19,83314 Amy Walk,East Alexanderchester,Arkansas,95031,63.749928,22.8273245
Sandra Lee,37,1086 Dean Prairie,Rogershaven,Tennessee,17264,107.050278,32.0442755
Sharon Brown,20,6494 Jeffrey Square Suite 711,East Angela,New Jersey,16870,69.383511,-88.8886635
Shannon Michael,47,15126 Martinez Mills,North Mike,New Hampshire,29341,5.443339,-75.2450755
Jason Conway,22,52639 Luis Glen,North Luis,Michigan,38936,-101.661765,-5.573407
Donald Gordon,74,971 Crawford Stream Suite 484,Port Lisahaven,Missouri,41570,85.018121,-40.8265375
Mrs. Nancy Burns,78,9368 Sara Causeway,Beardstad,Michigan,67651,93.701128,13.442519
Kathleen Patrick,50,93393 Cameron Well,Chloetown,Hawaii,40967,52.973020,30.463585
Marissa Davis,67,57081 Orozco Fork,New Julieborough,New Hampshire,28097,110.253921,47.8707705
Jacob Sanchez,56,897 Kristin Fields Apt. 522,Davidbury,Arkansas,75139,-86.451744,-56.564393
Diana Edwards,54,8146 Dunn Station Suite 430,Lake Kelly,North Dakota,31225,-149.658383,63.5463735
Jamie Lane,60,958 Kevin Oval,North Nicoleville,Maryland,20406,-76.457902,51.5881655
Bonnie Allen,51,7467 Walter Stravenue Suite 141,Hollyview,Florida,64619,-7.465007,-76.6540625
Hailey Lindsey DVM,69,16482 Luna Ford,New Colleen,Rhode Island,62296,-149.857815,63.2960785
Megan Knapp,70,3871 Paul Tunnel Apt. 554,Greenview,Indiana,03427,174.982833,-80.803865
Tonya Tapia,60,84588 Anthony Tunnel Apt. 975,West Kevinland,South Dakota,43668,159.512777,82.359322
Heather Garcia,24,52238 Roger Run,South Jay,Pennsylvania,45952,66.099839,68.5706835
Victor Carlson,71,6401 Monica Falls Suite 708,Lake Chelseafort,Virginia,21904,-88.695239,-34.4731385
Robin Cox,54,1119 Bowman Ridge Apt. 426,East Kimberlyside,South Dakota,06880,61.895198,71.373335
Timothy Miller,38,947 Michael Gardens Suite 167,Danielville,Washington,26509,123.365266,-46.8428105
Leonard Ramsey,58,73151 Lee Roads Suite 170,Stewartfort,California,29811,105.879339,7.8844115
Mathew Martin,65,11360 Alvarez Ports,Lake Erin,Montana,98739,-46.806825,-55.216386
Heather Bradley,23,5963 Mary Well Suite 266,New Kimberly,New Mexico,32309,74.771049,-86.353707
Mr. Andrew Smith,72,09672 Santos Canyon,Hernandezville,Iowa,41562,-111.949122,33.663726
Alex Lewis,32,6705 Smith Fort Apt. 082,Serranoshire,Missouri,90142,-146.589030,31.4612635
Jesus Johnson,73,2920 Wood Villages Apt. 523,Piercestad,Alabama,98425,113.713171,-18.9045375
Michael Gould,79,72404 Horn Parkways,Stephenberg,Delaware,41789,123.337421,-58.6664645
James Burnett,67,281 Andrew Fall,South Christine,Maryland,32557,-121.910889,-2.2705855
Lindsey Henderson,35,6791 Jessica Pike,South Miranda,Texas,56980,5.785333,82.2603265
Mary Stevens,66,8570 Schmitt Square,East Sarah,South Dakota,06294,-39.831797,-16.307726
Christina Todd,29,96380 Young Street Suite 200,North Keithland,Oregon,45149,-178.035823,19.295070
Heather Morris,33,76871 Christopher Stravenue Suite 469,Bradleyton,Georgia,95561,-45.848253,-34.238186
Todd Shaffer,26,1014 Henderson Pike Suite 723,Coopertown,Ohio,92375,-63.854650,-53.556672
Michelle Cook,53,464 Jennifer Vista,Elizabethbury,Iowa,35068,130.302845,25.643374
Karen Sutton,73,72780 Foster Shores,Port Tina,North Carolina,60835,76.738803,21.104206
Victoria Moore,79,60177 Christie Ports Suite 036,Port Lucas,West Virginia,32716,-5.651737,81.311531
Mrs. Tiffany Wright,29,8699 Emily Summit,North Martinfort,Rhode Island,86122,164.383803,7.8324855
Angela Burgess,63,7298 Powell River Suite 725,East Karenfort,Arkansas,70635,159.723273,-59.4083695
Kenneth Perry,65,859 Gordon Gardens,Escobarside,Hawaii,81811,97.815423,17.3339395
Glen Wilson,18,991 Christy Skyway,Lindaside,Tennessee,54909,-98.883998,65.5751185
Heather Madden,33,128 Walker Turnpike Apt. 292,Lake Marieport,Minnesota,32078,-167.456456,37.662926
Robert Robinson,48,016 James Dam,Christineton,Tennessee,23873,-63.292432,-17.811805
Robin Parsons MD,36,35175 Haynes Port,New Jacobhaven,South Carolina,76269,-71.035941,-0.875090
Veronica Summers,51,81122 Rogers Stream,South Kathleen,Georgia,10486,169.108334,87.3453495
Joseph Bell,53,37891 Hannah Drive,Port Georgehaven,Arkansas,27426,-12.165087,-73.6708485
Jacob Hill,75,242 Dudley Extension,Normahaven,Delaware,75512,-126.097609,36.872356
Andrew Morgan,59,25873 Archer Forest,Port Lauraville,Kansas,38271,-65.678964,-73.2260125
Michelle Hopkins,34,2888 Kennedy Forks,East Josephport,Rhode Island,04871,-68.111934,46.155450
Donna Wade,32,3886 Marsh Turnpike,North Beverly,Virginia,10201,142.550422,56.4721475
Katherine Cummings,42,5266 Ware Gateway,New Marystad,Minnesota,16923,111.082224,30.583021
Nicolas Savage,27,94542 Mark Port Apt. 216,North Kristietown,Ohio,41660,-158.507130,36.6398325
Bailey Reynolds,43,46352 Brown Lakes Apt. 696,Lake Rebecca,New Hampshire,46861,-168.169323,12.686908
Joe Quinn,53,278 Hawkins Path Apt. 863,New Robert,Alaska,59384,73.537912,82.511507
Tammy Hall,54,48258 Jessica Unions Suite 465,Jeremyfort,Missouri,59391,73.834077,81.287012
Scott Young,66,97405 Destiny Green Suite 626,East Carrie,Louisiana,37527,-166.505715,6.813000
Amanda Le,46,153 Melissa Garden Apt. 452,Riveraberg,Nevada,76185,-22.832471,33.0609135
Tony Hall,52,50950 Robert Crossing Apt. 431,New Garrettton,Illinois,63796,121.173783,65.508320
James Horton,62,5418 Ann Parkway Apt. 017,West Michelle,Kansas,54849,-34.565433,-30.5958635
Susan Burch,76,170 Melissa Walks,Michelleside,Nebraska,08982,138.213944,-84.3011105
Taylor Tyler,72,4552 Brittany Courts Apt. 134,Lake Johnmouth,Idaho,06678,55.041407,31.399388
David Carey,75,00812 Crystal Plaza,North Danielburgh,Oregon,96990,33.732805,-72.144727
Brenda Johnson,30,87636 Thomas Square,Moorebury,Virginia,07046,171.392057,11.453627
Johnathan Duke,39,619 Mccormick Skyway,Port Jeanneport,Alabama,13773,176.767103,-19.174138
William Baldwin,26,9338 Waters Mews,North Angelica,Minnesota,44763,-177.332283,-52.852339
Rodney Day,28,365 Pamela Ville Suite 927,West Monicaville,Arkansas,51425,134.779305,-53.5406775
Olivia Zuniga,70,05310 Jeffrey Ford,Princehaven,Vermont,85067,-173.904522,-18.8392585
Melissa Brown,69,0400 Erica Points Suite 402,Jamiechester,Kansas,49585,30.981688,39.0586805
Michelle Cole,24,663 Valencia Roads Apt. 753,South James,Oklahoma,51128,-97.874095,-89.3048405
Michelle Allen,68,9063 Lori Road Suite 943,Lake Tyler,California,95281,-56.489935,28.5605245
Kyle Walton,23,6764 Randall Points,North Melissa,Wisconsin,53989,153.823589,25.4138145
Nicole Wilson,45,651 Cheryl Harbor,New Thomas,Montana,21331,-163.516448,-86.069152
Jeffrey Hammond,54,9254 John Causeway Suite 407,North Charles,Alaska,53081,-125.486755,56.950376
Amy Reed,32,1700 Brian Bypass Apt. 055,South Sara,Ohio,10160,-158.885551,-63.912974
Thomas Castro,75,89240 King Harbor Suite 144,Lisaville,Virginia,09345,-75.370197,6.3332735
Alejandro Young,27,698 Pearson Circle,Rodriguezland,Wyoming,02217,109.868489,-82.5589155
Amy Arroyo,66,057 Craig Extension Apt. 749,Cooperside,Nevada,76692,151.436649,23.1259295
Tamara Brown,57,567 Christina Union,North Susan,Idaho,55127,74.171011,-86.9273075
Brittany Ward,40,280 Christian Knoll Apt. 766,Masonmouth,Mississippi,01355,119.226896,57.059966
Jodi Hicks,53,7683 Collins Route Suite 485,Ramirezborough,North Dakota,26692,-115.334104,-8.4213475
Susan Johnston,30,5526 Sarah Islands,North Michelle,Delaware,91240,112.856961,36.324616
Christopher Guzman,79,7061 Kelly Harbor Suite 951,Reynoldsberg,Idaho,52905,23.921136,-63.842089
Tony Turner,46,96701 Hall Land,Lake Anthonytown,Michigan,19102,-176.860428,-55.298533
Sara Reed,45,26917 Brenda Forges,Jamiechester,California,38205,119.259226,-57.077257
Timothy Gomez,61,586 Joseph Coves Suite 404,Acostaside,California,82204,-20.467225,-55.2791405
Jessica Christensen,44,74239 Cody Mountain,Daltonmouth,Indiana,36119,-172.002469,75.759058
Katelyn Stewart,66,59114 Linda Junctions Suite 596,Bryanstad,North Dakota,56154,95.020967,-88.646558
Ann Sullivan,18,66846 Heather Lock,Jeanettemouth,Connecticut,05712,-49.150575,-63.304258
Robert Jenkins,50,911 Brandon Cliff,Mooreburgh,Georgia,52229,-19.981727,87.7954605
Lori Rogers,52,9305 Smith Shoal,Espinozaton,Virginia,28779,-45.610088,21.9021285
Kyle Johnson,60,463 Brooks Meadows,Thomasfurt,Kentucky,83096,89.449665,-70.7492135
Victoria Stewart,54,9165 Armstrong Inlet Suite 931,South Josephborough,Montana,81444,48.869595,-42.3757085
Alicia Parker,66,50928 Clay Prairie Apt. 846,Johnhaven,Idaho,76200,-123.604179,41.902478
Russell Stanley,66,73228 Zavala Roads,Port Roberthaven,Tennessee,39018,-127.367076,47.049138
Mark Patterson PhD,75,9231 Ward Spring Suite 478,Port John,Montana,19843,135.938145,63.1754215
Vincent Fry,68,0596 Michael Glen,North Erika,North Dakota,80546,-177.075303,62.2696555
Kaitlyn Jones,76,9141 Melinda Way Suite 068,West Jessicaton,Kansas,89981,178.662191,-71.009948
Andrew Ellis,58,12876 Todd Pass Apt. 675,Stephaniestad,Tennessee,28463,59.222919,-26.042314
Brandi Phillips,57,45248 Christina Village,Allisonland,Mississippi,30909,164.379094,73.1919705
Wendy Gonzalez,24,3530 Torres Green Suite 604,North Jacob,Maine,17417,4.685170,47.5815765
David Castro,55,2724 Erik Fields Apt. 238,North Ashleybury,Nevada,63534,-159.208628,-75.737889
Jordan Valencia,62,59171 Sexton Island,Lake Jose,Arkansas,90618,-51.809266,24.512830
Alejandra Chaney,57,55234 Long Locks,West Andrewville,Montana,87485,-173.114421,39.0336905
Brandon Nelson,42,7418 Grant Prairie Apt. 482,New Amandaview,Wisconsin,97578,-96.015278,54.9373475
Miguel Willis,19,3022 Bond Mountains Apt. 575,Melissaberg,Oregon,72557,-2.069027,-45.584432
Ernest Quinn,79,6533 Bautista Manor Suite 802,Hooperside,Georgia,86197,88.769030,62.941697
Joseph James,64,4429 Bryant Freeway Suite 068,Port Michael,Oklahoma,64980,-24.685248,-26.9999835
Jack Huff,55,6799 Oneill Spurs,East Sarahchester,Arizona,05278,-107.069696,-8.7067265
Kim Hernandez,44,62165 Alvarado Squares Suite 667,South Jesse,Montana,67809,26.677071,-18.320613
Brooke Price,69,1273 Jones Drive Apt. 796,Port Aaronton,Oregon,68960,-95.601351,-22.188522
Jessica Henderson,19,3190 Keith Port,Shaneview,New Jersey,08904,140.651073,-46.017852
Donna Little,33,41867 Smith Tunnel Suite 509,Kingside,Minnesota,78358,21.708680,-63.4978715
Mark Thompson,64,2315 Hector Square Suite 448,Welchstad,Louisiana,50227,123.975872,76.0613355
Christina Wood,50,0881 Brandon Place Apt. 035,North Anthonychester,Arizona,64183,-36.078059,23.497811
Lisa Adams,61,332 Courtney Plain Apt. 479,West Michelle,New Mexico,50915,-22.582041,1.1851515
Clayton Clark,38,93665 Joseph Pines Suite 437,Robertport,Ohio,19320,-32.230424,-82.160545
Jason Leon,45,91232 Murray Islands,Lake Cathy,Montana,93536,6.909453,-46.9575865
Richard Hughes,77,1786 Shannon Spurs Suite 378,Lake Heather,Colorado,16586,-159.094515,52.5945975
Ernest Torres,68,47049 Dawn Stravenue Suite 869,Cookeland,Rhode Island,99524,120.066537,65.4816965
Yesenia Malone,30,637 Kim Rest,West Chelsea,New Hampshire,44012,-86.336914,45.1049415
William Wagner MD,52,03914 Virginia Knolls Apt. 772,Port Kathleenchester,Maine,19726,-41.864727,23.9661705
Amy Johnson,76,961 White Common,Aaronberg,Illinois,69828,-161.571815,65.8260865
Sabrina Thomas,22,99887 Carrie Parkway,Rhodesville,Illinois,31822,-120.932630,89.2742485
Richard Velez,55,24567 Cynthia Fork,Deckertown,Florida,55244,26.696314,-36.5107545
William Young,73,83933 Bryan Keys,New Patrick,Hawaii,33736,119.265835,85.8735445
Patrick Brown,46,7967 Francisco Curve,Shawborough,West Virginia,60034,-148.514869,-21.7187215
Crystal Ortiz,49,7388 Lee Camp,Kelseyshire,Alaska,92364,-106.408643,-34.7539785
Carolyn Yu,65,4613 Carl Parkways Apt. 099,Laurafort,Delaware,34754,-75.861537,0.8369165
Mary Price,23,0362 Weaver Plaza Apt. 972,Brittanyhaven,Mississippi,18653,-94.283175,-82.2428105
John Williamson,32,447 Teresa Coves,Debraview,Ohio,13901,114.895486,-24.277824
Joseph Gibson,57,04390 Shannon Turnpike,Wardburgh,Hawaii,92028,137.065053,45.3964745
Robin Boyd,65,14237 Jason Prairie,Judithville,Kentucky,97921,-67.186052,36.947425
David Thornton,48,793 Fox Fork,Stephaniemouth,New York,34199,179.731568,11.657916
Jonathan Cobb,39,8487 Gomez Valley,North Edwardmouth,Iowa,92286,20.894201,45.657979
Christine Wood,77,52732 Melissa Squares,Coreyview,Montana,65780,14.543279,26.9024325
Lori Taylor,70,75786 Rodriguez Vista,South Jaredshire,Ohio,88054,-138.674581,-73.905614
Amy Lawson,27,7352 Rachel Prairie Apt. 409,Nathanielfurt,Oregon,41705,-86.660147,33.5113025
Joe Davis,50,60675 Ferrell Estate Suite 412,Lake Shellystad,Indiana,97678,-77.904379,75.6000955
Timothy Hunter,30,719 Robert Lodge Apt. 414,Christineburgh,Alabama,60331,-124.954733,-61.621293
Stanley Newton,74,67634 Lee Loop,Clayshire,Kentucky,56809,-59.188380,-74.236179
Micheal Frye,58,698 David Harbors Apt. 959,New Stephanietown,Louisiana,87014,-158.196429,12.9420925
Susan Valdez,40,46660 Shaw Pine Suite 232,West Nathanielshire,Utah,36836,16.146010,57.949411
Christian White,67,4145 Barbara Route,New Courtneymouth,New Jersey,70336,20.408579,-86.9130315
Andrew Farrell,77,43597 Leonard Streets Apt. 659,Ericfort,Delaware,33660,70.463049,21.691089
Patrick Lewis,42,929 Neal Lights Apt. 678,East Derek,New Mexico,71302,-95.338120,44.047033
Jacob Anderson,71,054 Roberts Station Apt. 586,Ryanshire,Michigan,34747,-37.270445,57.555895
Kyle Soto,22,96167 Perry Cape Suite 795,Lindahaven,Florida,08739,32.303289,26.1530125
Nicholas Williams,39,20117 Janet Branch,Drakeland,Arizona,60948,165.743844,-37.4352875
Gregory Scott,68,191 Wood Green Suite 623,Hineschester,Ohio,08175,-119.503154,-11.6218035
Susan Robinson,58,126 Robert Trafficway,Jaredland,Maryland,52591,-147.934913,9.7092845
Jessica Johnson,79,043 Davis Mountains Suite 677,Davisfort,North Dakota,93393,-125.743809,-18.0092295
Timothy Caldwell,59,13360 Mcbride Villages Apt. 906,Raymondmouth,Nebraska,07128,143.266754,-67.831211
Kelly Burns,29,04984 Margaret Grove,Walshborough,Tennessee,29310,130.910700,-71.619326
Erik Brown,59,8590 Valencia Stravenue,East Michael,New Hampshire,10476,-106.489173,-71.6161485
Kelly Jones,27,92180 Martinez Pines,Larryport,Oregon,70125,118.351589,79.5553425
Kevin Aguilar,26,2531 Julie Pine,Kristinaborough,South Dakota,38639,-69.753300,22.451531
William Harrell,73,35005 Johnson Crossing,East Lorimouth,North Dakota,63691,-169.584277,-58.0448425
Amanda Moon,28,11217 David Drive Apt. 050,Warrenside,Massachusetts,69354,79.947807,-21.2064325
Sean Shaw,43,5212 Cox Forges Apt. 535,Lake Lisaland,Wyoming,62960,-19.076387,-83.013274
Sean Jones,71,0667 Jones Field,Lake Michelle,Connecticut,36869,-14.726400,26.7131525
Joseph Murphy,42,140 Tran Divide,Jacquelineborough,Texas,03691,43.800312,56.597152
Steven Moore,51,316 Benjamin Knolls Apt. 748,Robertshire,Iowa,45952,-50.409643,-9.2959455
Benjamin Randolph,72,082 Sanchez Forks Apt. 684,Port Zacharyville,Tennessee,91783,59.573115,52.0009855
Jasmine Allen,51,0874 Victoria Coves Suite 920,Petersonshire,Minnesota,59542,17.672127,78.8146305
Jennifer Whitney,22,254 Baker Extension Apt. 387,Port Sarah,Mississippi,77614,97.955099,6.918030
Lisa Allen,36,3298 Sandoval Wall Apt. 735,Tonyshire,Michigan,13719,-28.704594,-81.834535
Christopher Ponce,63,45521 Maria Turnpike Suite 038,North Patriciatown,Minnesota,34011,-113.092452,89.9055325
Samuel Page,33,3806 Michelle Circle,Lake Dalton,Rhode Island,99662,132.242246,-7.8011875
Kevin Allen,26,76250 Delgado Plains,Connorchester,Rhode Island,62699,38.393575,-25.9958765
Brooke Owens,73,0073 Gardner Row Apt. 285,Jesusbury,Texas,72082,-57.888474,-13.9695445
Willie Long,31,47738 Thomas Ridge,Guzmanhaven,Wyoming,72687,95.414084,60.8305155
Linda Morgan,75,684 Nguyen Islands Suite 806,Markland,Nevada,52141,-44.964023,72.346397
Brenda Simpson,44,5491 Brown Flat Apt. 594,North Jon,Texas,50994,-25.174111,69.6183645
Nicole Jones,52,45324 Scott Pine,Lake Jamestown,Wisconsin,78566,101.219242,-23.6327765
Erin Howard,27,555 Elizabeth Route,New Tony,Kentucky,31285,7.141560,-79.047402
Mark Watson,52,4433 Garcia Fork,Lake Alexandria,Vermont,73793,-77.070213,-56.4774055
Mary Torres,63,22519 Cannon Lodge Apt. 524,East Jeffery,Delaware,99052,7.789607,20.050907
Walter Harper,61,57002 Kelsey Branch,Edwardsville,New York,45949,155.995521,-71.813807
Larry Bass,56,9552 Taylor Brook,Lake Richard,Massachusetts,81914,123.631611,68.981488
Ruben Hamilton,19,3801 Brian Keys,North Kathleenstad,Arkansas,60549,50.369457,-70.2681045
Cody Miller,39,6570 Teresa Summit,Mikefurt,Louisiana,95366,142.777757,4.641332
John Oconnell,53,678 Russell Glens,East Edward,Minnesota,64548,89.258975,-8.2147175
Karen Aguilar,52,37777 Andrew Stravenue Suite 585,Lake Joannburgh,Pennsylvania,41884,40.719827,-85.058642
Ryan Bowen,79,12016 Travis Land,Robinsonfort,Mississippi,83582,111.726255,74.6283605
Bryan Moon,22,179 Brenda Shoals Suite 654,Lake David,South Dakota,98819,104.579788,4.145221
Nancy Ellis,52,40896 Michael Island Apt. 539,Phillipborough,Arkansas,10462,9.583426,83.461760
Teresa Nguyen,55,1374 Garcia Branch,North Megan,Washington,40898,-139.205214,-48.7201585
Dennis Jones,64,40867 Tammy Creek,North Katie,Delaware,93587,-104.670973,67.986885
Jamie Peterson,39,5822 Black Dale Suite 919,Garyville,Missouri,44345,-146.473068,1.651622
Michael Young,32,6370 Paul Mall Apt. 487,Griffinhaven,Florida,29821,-103.745281,-84.285913
April Garcia,75,19335 Charlotte Motorway,Webbfurt,Alabama,12103,42.145100,8.0384605
Heather Marks,41,13949 Castro Rapid Suite 619,West Mariebury,Missouri,61581,-134.121249,3.2008095
Rachel Campbell,68,743 Adam Mount Suite 565,Howardmouth,Wyoming,03956,82.071990,-67.198471
Gary Myers,27,897 Danielle Lakes Apt. 639,Caitlinburgh,Ohio,00832,-143.062468,-19.8229045
Jerry Curtis,67,298 Lisa Crescent Suite 606,New Jacobport,Alaska,49123,-71.545101,-33.7520375
Kelly West,72,590 Larson Square Suite 411,Househaven,Hawaii,85802,-31.155964,-87.9640775
Kim Brock,55,5382 Tyler Vista,New Andrewborough,Maine,20036,153.975650,-14.431942
Colton Payne,76,76779 Kimberly Views,North Richardbury,Florida,73437,73.623823,79.9947055
Andre Fernandez,20,07498 Amber Walk,Lake Erinhaven,Michigan,29533,-134.817624,44.2573375
Shelby Guzman,33,832 David Road Suite 882,Port Stephanie,West Virginia,57360,2.843709,57.0729985
Melinda Davidson,28,09815 Smith Wall Apt. 550,New Abigail,North Carolina,94573,-61.611020,-60.472134
Suzanne Swanson,34,840 Jennifer Corner Suite 678,North Laura,Delaware,85998,-121.563868,4.4473845
Adam Evans Jr.,26,4464 Shannon Junction,Mosleyberg,Colorado,54298,60.233666,-41.6028615
Derek Lin,31,9915 Williams Street Suite 472,Austinville,Maine,50022,170.080023,-65.898998
Jeanne Smith,25,69648 Timothy Circles,North Thomas,Kentucky,05332,158.121091,80.963995
Kristy Howell,74,697 Garrett Falls Apt. 607,Rhodesburgh,Colorado,62731,19.511249,43.448844
Shannon Hanson,65,9245 Brown Vista Suite 664,Cassidyville,South Carolina,35985,106.007757,82.2996505
Amanda Moore,64,6054 Kim Freeway,Jamesstad,West Virginia,99660,-138.112349,0.2123045
Teresa Ward,51,882 Teresa Expressway Suite 790,Rachelland,Montana,80294,46.798480,-88.4681495
Sandra Marks,34,765 Lee Vista,Gregoryton,North Carolina,95170,89.752968,-9.921625
Nichole Wright,55,832 Sandra Village,North Paultown,Minnesota,76605,104.459789,76.048890
Alexis Morales,70,37560 Jose Light Suite 219,Jamesfurt,Oklahoma,39624,-119.757269,-28.9880335
Kevin Smith,72,989 Nguyen Mall,South Denise,New Mexico,45475,-78.721166,20.3081285
Kathryn Johnson,39,8860 Gonzalez Pines,North Morganbury,California,10428,-4.746891,61.6649265
Teresa Stevens,49,0695 Mary Roads Apt. 536,East Haley,Vermont,60596,176.307457,86.3854635
Marcus Smith,56,927 Maldonado Overpass,Port Johnathan,Colorado,10898,72.204652,-39.873693
Scott Rivera,18,92052 James Center Suite 207,South Allison,Missouri,43428,-113.776712,31.8565155
Angel Adkins,40,0675 Kyle Mountain Suite 120,Melissashire,Wyoming,85499,-102.087811,5.296063
Alison Mccullough,20,8473 Evans Greens Suite 991,Marietown,Florida,25831,-82.318264,31.0275155
Joseph Barnes,42,503 Esparza Streets Suite 867,Lake Mary,Washington,87555,-64.830639,-72.5613745
John Rojas,21,2430 Anna Land Apt. 131,Danielleberg,Texas,94597,113.860979,-3.9294915
Chelsey Mclaughlin,40,44592 Michael Plains,Lake Chelseachester,Florida,64687,98.376366,-51.8144755
Troy Garrison,32,06870 Kathleen Summit Suite 826,New Rachael,Utah,11332,136.588456,-82.528455
Marcus Liu,71,915 Jessica Key,North Davidside,Alabama,09487,-83.054271,42.739060
Douglas York,61,0659 Jacob Squares Apt. 562,South Andrew,Colorado,16471,-152.614661,42.5709005
David Smith,35,14327 Payne Ramp Apt. 666,Braystad,Hawaii,42422,178.211445,-66.233897
Debra Brown,74,6386 Rebecca Tunnel,New Darleneview,Texas,02716,-26.566470,42.7970455
John Green,51,6767 Harris Mountains,Johnton,Kansas,59231,110.824649,-3.514649
David Parks,42,983 David Landing Suite 317,Swansonberg,Illinois,60932,103.151076,-33.5967535
Jennifer Diaz,53,17499 Robin Valley Apt. 543,East Erin,West Virginia,39279,43.488083,78.654971
Brittney Bell,74,5498 Farley Meadow Apt. 857,Port Laurachester,Florida,94315,-98.730629,74.6777365
Joseph Atkinson,45,178 Jennifer Bridge Apt. 375,Jacksonton,Vermont,76920,135.793862,17.9361315
Jonathan White,25,76693 Eric Summit Apt. 064,Danielview,New York,11100,177.818034,-12.294975
John Gonzalez,54,50666 Andrew Falls,East Dawn,Rhode Island,23929,149.269416,-56.266250
Matthew Jones,21,1556 Matthew Walks,Smithbury,Pennsylvania,97404,158.211778,-46.2186735
Carrie Santana,56,490 Kirk Ports Apt. 250,Parkerview,New York,71737,174.117739,-64.703453
Bethany Dunn,25,935 Alexander Point,Smithmouth,Oklahoma,05500,-85.596528,-11.532299
Sean Hess,43,729 Waller Crossing Apt. 438,Doughertystad,Tennessee,93562,13.809317,-63.874954
Karen Miller,64,680 Byrd Rapid Suite 292,New Christina,Hawaii,30350,24.074578,25.0468025
Bruce Hammond,35,03210 Meghan Course,Lake Richard,New York,71137,9.262311,-73.9762815
Teresa Bauer,43,4358 Perry Club,East Tammymouth,Wyoming,05268,122.425454,-41.448849
Daniel Mcdonald,79,338 Eric Knolls,Castilloport,North Dakota,53832,-158.292275,38.3413215
Tonya Martin,47,657 Conner Cliff Apt. 021,Perezmouth,New York,25020,-84.345999,-70.8107235
Michelle Hensley,35,9947 Murphy Mountains Apt. 426,West Eugenemouth,Tennessee,52927,167.838219,11.2232145
Jay Walker,57,707 Michael Falls,Davidstad,New Mexico,79198,92.065095,-22.4132395
Scott Clark,44,441 Daniel Glen Apt. 615,Port Jessicastad,South Carolina,72890,-12.586310,82.035738
Miss Erica Anderson,31,8703 Farrell Divide Apt. 881,South Brittneytown,Florida,71247,158.023436,-70.7108945
Tammy Baker,55,79137 Debra Crossroad Suite 025,Loganview,Minnesota,28641,-177.103955,41.632380
Michael Nguyen,20,1723 Cole Unions Apt. 518,Leemouth,Nebraska,91247,-32.574955,24.455900
Megan Parker,46,811 Novak Mews,East Tracybury,Rhode Island,88495,-76.278839,-84.553693
Joy Taylor,70,8428 Scott Port Apt. 586,Hendersonfurt,Alaska,51654,-157.863545,66.2906735
Amy Griffith,28,01522 Lopez Land Suite 666,Burketon,Hawaii,42368,27.617364,-9.101827
Jennifer Henderson,22,9356 Ward Branch Apt. 704,Rodriguezmouth,New York,29608,-21.431051,56.125681
Victoria Riddle,49,064 Robert River,Christinaport,New York,65497,63.464084,-60.9918485
William Brown,57,64248 William Branch,Port Lisa,South Dakota,64534,-90.336904,-12.328373
Melissa Johnson,54,96309 Janet Junctions Apt. 320,South Emilybury,Louisiana,75036,-63.115131,33.340023
David Schmidt,49,4538 Cooley Union,Sandratown,California,85980,-140.868375,33.0839985
Ronald Manning,67,8789 Frazier Freeway Suite 821,West Danielleport,North Carolina,50132,43.246376,15.302076
Karen Harris,56,558 Jacob Ville,East Tina,Illinois,73356,-138.162026,9.2313195
Catherine Bender,23,7929 Washington Cliffs,Derekville,Alaska,07936,-83.604270,38.727855
Jesus Collier,52,8337 Avery Route Suite 872,Archerhaven,Alabama,53654,95.220307,74.282381
Hannah Sosa,63,6027 Scott Village Apt. 425,Alyssaland,North Carolina,82106,-91.659678,67.664998
Daniel Flynn,44,536 Cooper Springs Apt. 658,Amandaport,Georgia,43461,-130.163123,89.714341
Sean Butler,76,889 Timothy Groves,Rhondahaven,Nebraska,94046,-45.708930,-36.7511805
Randy Olsen III,44,75130 Timothy Harbor,Hawkinston,Georgia,51698,-21.406849,49.8532835
Rachel Jackson,65,48104 Gardner Terrace,Jeanettemouth,Maryland,12942,-20.612469,-81.5001875
Randy Newman,19,62851 Kim Meadows,North Jacob,Tennessee,15787,115.108992,-85.9492445
Angela Mclaughlin,65,4379 Gilbert Rest,Rickburgh,Michigan,77640,178.193055,25.6457145
Joseph Gonzalez,80,9289 Kelley Tunnel Apt. 207,Hammondmouth,Connecticut,49294,-145.746447,74.6440465
Gregory Jordan,55,63106 Vasquez Mall,Jordanport,New Mexico,58276,178.648639,-10.8948495
Jeffrey Fleming,54,5194 James Mountain Suite 609,East Jonhaven,Alabama,14925,161.686489,57.619177
James Ross,66,4645 Yvonne Stravenue Apt. 545,West Matthew,Idaho,01853,-152.330086,2.3739885
Wendy Gutierrez,45,17044 Harold Locks Suite 950,Susanburgh,Louisiana,09789,74.096632,49.9926795
Kerry Bowers,32,293 Thomas Forges,Port Kathyside,Kentucky,46877,-34.992403,-15.394834
Sandra Wilson,75,5350 Brown Common,Davidfort,Nevada,57000,-172.027354,-68.5095165
Alexandra Pittman,19,15227 Gill Spur,East Austinberg,Louisiana,63025,-176.791539,69.620242
Crystal Parker,23,42495 Dawn Rapid Apt. 024,Jamesland,Florida,77339,14.444924,-33.8525555
Randy Johnson,29,1852 Alexander Overpass Suite 892,Jessestad,Vermont,35404,-137.540615,-77.5159295
Stephen Pierce,43,866 Gabriel Ranch Suite 339,Lake Karenburgh,New York,97529,-43.864929,23.623340
Terry Horton,39,21651 Lucas Forest Apt. 559,East Michaelmouth,Colorado,49665,-93.179594,40.442846
Brenda Mccann,52,882 Seth Ways Apt. 417,Colleenborough,Georgia,35882,34.298326,27.4271595
Ashley Baker,39,272 Ortiz Rue,Lake Dylan,Texas,75023,-52.678695,68.026498
Catherine Butler,77,13473 Matthews Station,North Vincentfort,West Virginia,74499,-54.683587,-77.4898025
James Richards,62,8730 Nicholas Grove Suite 240,Weberfurt,New York,66084,-159.618414,72.2429325
Tyler Moreno,58,7607 Carlson Glen,New Darren,North Dakota,57289,-56.838407,-61.737363
Malik Turner,49,16719 Derrick Causeway,Williamschester,Michigan,82133,-99.517748,-46.287038
Kathy Lane,40,963 Kyle Extensions Suite 050,Rebeccaberg,Arkansas,41811,-69.203070,-6.161120
Alexandra Hernandez,76,4729 Sharon Plains Suite 619,East Debra,Rhode Island,08790,18.622937,29.391170
Jesse Mclean,32,86283 James Fork Apt. 969,Port Willie,Arkansas,65002,152.426396,69.809077
Jason King,77,32609 Ramos Forest Suite 334,Smithbury,South Dakota,13039,136.324380,66.287927
Shane Solomon,49,56901 Laura Ferry,Kylefort,Maine,40743,-169.749648,61.6205575
Jeremy Harding MD,33,6927 Roy Courts Suite 706,East Thomasland,Maine,61907,-69.937934,47.690383
Sharon Washington,68,3375 Rebecca Village Apt. 128,Lake Mitchell,New York,03647,-112.965209,46.9714905
Sara Washington,67,98095 Crystal Via Suite 736,South Briannatown,Texas,48650,-158.520039,35.653269
Nicole Fisher,19,803 Miguel Courts,New Dwayne,Tennessee,34379,-84.759787,58.0140565
Kimberly Boyd,51,84028 Rogers Ridges,Hendrixfort,South Dakota,22309,-118.538752,75.9714485
Diane Cruz,56,30222 Goodman Rapids Suite 619,Riverastad,Louisiana,51990,-136.881201,-0.951997
John Valdez,76,46990 Chelsea Roads,Higginsburgh,Nevada,21040,-158.056439,-83.457370
Thomas Harvey,65,577 Frank View Apt. 338,North Jacqueline,New Mexico,60571,-9.898048,-86.999290
Cheryl Thomas,59,646 Thomas Valleys,Longfurt,Connecticut,18644,102.511755,21.1961165
Joshua Glover,36,19801 Kelly Fork,East Susan,New Jersey,59160,16.941142,-25.442985
Tim Carlson,80,033 Moody Course Apt. 710,New Karenville,Minnesota,53002,126.639191,61.071327
Cathy Wilcox,42,55432 Taylor Curve Apt. 058,Kevinberg,Montana,09517,-93.895480,-42.5539755
Christopher Thomas,53,444 Nicholson Mews,East Donna,Mississippi,74843,-167.784067,71.3550055
Jose Garcia,79,343 Moore Valleys,Vaughanbury,Michigan,32030,99.833036,14.7964035
Kevin Brown,75,633 Tamara Ranch Apt. 817,Lake Charlesstad,New Hampshire,16581,26.591518,-78.2839925
Karen Kemp,56,2215 Eric Shoals Apt. 178,Hawkinsborough,Delaware,00635,15.602741,78.549412
Michael Mendez,76,151 Burgess Forges Apt. 259,New Joshua,North Carolina,22690,41.513868,42.2930365
Jonathan Tucker,50,3409 Amanda Branch Apt. 409,Jessicafort,South Carolina,76685,74.179403,21.845857
Andrea Gonzales,49,0822 Jennifer Harbors Apt. 157,Ricardotown,Louisiana,51903,-114.078206,-30.582407
Steven Hampton,36,5562 Huffman Camp Apt. 134,Anthonyton,Nebraska,60864,-22.396580,-30.014695
Veronica Ferguson,24,6035 Stephen Pike Apt. 173,South Victoria,Utah,00913,-75.149182,60.804339
Amber Reyes,66,855 Peters Lake,Smithmouth,New Mexico,35470,132.156579,41.0612065
Brooke Powell,79,472 Jennifer Highway,Lake Joshuamouth,South Dakota,48093,78.560090,37.815095
Kenneth Meadows,21,24071 Gardner Fall,Garytown,Arkansas,74993,93.614338,24.3732635
Travis Blair,50,4411 Herman Park Suite 300,North Candiceshire,Arkansas,11773,-29.044751,-62.9553165
Lucas Hudson,80,40016 Martin Manors Apt. 915,Michellestad,North Carolina,67128,-106.598923,-79.953062
Evan Moore,63,32121 Amy Estates,Lake Brittanychester,Montana,28653,32.806788,50.3991255
Suzanne Becker,29,92315 Marc Gardens,Lake Darlene,New York,93507,-67.736252,46.062628
Kayla Coleman,48,908 Michael Brook Suite 947,Port Andrewburgh,Maryland,38482,-28.398915,61.442709
Eric Burke,62,42278 Smith Island Suite 862,Thorntonton,Colorado,77363,-67.320271,61.0378465
Kristen Williamson,48,21922 Michael Wall Apt. 319,South Lindsay,Michigan,56278,18.170014,42.0477315
Anthony Williams,70,64980 Moore Lights,Fryestad,Missouri,87213,-120.915909,-4.2696985
Katherine Fletcher,66,16553 Roberts Parkways,West Ashley,South Dakota,08120,41.619094,-26.8731395
Mary Johnson,26,14508 Ricardo Court Apt. 140,South Sharon,South Dakota,66384,167.082319,33.0526075
Cristina Kent,34,9385 Austin Camp Apt. 123,Kristinstad,Utah,33971,-172.157008,18.4903805
Steven Johnson,50,260 Dodson Corner Suite 969,Port Justinport,Colorado,86902,-28.607027,24.381948
Mr. Anthony Davis Jr.,18,90168 Mendez Track,Michellestad,Massachusetts,89065,-94.370896,59.692198
Crystal Olson,68,818 Amy Park,Lake Michaelside,Connecticut,17070,-114.751106,18.8899085
Daniel Reese,58,979 Franklin Court,Brownland,Iowa,72554,-177.024719,-1.8677395
Joy Burch,51,16666 Phillips Court,Burnettton,Connecticut,65782,-107.032516,-43.667411
Christina Petersen,48,4563 Katie Cove,South Samanthafort,Minnesota,17843,-125.252059,-38.814999
Kevin Morris,71,591 Torres Alley,Simmonsstad,New Hampshire,96286,98.521033,-3.292963
Jennifer Vang,35,9673 Eric Glens Suite 499,Port Robinland,Nevada,74712,94.940696,-12.835498
Laura Mcdaniel,23,2852 Danielle Curve,North Cameronfort,Pennsylvania,63219,33.684910,-19.404026
Linda Chavez,55,2603 Jackson Crossroad,Mccarthyton,North Carolina,94316,44.644806,-49.2161555
Kelsey Sanchez,55,26311 Kerr Walks Apt. 001,Jessicaview,Texas,32598,-20.915544,62.567493
Katherine Stewart,78,263 Tyrone Isle,South Monicahaven,Nevada,92301,173.225166,43.1911445
John Sparks,46,744 Huff Walk,Ellisonfurt,Vermont,50444,-39.865994,-14.8827505
Lee Cole,20,74569 Young Drive,Danielton,Minnesota,17762,-126.941915,10.7015965
Darlene Martin,25,92024 Kevin Gardens,Yvetteton,Virginia,73678,-80.202678,6.191599
Robert Elliott,75,13598 Karen Terrace,Princemouth,Tennessee,60091,-91.928734,13.7416865
Lisa Evans,44,033 Roberta Course,Richardsbury,Wisconsin,35097,-132.038316,86.7699975
Theresa Wilcox,68,9730 Julian Ramp,Port Melaniebury,Kentucky,92287,164.055534,-23.839658
Lauren Smith,25,898 Jake Streets Apt. 596,East Olivia,Idaho,98008,129.769443,68.9273775
Nancy Miller,70,340 Caldwell Green,West Kevin,Colorado,46762,162.714962,27.1015255
Michael Rhodes,53,304 Bryant Springs Apt. 805,West Pamelaberg,South Carolina,26124,50.251272,-36.003698
Ms. Jessica Graham,68,701 Wilson Club Apt. 157,Justinfort,Louisiana,42464,118.734880,-23.514810
Charles Graham,66,93171 Ana Park,Christinefort,Virginia,51368,-91.923498,-37.964929
Kelly Clark,50,8134 Miller Street Apt. 908,Richardhaven,Arizona,67101,-3.950995,-88.525263
Michael Thomas,39,8525 Olivia Islands,New Brian,New Jersey,07526,77.779196,-85.150114
Fernando Garner,47,911 Russell Gateway,Port Anna,Rhode Island,28225,101.073523,-43.859339
Brandon Lynch,44,00412 Rodriguez Island Apt. 779,East Michael,Missouri,15655,-20.765927,-51.3305265
Heather Hampton,49,7244 Hicks Path,South Alexistown,Wyoming,17009,158.255991,0.532757
Monica Lopez,46,2730 Margaret Village,West Matthewstad,Utah,93404,161.740955,19.243151
Anthony Booth,51,049 Dawn Islands,South Angelamouth,Indiana,17566,145.052466,-14.406911
Elizabeth Whitaker,19,644 Christina Views,Lake Joel,New Mexico,38807,-36.443962,-77.768002
William Rodriguez,61,22662 Robert Path Apt. 495,South Christinemouth,Kentucky,25123,-36.975032,-4.899995
Rachel Smith,31,765 Lewis Fort Apt. 644,Evansshire,Oregon,50453,10.976501,74.8207085
Christopher Harrington,53,371 Weaver Ridges Apt. 600,Kimberlyland,Delaware,37414,-98.069332,-15.0655115
Mr. Aaron Rodriguez,66,6236 Melissa Spring Apt. 966,Petersonberg,West Virginia,35208,68.951643,-77.842217
Timothy Lucas,70,07109 Williams Shoals,North Roberthaven,Kentucky,63835,-69.493904,20.091168
Alyssa Campbell,47,31119 Schaefer Mall,Barbaratown,Indiana,01411,-7.121510,-18.0207795
Maurice Hoover,58,65401 Colon Pike Apt. 034,West Michaelborough,Texas,98052,31.601986,-47.8118565
Mason Meyer,33,01842 Gary Canyon Apt. 712,Port Justinfort,Illinois,60654,-84.996327,-7.6118335
Samuel Mcguire,31,09870 Daniel Street Suite 407,Diazton,Georgia,75383,78.886623,-57.5999995
Diane Murphy,36,8824 Whitney Alley,Joseburgh,Oregon,43759,101.604743,31.6617565
Lauren Morris,46,8323 Patterson Divide,Reynoldshaven,Illinois,65731,153.511783,-40.976632
Eric Reid,41,89451 Alexa Mews Suite 550,Paulmouth,Idaho,53738,-15.147635,-50.311229
Aaron Henson,79,0351 Rodriguez Locks Apt. 944,Hawkinsmouth,Rhode Island,96324,93.677410,-70.4628765
Joseph Hayes,31,29677 Webster Groves,Taylorhaven,Hawaii,03556,-22.687426,-4.7523095
Raymond Avila,46,458 Matthew Parkways Suite 191,New Michelebury,Rhode Island,21423,-138.412800,24.093950
George Hale,40,497 Thomas Alley Apt. 083,Port Jacobport,Rhode Island,72801,-43.398331,-53.444807
Rachel Martin,78,722 Travis Forest Apt. 570,East Robertfurt,Virginia,27618,-51.975414,45.9791675
Patricia Petersen,24,73867 Tammy Ford,East Alexander,Washington,62317,63.793301,55.2934115
Debra Jackson,64,94726 Thomas Views Suite 908,North Rebecca,Illinois,03547,-147.635656,-20.7926305
Daniel Ward PhD,70,01764 Lang Islands Suite 724,New Dorothyport,Utah,63714,43.009670,18.483752
Donna Hayes,43,6013 Ramos Squares,Austinfort,Kansas,00719,17.151682,73.631112
Nathan Greer,19,4446 Christopher Terrace Apt. 456,West Christy,Alaska,13416,79.310147,-10.5797335
Justin Wong,45,1924 Michael Spring,New Heather,Texas,34426,-95.478872,22.4423565
James Lewis,53,195 Douglas Coves,New Austin,Washington,28128,0.042609,65.327386
Sharon Taylor,40,77751 Jose Locks Apt. 319,New Robertshire,Colorado,12282,-99.764219,21.855413
Cynthia Hensley,49,2518 Mark Cape Apt. 419,Margaretbury,Delaware,58760,136.673894,-73.195491
Marisa Good,57,746 Adams Crossroad,East Jessicabury,Kansas,10802,31.613759,-19.308501
Monica Holmes,60,461 Robert Walks Suite 373,New Kristenmouth,Oklahoma,15686,88.900993,-88.079881
Ronald Sanchez,43,508 Hunter Pines Apt. 248,West Sheilaburgh,Virginia,44870,25.705659,56.4186645
Jack Thomas,63,58128 Michael Gateway,North Jordan,Nevada,07863,6.046269,-44.3036195
Kerry James,41,539 Weiss Station,Rangelville,Colorado,71506,172.194163,-75.8166535
Juan Sanchez,66,78120 Patricia Crest,Mccanntown,Maine,60600,114.662006,-7.9791595
Victor Peters,66,7947 Heather Extension,Parsonsshire,Ohio,72794,-25.287782,64.8943655
Brandon Ford,28,250 Flores Brooks,Lake Paulland,Alaska,04830,31.238131,82.5169595
Abigail Nguyen,62,737 Nicole Creek Apt. 253,Josephhaven,Massachusetts,26744,-8.275137,84.552232
Dr. Cheryl Johnson,18,084 Shepard Valleys Apt. 852,South Jacobfort,Kansas,03561,-97.915165,-10.4612355
Jane Yoder,70,398 Bonilla Wall Apt. 306,New Michaelland,Idaho,76569,12.453419,-15.9902485
Kathleen Fry,40,273 Lee Port,South Kevintown,Louisiana,96472,-28.635891,-48.6489715
Bradley Smith,66,91318 Mendoza Fields Apt. 076,East Andrea,Tennessee,21724,-74.844489,-83.5416245
Jill Lewis,27,0222 David River,South Gregorystad,Massachusetts,55384,-153.280647,-58.0227955
Amanda Mosley,73,3795 Denise Mills Suite 994,Port John,Wisconsin,46344,-112.568363,-5.4330205
Denise Lopez,74,66459 Lori Light Suite 184,West Deannastad,Massachusetts,96384,175.610618,71.8470695
Ashley Campbell,39,268 Ashley Ford,Sandraberg,Massachusetts,47017,-7.653622,-42.157734
Chad Wood,24,56791 Kelly Mills Suite 228,South Emily,South Carolina,51012,19.276634,38.3528515
William Sparks,45,294 Singh Flat,Averyville,Mississippi,74595,128.756614,-1.5834185
Michelle Ruiz,28,0176 Wood Square Apt. 785,Lake Jessica,Arizona,28302,-14.870982,-4.1908885
Julie Meadows,28,0795 Watts Wall Apt. 485,East Miguelmouth,Kansas,33365,41.571542,-85.3900865
Marcus Hale,25,0723 Leon Gardens,South Lisa,Vermont,44298,121.618159,41.278948
Frederick Cobb,69,6138 Amanda Fords,Davidview,South Carolina,49934,47.826017,49.0683805
Marissa King,71,8455 Jackson Trail Apt. 930,Port Markborough,Montana,66955,-37.536491,51.7677805
Adam Davenport,46,25406 Baldwin Curve,Martinezmouth,Oklahoma,86464,-79.376930,-12.731378
Monique Jackson,62,51790 Katie Rue Suite 151,Lake Sharonburgh,Idaho,98379,-160.473259,35.0941885
Nicole Kirk,28,30995 Guzman Dale,Cruzberg,Indiana,34734,163.130903,-24.447796
James Conley,34,304 Mccormick Falls Apt. 665,North Daniellebury,Idaho,76190,119.658592,-87.7091075
Ann Mitchell,23,835 Richard Loop,Carolynport,Rhode Island,77820,-138.525455,19.0841765
Christopher Pugh,75,2504 Brandon Land Apt. 680,Christopherbury,Michigan,90080,-153.315739,-10.061602
Joshua Rodriguez,41,8125 Kevin Drive,Brownport,New Hampshire,94123,-68.921267,55.502817
Kimberly Travis,47,860 Eric River Apt. 828,Loribury,Utah,34320,-150.253644,-72.3833855
Danielle Oliver,58,52874 Tara Glens Apt. 453,West Claire,Missouri,88843,169.675519,38.4546865
Darren Holmes,79,532 Angel Run Suite 871,Josephstad,Arizona,48688,41.963073,-35.133002
James Gonzalez,45,767 Howell Loop,East Peggymouth,Mississippi,96502,-49.185215,26.091763
Leslie Gordon,61,94009 Hurst Bypass,Williamfurt,Mississippi,26063,161.999085,46.691032
Michael Cowan,60,4006 Ramirez Springs,North Anthonyview,Vermont,48003,24.346748,59.232159
Catherine Yates,58,2476 Meyer Parkway,North Sarah,Maryland,37178,61.084752,-73.484058
Jessica Oliver,25,889 Newton Canyon,Port Juliestad,Michigan,36304,122.820967,23.043123
Jason Dudley,62,85765 Baker Curve Apt. 292,Gutierrezberg,Connecticut,58769,-50.084920,-33.9458615
Daniel Gomez,55,5800 Larry Drives,Michelleborough,Maryland,65644,-74.462958,-67.8617925
Christopher Freeman,55,8271 Rose Route,Johnsonchester,Hawaii,11801,148.099422,-13.8044505
Philip Lee,49,57792 Erin Brooks,North Tylermouth,Arizona,23453,-39.060683,-36.184200
Michael Bond,57,15099 Hunt Mount Suite 298,Kristineland,Iowa,32614,82.870884,-10.7471645
Miranda Davis,24,5693 Hernandez Island,South Teresaville,Utah,51282,52.130718,7.509786
Veronica Love,53,7803 Dustin Greens Apt. 122,Port Samantha,Maryland,20579,141.530290,-62.802684
