﻿نماد,نام,تعداد,حجم,ارزش,دیروز,اولین,آخرین معامله - مقدار,آخرین معامله - تغییر,آخرین معامله - درصد,قیمت پایانی - مقدار,قیمت پایانی - تغییر,قیمت پایانی - درصد,کمترین,بیشترین
پالايش,صندوق پالايشي يکم-سهام,109624,98558514,9.21838E+12,87280,89000,95350,"8,070.00",9.25,93530,"6,250.00",7.16,87290,95860
دارا يكم,صندوق واسطه گري مالي يكم-سهام,77150,52469218,8.39053E+12,150710,151000,162450,"11,740.00",7.79,159910,"9,200.00",6.10,147350,164800
خزر,فنرسازي‌زر,36259,66062148,3.32927E+12,50960,53500,49070,"-1,890.00",-3.71,50400,-560.00,-1.10,48420,53500
شستا,سرمايه گذاري تامين اجتماعي,35784,113360634,2.56648E+12,22270,22290,22790,520.00,2.33,22640,370.00,1.66,21700,23000
سپيدار,سپيدار سيستم آسيا,35726,854492,52878528436,58937,61883,61883,"2,946.00",5.00,61736,"2,799.00",4.75,61883,61883
كلوند,كاشي‌ الوند,28219,41721300,2.15421E+12,52840,54000,50810,"-2,030.00",-3.84,51630,"-1,210.00",-2.29,50200,55380
خودرو,ايران‌ خودرو,26255,1007085333,2.76612E+12,2630,2630,2760,130.00,4.94,2750,120.00,4.56,2600,2760
وكبهمن,مديريت سرمايه گذاري كوثربهمن,24530,13672209,1.8351E+11,13455,13400,13499,44.00,0.33,13422,-33.00,-0.25,12910,13800
وسپهر,سرمايه گذاري مالي سپهرصادرات,23674,67716707,6.8548E+11,10106,10101,10188,82.00,0.81,10123,17.00,0.17,10100,10299
شپنا,پالايش نفت اصفهان,23168,233883970,2.85358E+12,11690,11750,12270,580.00,4.96,12200,510.00,4.36,11720,12270
شاروم,پتروشيمي اروميه,22042,19806267,3.76417E+11,18737,18020,19673,936.00,5.00,19005,268.00,1.43,17801,19673
بوعلي,پتروشيمي بوعلي سينا,21085,7476589,3.27927E+11,43650,43670,44580,930.00,2.13,43860,210.00,0.48,42590,45300
خگستر,گسترش‌سرمايه‌گذاري‌ايران‌خودرو,17834,455066522,1.46066E+12,3090,3100,3240,150.00,4.85,3210,120.00,3.88,3030,3240
شتران,پالايش نفت تهران,17834,134768523,1.24808E+12,9000,9000,9380,380.00,4.22,9260,260.00,2.89,8810,9390
آوا,صندوق س.سهام آواي معيار-س,17702,176066582,1.44967E+12,8418,8240,8090,-328.00,-3.90,8234,-184.00,-2.19,8000,8542
زملارد,كشاورزي و دامپروري ملارد شير,17660,5900527,2.05403E+11,35965,34284,34940,"-1,025.00",-2.85,34811,"-1,154.00",-3.21,34170,35800
وتجارت,بانك تجارت,17603,389772092,1.12645E+12,2840,2840,2920,80.00,2.82,2890,50.00,1.76,2770,2940
كزغال,زغال سنگ پروده طبس,16087,2125245,49858247700,22343,23460,23460,"1,117.00",5.00,23315,972.00,4.35,23460,23460
ولپارس,ليزينگ پارسيان,15942,33885512,1.79308E+11,5540,5290,5330,-210.00,-3.79,5290,-250.00,-4.51,5270,5450
غزر,صنعتي زر ماكارون,15762,10697822,2.87469E+11,28050,28290,26650,"-1,400.00",-4.99,26870,"-1,180.00",-4.21,26650,28290
ثبهساز,بهساز كاشانه تهران,15031,82554854,2.05356E+11,2480,2420,2530,50.00,2.02,2490,10.00,0.40,2400,2540
ثاميد,توسعه و عمران اميد,14028,113133669,1.95841E+11,1730,1720,1750,20.00,1.16,1730,0,0,1690,1760
خساپا,سايپا,13482,648800910,1.52675E+12,2260,2300,2370,110.00,4.87,2350,90.00,3.98,2260,2370
سيتا,سرمايه گذاري سيمان تامين,13122,23831515,3.58606E+11,15030,15010,15070,40.00,0.27,15050,20.00,0.13,15000,15260
بپيوند,برق و انرژي پيوندگستر پارس,12163,10153146,1.55225E+11,15507,15480,15350,-157.00,-1.01,15288,-219.00,-1.41,14732,15790
پترول,گروه پتروشيمي س. ايرانيان,11600,80422102,8.12931E+11,9730,9970,10210,480.00,4.93,10110,380.00,3.91,9640,10210
وهنر,گروه توسعه هنر ايران,10745,66396873,6.59543E+11,9676,9966,9966,290.00,3.00,9933,257.00,2.66,9676,9966
ساروم,سيمان‌اروميه‌,10696,34454117,1.29518E+12,37270,39130,37380,110.00,0.30,37590,320.00,0.86,35410,39130
كرمان,س. توسعه و عمران استان كرمان,10526,15660272,8.3001E+11,54987,54040,53600,"-1,387.00",-2.52,53001,"-1,986.00",-3.61,52238,54987
آبادا,توليد نيروي برق آبادان,9771,5568102,82759274450,14860,14370,15040,180.00,1.21,14860,0,0,14340,15300
آريا,پليمر آريا ساسول,9456,3274865,2.602E+11,78543,77785,80003,"1,460.00",1.86,79454,911.00,1.16,76600,80056
بگيلان,توسعه مسير برق گيلان,9308,1900092,40520250994,21055,20920,21507,452.00,2.15,21277,222.00,1.05,20800,21790
وبصادر,بانك صادرات ايران,9215,216056258,5.71287E+11,2600,2620,2660,60.00,2.31,2640,40.00,1.54,2560,2680
حكشتي,كشتيراني جمهوري اسلامي ايران,9129,34637233,7.21026E+11,20430,20300,20990,560.00,2.74,20820,390.00,1.91,19650,21400
سبهان,سيمان‌ بهبهان‌,9071,5570361,8.38607E+11,157070,149220,152780,"-4,290.00",-2.73,150550,"-6,520.00",-4.15,149220,157000
شبندر,پالايش نفت بندرعباس,8742,44887711,9.78637E+11,20940,21450,21980,"1,040.00",4.97,21800,860.00,4.11,20500,21980
شپلي,پلي اكريل ايران,8711,110591846,1.32338E+12,12040,12280,11800,-240.00,-1.99,11966,-74.00,-0.61,11800,12280
بركت,گروه دارويي بركت,8571,26791141,6.36092E+11,22810,23040,23950,"1,140.00",5.00,23740,930.00,4.08,22810,23950
فملي,ملي‌ صنايع‌ مس‌ ايران‌,8476,76983256,8.36987E+11,10400,10630,10920,520.00,5.00,10870,470.00,4.52,10500,10920
وپارس,بانك‌پارسيان‌,8105,268216940,8.54298E+11,3070,3070,3220,150.00,4.89,3190,120.00,3.91,3000,3220
وبملت,بانك ملت,8007,149925108,6.08246E+11,3950,4020,4080,130.00,3.29,4060,110.00,2.78,3910,4130
رافزا,رايان هم افزا,7926,46272,2009916864,41369,43437,43437,"2,068.00",5.00,41448,79.00,0.19,43437,43437
خودكفا,اقتصادي و خودكفايي آزادگان,7921,25796544,6.52154E+11,26475,25152,25320,"-1,155.00",-4.36,25281,"-1,194.00",-4.51,25152,26330
غگل,گلوكوزان‌,7900,85198417,3.20001E+11,3850,3800,3800,-50.00,-1.30,3760,-90.00,-2.34,3660,3850
فولاد,فولاد مباركه اصفهان,7898,73986789,8.78149E+11,11340,11680,11900,560.00,4.94,11870,530.00,4.67,11480,11900
سخاش,سيمان‌خاش‌,7449,3641329,6.05697E+11,161640,169720,169720,"8,080.00",5.00,166340,"4,700.00",2.91,156000,169720
آسيا,بيمه آسيا,7006,130342280,3.20865E+11,2460,2450,2500,40.00,1.63,2460,0,0,2360,2520
كلر,كلر پارس,6928,5510493,7.87403E+11,137604,133300,144484,"6,880.00",5.00,142892,"5,288.00",3.84,133300,144484
انرژي3,سايراشخاص بورس انرژي,6920,1856879,5.60375E+11,303890,303690,298500,"-5,390.00",-1.77,301780,"-2,110.00",-0.69,293000,310500
ثشاهد,سرمايه‌ گذاري‌ شاهد,6747,23044201,4.66975E+11,20490,20200,20220,-270.00,-1.32,20260,-230.00,-1.12,19540,20890
كاذر,فرآورده‌هاي‌نسوزآذر,6724,23895319,8.1948E+11,35950,34160,34500,"-1,450.00",-4.03,34290,"-1,660.00",-4.62,34160,35460
ثفارس,عمران‌وتوسعه‌فارس‌,6651,37459577,4.68919E+11,13100,12700,12460,-640.00,-4.89,12520,-580.00,-4.43,12450,13100
حآسا,آسيا سير ارس,6620,16038659,6.50299E+11,42509,40384,40385,"-2,124.00",-5.00,40546,"-1,963.00",-4.62,40384,42000
فارس,صنايع پتروشيمي خليج فارس,6612,35322736,3.29062E+11,9170,9300,9330,160.00,1.74,9320,150.00,1.64,9040,9500
شگويا,پتروشيمي تندگويان,6441,26415839,2.23843E+11,8317,8200,8585,268.00,3.22,8474,157.00,1.89,8156,8643
ذوب,سهامي ذوب آهن  اصفهان,6385,100117339,4.34861E+11,4171,4281,4379,208.00,4.99,4344,173.00,4.15,4245,4379
غنوش,نوش‌ مازندران‌,6385,8912003,5.20137E+11,56070,57000,58870,"2,800.00",4.99,58360,"2,290.00",4.08,56500,58870
كرازي,كارخانجات‌توليدي‌شيشه‌رازي‌,6320,17108245,4.21013E+11,25800,24540,24510,"-1,290.00",-5.00,24610,"-1,190.00",-4.61,24510,25500
كوثر,بيمه كوثر,6203,37106088,5.59274E+11,15330,14564,15499,169.00,1.10,15072,-258.00,-1.68,14564,15730
ماديرا,صنايع ماشين هاي اداري ايران,6190,36126871,3.32588E+11,9116,9010,9435,319.00,3.50,9206,90.00,0.99,8800,9490
قاسم,قاسم ايران,6187,55299772,7.84709E+11,14610,15330,13931,-679.00,-4.65,14190,-420.00,-2.87,13880,15330
خرينگ,رينگ‌سازي‌مشهد,6187,11092671,5.0637E+11,47730,45400,46500,"-1,230.00",-2.58,45650,"-2,080.00",-4.36,45350,47800
وخارزم,سرمايه گذاري خوارزمي,5950,47675165,4.33402E+11,8720,8890,9150,430.00,4.93,9090,370.00,4.24,8540,9150
حفارس,حمل و نقل بين المللي خليج فارس,5852,87033993,4.22159E+11,5040,5000,4940,-100.00,-1.98,4850,-190.00,-3.77,4790,5050
فروي,ذوب روي اصفهان,5657,4561255,3.07372E+11,66004,68000,68000,"1,996.00",3.02,67388,"1,384.00",2.10,65000,68900
تملت,تامين سرمايه بانك ملت,5576,33242814,2.03456E+11,6300,6120,6150,-150.00,-2.38,6120,-180.00,-2.86,6010,6300
خپارس,پارس‌ خودرو,5484,72694725,4.37805E+11,5830,5680,6120,290.00,4.97,6020,190.00,3.26,5680,6120
ثاخت,بين‌المللي‌توسعه‌ساختمان,5431,102763489,3.11866E+11,2990,2940,3060,70.00,2.34,3030,40.00,1.34,2880,3120
وآذر,سرمايه‌گذاري‌توسعه‌آذربايجان‌,5301,4943044,4.22546E+11,86990,83000,89800,"2,810.00",3.23,85480,"-1,510.00",-1.74,82650,89940
فرابورس,فرابورس ايران,5170,11924334,3.97911E+11,33456,32890,34190,734.00,2.19,33370,-86.00,-0.26,31800,34500
غپينو,پارس‌ مينو,5132,42419879,2.90668E+11,7170,6870,6890,-280.00,-3.91,6850,-320.00,-4.46,6820,7050
سمگا,گروه سرمايه گذاري ميراث فرهنگي,5098,24917297,7.40165E+11,28447,29300,29869,"1,422.00",5.00,29705,"1,258.00",4.42,28500,29869
ديران,ايران‌دارو,5072,13760162,3.6153E+11,27460,27160,26300,"-1,160.00",-4.22,26270,"-1,190.00",-4.33,26090,27460
آگاس,صندوق س.هستي بخش آگاه-س,5038,6462590,4.24412E+11,65629,65000,65800,171.00,0.26,65672,43.00,0.07,63900,66990
صبا,سرمايه گذاري صبا تامين,5005,22492265,1.74357E+11,7702,7600,7799,97.00,1.26,7752,50.00,0.65,7460,7880
سرو,صندوق س سروسودمند مدبران-سهام,4989,7386937,4.9521E+11,66950,65780,67150,200.00,0.30,67040,90.00,0.13,65000,68200
ددام,داروسازي زاگرس فارمد پارس,4930,17752306,3.5447E+11,20250,19240,20620,370.00,1.83,19970,-280.00,-1.38,19240,21000
خزاميا,زامياد,4925,58119455,4.92566E+11,8140,8050,8540,400.00,4.91,8480,340.00,4.18,7910,8540
غگلستا,شير پاستوريزه پگاه گلستان,4886,18521348,5.41974E+11,30481,28957,30150,-331.00,-1.09,29262,"-1,219.00",-4.00,28957,30481
وپويا,سرمايه گذاري پويا,4862,5890255,38911024530,6292,6606,6606,314.00,4.99,6505,213.00,3.39,6606,6606
كوير,توليدي فولاد سپيد فراب كوير,4859,15503332,3.64764E+11,24520,23530,23410,"-1,110.00",-4.53,23530,-990.00,-4.04,23300,24520
وتوصا,گروه س توسعه صنعتي ايران,4841,32514635,4.02253E+11,12800,12170,12500,-300.00,-2.34,12370,-430.00,-3.36,12160,12800
شبريز,پالايش نفت تبريز,4824,19274387,5.15769E+11,26130,25500,27100,970.00,3.71,26760,630.00,2.41,25000,27330
غگرجي,بيسكويت‌  گرجي‌,4768,14959182,2.8428E+11,19370,18690,19530,160.00,0.83,19000,-370.00,-1.91,18410,19900
پيزد,مجتمع صنايع لاستيك يزد,4658,582020,39865721102,67458,67044,68120,662.00,0.98,68278,820.00,1.22,66033,70830
كساپا,سايپاشيشه‌,4581,20049325,7.81299E+11,38550,36630,40470,"1,920.00",4.98,38970,420.00,1.09,36630,40470
مدير,ص.س.مديريت ثروت ص.بازنشستگي-س,4581,22959556,2.30198E+11,9747,9790,10060,313.00,3.21,10026,279.00,2.86,9521,10350
چكاپا,گروه صنايع كاغذ پارس,4517,56263166,2.99532E+11,5160,5290,5410,250.00,4.84,5320,160.00,3.10,5160,5410
سقاين,سيمان‌ قائن‌,4501,3910551,3.16236E+11,82260,82990,82800,540.00,0.66,80870,"-1,390.00",-1.69,78150,85980
فخوز,فولاد  خوزستان,4276,53558401,7.10642E+11,12660,12410,13290,630.00,4.98,13270,610.00,4.82,12410,13290
فنرژي,گسترش صنايع انرژي آذرآب,4145,21250106,4.19343E+11,19537,20318,20299,762.00,3.90,19734,197.00,1.01,18756,20318
فولاي,صنايع فولاد آلياژي يزد,4137,5287604,2.7937E+11,53285,53990,52400,-885.00,-1.66,52835,-450.00,-0.84,51150,55949
تليسه,دامداري تليسه نمونه,3957,34201321,1.45526E+11,4313,4200,4293,-20.00,-0.46,4255,-58.00,-1.34,4140,4350
وايران,ليزينگ ايرانيان,3918,29820057,3.24408E+11,11390,10830,11070,-320.00,-2.81,10880,-510.00,-4.48,10830,11160
خمحركه,نيرو محركه‌,3888,37321024,1.82321E+11,4840,4720,4910,70.00,1.45,4890,50.00,1.03,4610,5020
بجهرم,توسعه مولد نيروگاهي جهرم,3868,59620154,1.80554E+11,2942,2985,3089,147.00,5.00,3028,86.00,2.92,2904,3089
رتكو,كنترل‌خوردگي‌تكين‌كو,3762,12826588,2.56932E+11,20770,20000,19740,"-1,030.00",-4.96,20030,-740.00,-3.56,19740,20990
خفنر,فنرسازي‌خاور,3747,12556483,2.745E+11,22380,22000,21270,"-1,110.00",-4.96,21860,-520.00,-2.32,21270,23490
ومعادن,توسعه‌معادن‌وفلزات‌,3736,44185665,5.01118E+11,10820,11150,11360,540.00,4.99,11340,520.00,4.81,10910,11360
ساوه,سيمان ساوه,3703,2043751,1.10702E+11,54391,53500,54360,-31.00,-0.06,54166,-225.00,-0.41,52690,55600
كمند,صندوق س. با درآمد ثابت كمند,3675,151685245,1.52202E+12,10028,10034,10035,7.00,0.07,10034,6.00,0.06,10033,10037
كاما,باما,3660,26659859,3.97426E+11,14360,14090,15070,710.00,4.94,14910,550.00,3.83,13950,15070
گكوثر,هتل پارسيان كوثر اصفهان,3641,53876206,1.43166E+11,2646,2680,2705,59.00,2.23,2657,11.00,0.42,2566,2750
تاپيكو,س. نفت و گاز و پتروشيمي تأمين,3554,29615839,3.65561E+11,11800,11870,12390,590.00,5.00,12340,540.00,4.58,11510,12390
كماسه,تامين‌ ماسه‌ ريخته‌گري‌,3524,4168983,1.8787E+11,46640,45590,44850,"-1,790.00",-3.84,45060,"-1,580.00",-3.39,44460,46600
دانا,بيمه دانا,3461,36430513,2.30348E+11,6130,6060,6430,300.00,4.89,6320,190.00,3.10,6060,6430
كالا,بورس كالاي ايران,3456,7697297,2.53277E+11,32250,31850,33860,"1,610.00",4.99,32900,650.00,2.02,31000,33860
سبزوا,سيمان لار سبزوار,3416,30350875,1.13007E+11,3780,3705,3715,-65.00,-1.72,3723,-57.00,-1.51,3620,3840
شلعاب,لعابيران‌,3405,18528661,3.06514E+11,16030,16770,16830,800.00,4.99,16540,510.00,3.18,15620,16830
تاصيكو,سرمايه گذاري صدرتامين,3392,33399293,3.42559E+11,10260,10000,10260,0,0,10260,0,0,9820,10450
زقيام,كشت و دام قيام اصفهان,3391,7010166,2.2567E+11,32040,33000,31760,-280.00,-0.87,32192,152.00,0.47,31076,33171
بالبر,كابل‌ البرز,3388,8372203,3.38122E+11,40570,38550,42590,"2,020.00",4.98,40390,-180.00,-0.44,38550,42590
ختوقا,قطعات‌ اتومبيل‌ ايران‌,3373,61715373,1.63642E+11,2590,2550,2700,110.00,4.25,2650,60.00,2.32,2540,2710
وملي,گروه‌ صنعتي‌ ملي‌ (هلدينگ‌,3341,1289821,2.24068E+11,174920,175500,175000,80.00,0.05,173720,"-1,200.00",-0.69,168190,178000
كترام,توليدي‌ كاشي‌ تكسرام‌,3331,6607387,2.7499E+11,43220,43200,41060,"-2,160.00",-5.00,41620,"-1,600.00",-3.70,41060,43220
غويتا,ويتانا,3319,11633571,2.16543E+11,19201,18241,19000,-201.00,-1.05,18614,-587.00,-3.06,18241,19670
فنورد,نوردوقطعات‌ فولادي‌,3314,1249342,2.78847E+11,232270,225000,223520,"-8,750.00",-3.77,223200,"-9,070.00",-3.90,220660,232200
لابسا,آبسال‌,3297,5006911,2.36027E+11,49110,47100,47190,"-1,920.00",-3.91,47140,"-1,970.00",-4.01,46660,48790
نوري,پتروشيمي نوري,3283,3742942,1.99248E+11,52460,52460,53200,740.00,1.41,53230,770.00,1.47,50950,54500
فاراك,ماشين‌ سازي‌ اراك‌,3272,39386315,2.04511E+11,5000,4990,5250,250.00,5.00,5190,190.00,3.80,4850,5250
بكام,كارخانجات توليدي شهيد قندي,3264,38645064,1.29787E+11,3400,3330,3400,0,0,3360,-40.00,-1.18,3240,3450
تكمبا,كمباين‌ سازي‌ ايران‌,3249,26575529,2.16076E+11,8520,8200,8210,-310.00,-3.64,8130,-390.00,-4.58,8100,8290
زكوثر,سرمايه گذاري كشاورزي كوثر,3201,6371949,1.35253E+11,21120,21300,21440,320.00,1.52,21230,110.00,0.52,20200,22000
زشگزا,شير و گوشت زاگرس شهركرد,3195,18171023,1.54547E+11,8899,8787,8499,-400.00,-4.49,8505,-394.00,-4.43,8455,8900
خكمك,كمك‌فنرايندامين‌,3162,8329459,2.3567E+11,28760,28500,28800,40.00,0.14,28290,-470.00,-1.63,27330,29940
ولساپا,ليزينگ رايان‌ سايپا,3127,66048388,2.47365E+11,3650,3650,3820,170.00,4.66,3750,100.00,2.74,3530,3830
خكرمان,گروه اقتصادي كرمان خودرو,3124,40040617,1.68226E+11,4286,4158,4219,-67.00,-1.56,4201,-85.00,-1.98,4158,4286
ارزش,صندوق س ارزش آفرين بيدار-سهام,3122,24477366,2.50544E+11,10050,9940,10260,210.00,2.09,10240,190.00,1.89,9820,10460
ونوين,بانك‌اقتصادنوين‌,3116,61946173,2.50603E+11,3930,3900,4040,110.00,2.80,4050,120.00,3.05,3900,4110
ختور,رادياتور ايران‌,3115,6493529,1.49737E+11,22890,21800,23760,870.00,3.80,23060,170.00,0.74,21750,23930
دماوند,توليد نيروي برق دماوند,3111,3626382,1.81438E+11,51567,50500,49800,"-1,767.00",-3.43,50033,"-1,534.00",-2.97,49090,51600
غگيلا,شيرپاستوريزه پگاه گيلان,3102,94659,2183593812,21970,23068,23068,"1,098.00",5.00,22015,45.00,0.20,23068,23068
كسعدي,كاشي‌ سعدي‌,3101,8489880,1.515E+11,18250,17880,18000,-250.00,-1.37,17840,-410.00,-2.25,17360,18490
ولبهمن,شركت بهمن ليزينگ,3080,32099058,2.80197E+11,8386,8805,8805,419.00,5.00,8729,343.00,4.09,8390,8805
ثپرديس,سرمايه گذاري مسكن پرديس,3078,15190051,1.55492E+11,10633,10200,10238,-395.00,-3.71,10236,-397.00,-3.73,10102,10650
شيران,س. صنايع‌شيميايي‌ايران,3037,12247675,3.60197E+11,28060,29440,29460,"1,400.00",4.99,29410,"1,350.00",4.81,29000,29460
پدرخش,درخشان‌ تهران‌,2911,1254887,1.72031E+11,143730,140000,137500,"-6,230.00",-4.33,137090,"-6,640.00",-4.62,136550,142600
مبين,مبين انرژي خليج فارس,2899,14591241,2.1835E+11,15000,15000,15200,200.00,1.33,14960,-40.00,-0.27,14320,15400
فجام,جام‌دارو,2894,28648980,3.0353E+11,10940,10400,10990,50.00,0.46,10590,-350.00,-3.20,10400,11000
سفارس,سيمان فارس و خوزستان,2883,12793355,2.35636E+11,18300,17600,18590,290.00,1.58,18420,120.00,0.66,17600,18900
حاريا,كشتيراني آريا,2878,10067307,2.97635E+11,30910,29365,29365,"-1,545.00",-5.00,29564,"-1,346.00",-4.35,29365,30700
قشكر,شكرشاهرود,2858,45433345,1.68617E+11,3860,3800,3750,-110.00,-2.85,3710,-150.00,-3.89,3670,3850
شسينا,صنايع‌شيميايي‌سينا,2853,1622068,2.07828E+11,127240,129750,130690,"3,450.00",2.71,128130,890.00,0.70,120990,132730
غصينو,صنعتي مينو,2838,5078361,3.68864E+11,75436,79000,71665,"-3,771.00",-5.00,72634,"-2,802.00",-3.71,71665,79000
وبازار,صندوق س شاخصي بازارآشنا,2820,9961848,99618480000,10000,10000,10000,0,0,10000,0,0,10000,10000
آينده,بازرگاني آينده سازان بهشت پارس,2818,13232638,3.02219E+11,23835,22644,22644,"-1,191.00",-5.00,22839,-996.00,-4.18,22644,23582
زدشت,كشت و صنعت دشت خرم دره,2797,4756862,1.55757E+11,32390,32970,33360,970.00,2.99,32744,354.00,1.09,31100,33500
ميهن,بيمه ميهن,2765,24442652,1.12963E+11,4665,4541,4636,-29.00,-0.62,4622,-43.00,-0.92,4485,4763
خنصير,مهندسي‌نصيرماشين‌,2747,2590316,2.266E+11,87750,88950,89900,"2,150.00",2.45,87480,-270.00,-0.31,85120,90380
ودي,بيمه  دي,2721,10347472,2.30285E+11,22649,23000,21970,-679.00,-3.00,22255,-394.00,-1.74,21700,23000
ونيرو,سرمايه‌گذاري‌نيرو,2687,62415691,1.68045E+11,2630,2630,2760,130.00,4.94,2690,60.00,2.28,2550,2760
غشاذر,پگاه‌آذربايجان‌غربي‌,2650,14811661,2.85666E+11,20110,19700,19500,-610.00,-3.03,19290,-820.00,-4.08,19110,20500
تاپكيش,تجارت الكترونيك پارسيان كيش,2650,7106867,1.39837E+11,20599,20455,19600,-999.00,-4.85,19676,-923.00,-4.48,19570,20455
شلرد,كود شيميايي اوره لردگان,2591,20814052,1.50195E+11,7336,7270,7178,-158.00,-2.15,7216,-120.00,-1.64,7130,7400
وكارح,ح . بانك‌ كارآفرين‌,2590,96643264,1.36321E+11,1430,1400,1400,-30.00,-2.10,1410,-20.00,-1.40,1340,1480
وپاسار,بانك  پاسارگاد,2570,25673488,3.1188E+11,12020,12140,12200,180.00,1.50,12150,130.00,1.08,12020,12320
شكربن,كربن‌ ايران‌,2566,2382553,2.53878E+11,107300,109780,105000,"-2,300.00",-2.14,106560,-740.00,-0.69,103200,111500
ولصنم,ليزينگ‌صنعت‌ومعدن‌,2561,15958011,1.79423E+11,10920,10950,11460,540.00,4.95,11240,320.00,2.93,10430,11460
اخابر,مخابرات ايران,2537,24006326,2.51892E+11,10380,10390,10600,220.00,2.12,10490,110.00,1.06,10010,10740
كسرام,پارس‌ سرام‌,2537,32270175,3.04761E+11,9930,9440,9440,-490.00,-4.93,9440,-490.00,-4.93,9440,9590
زبينا,كشاورزي و دامپروري بينالود,2505,4232814,1.38568E+11,32999,31501,33670,671.00,2.03,32737,-262.00,-0.79,31501,34190
ونيكي,سرمايه‌گذاري‌ ملي‌ايران‌,2485,16116496,1.77912E+11,10690,10500,11220,530.00,4.96,11040,350.00,3.27,10300,11220
فزرين,زرين معدن آسيا,2475,9612270,2.3169E+11,23218,23500,24378,"1,160.00",5.00,24104,886.00,3.82,23500,24378
ورنا,سرمايه‌گذاري‌ رنا(هلدينگ‌,2451,33636955,1.9006E+11,5480,5310,5750,270.00,4.93,5650,170.00,3.10,5310,5750
غويتاح,ح . ويتانا,2442,11144560,1.46127E+11,13075,12422,13728,653.00,4.99,13112,37.00,0.28,12422,13728
ملت,بيمه ملت,2396,14852185,2.37749E+11,15610,14960,16390,780.00,5.00,16010,400.00,2.56,14920,16390
وغدير,سرمايه‌گذاري‌غدير(هلدينگ‌,2388,29222551,3.52369E+11,11510,11500,12080,570.00,4.95,12060,550.00,4.78,11350,12080
زگلدشت,كشت و دام گلدشت نمونه اصفهان,2348,7051588,3.38057E+11,50160,47652,47652,"-2,508.00",-5.00,47941,"-2,219.00",-4.42,47652,49080
چكاوه,صنايع‌كاغذسازي‌كاوه‌,2346,12679056,1.7243E+11,13600,12920,14280,680.00,5.00,13600,0,0,12920,14280
ثشرق,سرمايه گذاري مسكن شمال شرق,2318,30655973,1.59778E+11,5100,4950,5340,240.00,4.71,5210,110.00,2.16,4910,5350
ثزاگرس,سرمايه گذاري توسعه عمران زاگرس,2283,2734233,1.85454E+11,66873,70000,70216,"3,343.00",5.00,67827,954.00,1.43,63530,70216
ومهان,گروه توسعه مالي مهر آيندگان,2268,14060546,1.85673E+11,12693,12940,13327,634.00,4.99,13205,512.00,4.03,12700,13327
فجر,فولاد اميركبيركاشان,2256,4264928,2.81969E+11,66610,66360,66120,-490.00,-0.74,66110,-500.00,-0.75,65010,68440
غمينو,شركت صنايع غذايي مينو شرق,2254,10548348,1.32459E+11,13101,13200,12470,-631.00,-4.82,12557,-544.00,-4.15,12446,13200
خچرخش,چرخشگر,2248,8380960,1.32772E+11,16100,15510,16000,-100.00,-0.62,15840,-260.00,-1.61,15300,16500
كبافق,معادن‌ بافق‌,2240,3571231,1.96903E+11,52950,54800,55590,"2,640.00",4.99,55140,"2,190.00",4.14,53000,55590
غسالم,سالمين‌,2219,22560632,98275814570,4290,4350,4410,120.00,2.80,4360,70.00,1.63,4260,4440
قصفها,قنداصفهان‌,2194,1035390,1.71417E+11,162100,163500,170200,"8,100.00",5.00,165560,"3,460.00",2.13,157800,170200
فاما,صنعتي‌ آما,2180,5081126,1.11736E+11,21860,22100,22260,400.00,1.83,21990,130.00,0.59,21010,22880
خاور,ايران خودرو ديزل,2169,22893041,1.60606E+11,6916,7110,7123,207.00,2.99,7015,99.00,1.43,6880,7123
وملل,اعتباري ملل,2156,17353215,2.75189E+11,15413,16050,15710,297.00,1.93,15858,445.00,2.89,15413,16183
ستران,سيمان‌ تهران‌,2154,5349363,1.42928E+11,26570,26880,27010,440.00,1.66,26720,150.00,0.56,25720,27250
مرقام,ايران‌ارقام‌,2153,8833264,1.51096E+11,17220,17450,17600,380.00,2.21,17110,-110.00,-0.64,16610,17800
زمگسا,كشاورزي‌ ودامپروي‌ مگسال‌,2141,3569005,1.05297E+11,30290,29650,29570,-720.00,-2.38,29500,-790.00,-2.61,28880,30500
وصنعت,سرمايه گذاري توسعه صنعت وتجارت,2125,31904650,2.12941E+11,6440,6400,6760,320.00,4.97,6670,230.00,3.57,6350,6760
غچين,كشت‌ و صنعت‌ چين‌ چين,2116,7277503,1.39729E+11,19200,18240,20160,960.00,5.00,19200,0,0,18240,20160
فرآور,فرآوري‌موادمعدني‌ايران‌,2114,7051410,2.35017E+11,31790,32600,33370,"1,580.00",4.97,33330,"1,540.00",4.84,32430,33370
ثنوسا,نوسازي‌وساختمان‌تهران‌,2098,13799947,1.89316E+11,13110,13640,13760,650.00,4.96,13720,610.00,4.65,13260,13760
كچاد,معدني‌وصنعتي‌چادرملو,2086,8236175,1.68252E+11,20130,20130,20340,210.00,1.04,20430,300.00,1.49,20030,20980
خكار,ايركا پارت صنعت,2081,8394533,1.50081E+11,17690,17010,18570,880.00,4.97,17880,190.00,1.07,16810,18570
داسوه,داروسازي‌ اسوه‌,2077,6848360,2.89979E+11,40880,40890,42920,"2,040.00",4.99,42340,"1,460.00",3.57,40880,42920
فاذر,صنايع‌ آذرآب‌,2071,8311393,2.08669E+11,24320,24100,25530,"1,210.00",4.98,25110,790.00,3.25,24100,25530
چافست,افست‌,2065,9664715,1.49612E+11,15370,15300,16130,760.00,4.94,15480,110.00,0.72,14610,16130
چكاوهح,ح . صنايع‌كاغذسازي‌كاوه‌,2047,15573859,1.51982E+11,9160,8700,10080,920.00,10.04,9760,600.00,6.55,8700,10080
ساراب,سيمان‌ داراب‌,2021,10735538,1.72711E+11,15770,15050,16550,780.00,4.95,16090,320.00,2.03,14990,16550
تكنو,تكنوتار,2019,10947902,2.60058E+11,23640,22460,24820,"1,180.00",4.99,23750,110.00,0.47,22460,24820
ثتوسا,س.توسعه و عمران استان اردبيل,2014,4273991,1.97758E+11,47072,47890,45660,"-1,412.00",-3.00,46270,-802.00,-1.70,45660,47890
كپارس,كاشي‌ پارس‌,2002,1382187,2.23477E+11,154030,161730,161730,"7,700.00",5.00,161680,"7,650.00",4.97,155260,161730
وپست,پست بانك ايران,1988,9958069,1.61788E+11,16440,16400,16550,110.00,0.67,16250,-190.00,-1.16,15620,16790
البرز,بيمه البرز,1975,31021641,1.19254E+11,3790,3790,3900,110.00,2.90,3840,50.00,1.32,3700,3940
بكهنوج,توليد برق ماهتاب كهنوج,1973,33458152,62708467951,1841,1870,1908,67.00,3.64,1874,33.00,1.79,1790,1918
وگردش,بانك گردشگري,1960,7596577,1.42001E+11,18236,18780,18783,547.00,3.00,18693,457.00,2.51,18304,18783
خاذين,سايپاآذين‌,1929,29967736,1.3865E+11,4520,4570,4740,220.00,4.87,4630,110.00,2.43,4350,4740
وسپهح,ح . سرمايه‌گذاري‌ سپه‌,1929,14036573,73647994760,4910,4900,5370,460.00,9.37,5250,340.00,6.92,4630,5400
آريان,سرمايه گذاري پارس آريان,1928,30718371,3.60743E+11,11912,11600,11873,-39.00,-0.33,11744,-168.00,-1.41,11555,12210
چدن,توليدي چدن سازان,1924,4524247,1.18693E+11,26170,27300,26100,-70.00,-0.27,26230,60.00,0.23,25500,27300
حتايد,تايدواترخاورميانه,1905,7675500,1.70697E+11,23120,22500,22190,-930.00,-4.02,22240,-880.00,-3.81,21970,23300
سدور,سيمان‌ دورود,1905,18567094,4.01606E+11,20600,21630,21630,"1,030.00",5.00,21630,"1,030.00",5.00,21630,21630
وسكاب,س.ص.بازنشستگي كاركنان بانكها,1902,27961669,1.89377E+11,6550,6650,6870,320.00,4.89,6770,220.00,3.36,6500,6870
نوين,بيمه نوين,1900,16525820,99534099530,5927,6011,6070,143.00,2.41,6023,96.00,1.62,5770,6210
ثنظام,س. ساختماني نظام مهندسي ايران,1898,2895637,1.47576E+11,52094,53000,50532,"-1,562.00",-3.00,50965,"-1,129.00",-2.17,50532,53000
ثعمرا,عمران و توسعه شاهد,1893,11306519,1.34945E+11,12122,11516,12100,-22.00,-0.18,11935,-187.00,-1.54,11516,12500
ومعلم,بيمه معلم,1881,25366765,1.1863E+11,4512,4512,4737,225.00,4.99,4677,165.00,3.66,4357,4737
دتوليد,داروسازي توليد دارو,1878,7421418,2.01686E+11,26078,26000,27381,"1,303.00",5.00,27176,"1,098.00",4.21,25060,27381
حسير,ريل سير كوثر,1855,6760606,1.12145E+11,17351,16484,16696,-655.00,-3.77,16588,-763.00,-4.40,16484,17200
شپترو,پتروشيمي آبادان,1852,27446498,1.21606E+11,4426,4336,4470,44.00,0.99,4431,5.00,0.11,4296,4505
دروز,داروسازي‌ روزدارو,1850,5939346,1.68227E+11,27720,28000,29100,"1,380.00",4.98,28320,600.00,2.16,26340,29100
شدوص,دوده‌ صنعتي‌ پارس‌,1836,6862409,2.19417E+11,30500,32020,31900,"1,400.00",4.59,31970,"1,470.00",4.82,31010,32020
شرنگي,شيميايي رنگين,1834,1435217,2.54731E+11,174729,169488,179970,"5,241.00",3.00,177486,"2,757.00",1.58,169488,179970
وشهر,بانك شهر,1805,18837429,1.16624E+11,6227,6290,6250,23.00,0.37,6191,-36.00,-0.58,6050,6300
كگل,معدني و صنعتي گل گهر,1801,5544170,1.0003E+11,17810,17920,18000,190.00,1.07,17990,180.00,1.01,17690,18600
خكاوه,سايپا ديزل,1800,27755488,1.20341E+11,4433,4315,4360,-73.00,-1.65,4336,-97.00,-2.19,4301,4485
امين يكم,صندوق درآمد ثابت امين يكم فردا,1798,59431018,6.06591E+11,10197,10204,10225,28.00,0.27,10207,10.00,0.10,10201,10240
غپآذر,شير پگاه آذربايجان شرقي,1780,2951960,1.90679E+11,62910,64800,66055,"3,145.00",5.00,64594,"1,684.00",2.68,63138,66055
اعتماد,صندوق س.اعتماد آفرين پارسيان-د,1776,44186440,1.53653E+12,34755,34770,34775,20.00,0.06,34774,19.00,0.05,34768,34798
سصوفي,سيمان‌ صوفيان‌,1770,7676460,1.23111E+11,15410,15940,16180,770.00,5.00,16040,630.00,4.09,15500,16180
توريل,توکاريل,1766,6174820,1.57123E+11,24390,25000,25609,"1,219.00",5.00,25446,"1,056.00",4.33,24440,25609
دبالك,مواد اوليه دارويي البرز بالك,1763,4469429,88214652715,19608,18700,20200,592.00,3.02,19737,129.00,0.66,18700,20380
سشمال,سيمان‌ شمال‌,1756,8451627,93527634860,10870,11200,11340,470.00,4.32,11070,200.00,1.84,10500,11410
دزهراوي,داروسازي‌زهراوي‌,1745,7179264,58547276440,8240,8000,8110,-130.00,-1.58,8160,-80.00,-0.97,7910,8390
كسرا,سراميك‌هاي‌صنعتي‌اردكان‌,1743,8415013,1.88202E+11,21590,22000,22650,"1,060.00",4.91,22370,780.00,3.61,21640,22660
خاهن,آهنگري‌ تراكتورسازي‌ ايران‌,1716,3064476,1.16735E+11,38500,38080,38050,-450.00,-1.17,38090,-410.00,-1.06,38020,38910
خبهمن,گروه‌بهمن‌,1703,10964093,2.38424E+11,20920,21050,21960,"1,040.00",4.97,21750,830.00,3.97,20510,21960
پلاسك,پلاسكوكار,1667,10994636,87388802080,8060,7990,8140,80.00,0.99,7950,-110.00,-1.36,7660,8270
ثباغ,شهر سازي و خانه سازي باغميشه,1666,6985358,1.03453E+11,15511,15500,14741,-770.00,-4.96,14810,-701.00,-4.52,14736,15500
فاسمين,كالسيمين‌,1666,29379824,4.57125E+11,14820,15560,15560,740.00,4.99,15560,740.00,4.99,15340,15560
لازما,كارخانه هاي صنعتي آزمايش,1659,6975799,2.59819E+11,37249,38366,36132,"-1,117.00",-3.00,37246,-3.00,-0.01,36132,38366
تكشا,گسترش‌صنايع‌وخدمات‌كشاورزي‌,1658,2469869,1.24837E+11,48620,48620,51050,"2,430.00",5.00,50540,"1,920.00",3.95,47500,51050
قنيشا,قند  نيشابور,1646,2068742,1.26896E+11,60510,62900,62550,"2,040.00",3.37,61340,830.00,1.37,60200,62900
بزاگرس,نيروگاه زاگرس كوثر,1634,7444834,49717787208,6656,6450,6800,144.00,2.16,6678,22.00,0.33,6370,6900
دفرا,فرآورده‌هاي‌ تزريقي‌ ايران‌,1630,2922654,81149614820,27000,28000,27710,710.00,2.63,27770,770.00,2.85,26060,28350
اعتلا,شركت سرمايه گذاري اعتلاء البرز,1605,12636170,89317664269,7144,7130,7500,356.00,4.98,7068,-76.00,-1.06,6787,7500
والبر,سرمايه‌ گذاري‌ البرز(هلدينگ‌,1595,5512114,95631055690,17020,17700,17500,480.00,2.82,17350,330.00,1.94,17020,17850
شسپا,نفت سپاهان,1590,5034931,1.15649E+11,23040,23270,23100,60.00,0.26,22970,-70.00,-0.30,22110,23680
وحكمت,بيمه حكمت صبا,1589,15960356,66684327842,4127,4004,4250,123.00,2.98,4178,51.00,1.24,4004,4250
سغرب,سيمان‌غرب‌,1568,3523359,1.03292E+11,28400,28990,29820,"1,420.00",5.00,29320,920.00,3.24,28410,29820
كروي,توسعه‌ معادن‌ روي‌ ايران‌,1551,5668266,1.64247E+11,27720,29000,29100,"1,380.00",4.98,28980,"1,260.00",4.55,27800,29100
كاردان,صندوق س تجارت شاخصي كاردان,1546,969187,1.546E+11,157440,155000,159980,"2,540.00",1.61,159520,"2,080.00",1.32,152000,162150
دزهراويح,ح . ‌داروسازي‌زهراوي‌,1542,8452792,54524450010,6470,6550,6340,-130.00,-2.01,6450,-20.00,-0.31,6150,6780
غبهنوش,بهنوش‌ ايران‌,1540,1697439,1.29145E+11,72950,74990,76590,"3,640.00",4.99,76080,"3,130.00",4.29,72000,76590
نطرين,عطرين نخ قم,1539,9362222,1.06774E+11,11617,11700,11670,53.00,0.46,11405,-212.00,-1.82,11037,11990
خشرق,الكتريك‌ خودرو شرق‌,1536,7704903,1.21075E+11,15400,14780,16170,770.00,5.00,15710,310.00,2.01,14780,16170
پكوير,كوير تاير,1510,5167082,72269655120,14030,13750,14190,160.00,1.14,13990,-40.00,-0.29,13540,14300
خمهر,مهركام‌پارس‌,1509,28438109,69479497090,2480,2390,2480,0,0,2440,-40.00,-1.61,2370,2540
خريخت,صنايع‌ريخته‌گري‌ايران‌,1503,22597171,83317059380,3570,3590,3740,170.00,4.76,3690,120.00,3.36,3500,3740
غديس,پاكديس,1500,7580765,96825773640,12567,12450,13050,483.00,3.84,12773,206.00,1.64,11950,13160
زپارس,ملي كشت و صنعت و دامپروري پارس,1472,1201670,2.02591E+11,163900,167800,169700,"5,800.00",3.54,168590,"4,690.00",2.86,157610,172090
سيمرغ,سيمرغ,1472,4980378,78929793580,16020,16000,16020,0,0,15850,-170.00,-1.06,15500,16200
كسعديح,ح . كاشي‌ سعدي‌,1468,6242456,87111693080,14020,14000,13880,-140.00,-1.00,13950,-70.00,-0.50,13400,14560
قرن,پديده شيمي قرن,1467,1333003,84170068340,60820,60300,63860,"3,040.00",5.00,63140,"2,320.00",3.81,60300,63860
سشرق,سيمان‌ شرق‌,1455,11210361,79994826250,7100,7000,7240,140.00,1.97,7140,40.00,0.56,6770,7310
كتوكاح,ح.توليدي وخدمات صنايع نسوزتوكا,1451,2586478,69511192319,26436,27591,26530,94.00,0.36,26875,439.00,1.66,26400,27591
فروس,فروسيليس‌ ايران‌,1449,13644730,67851651560,4970,4850,4900,-70.00,-1.41,4970,0,0,4820,5100
وساخت,سرمايه‌ گذاري‌ ساختمان‌ايران‌,1446,2059973,99248573960,48120,48000,48250,130.00,0.27,48180,60.00,0.12,46050,49200
غگلپا,شير پاستوريزه پگاه گلپايگان,1439,1825386,1.24005E+11,65773,66000,69061,"3,288.00",5.00,67933,"2,160.00",3.28,65220,69061
پاكشو,گروه صنعتي پاكشو,1421,1119425,89988676940,80070,81500,80320,250.00,0.31,80360,290.00,0.36,80010,81500
شغدير,پتروشيمي غدير,1416,1826805,1.07866E+11,58108,57770,59319,"1,211.00",2.08,59046,938.00,1.61,55860,61000
تسه9910,امتياز تسهيلات مسكن دي99,1408,35020,21639647317,608853,620000,639295,"30,442.00",5.00,617923,"9,070.00",1.49,590010,639295
ثاصفا,شركت‌ ساختمان‌ اصفهان‌,1407,6889784,1.91684E+11,27048,27850,27859,811.00,3.00,27822,774.00,2.86,26237,27859
ولانا,شركت ليزينگ آريا دانا,1398,3011725,1.01075E+11,33254,32300,34251,997.00,3.00,33560,306.00,0.92,32272,34251
خوساز,محورسازان‌ايران‌خودرو,1392,7151040,58535114070,8270,8050,8150,-120.00,-1.45,8190,-80.00,-0.97,8000,8540
بنيرو,نيروترانس‌,1391,3348504,53276815480,16440,16440,15620,-820.00,-4.99,15910,-530.00,-3.22,15620,16770
طلا,صندوق س.پشتوانه طلاي لوتوس,1389,898672,76563474103,81691,83750,85000,"3,309.00",4.05,85196,"3,505.00",4.29,83750,86212
سپاها,سيمان‌سپاهان‌,1385,10862028,98555244900,8730,8850,9140,410.00,4.70,9070,340.00,3.89,8500,9160
وسينا,بانك سينا,1362,25816394,91508698710,3470,3380,3580,110.00,3.17,3540,70.00,2.02,3380,3630
هرمز,فولاد هرمزگان جنوب,1361,12771320,1.6702E+11,12505,12693,13130,625.00,5.00,13078,573.00,4.58,12693,13130
مداران,داده‌پردازي‌ايران‌,1359,4933946,1.17424E+11,23240,22710,24400,"1,160.00",4.99,23800,560.00,2.41,22450,24400
حبندر,دريايي و کشتيراني خط دريابندر,1354,3436158,1.11231E+11,33146,32610,33000,-146.00,-0.44,32371,-775.00,-2.34,32152,34140
خصدرا,صنعتي‌ دريايي‌ ايران‌,1351,19120973,69428252963,3743,3631,3631,-112.00,-2.99,3631,-112.00,-2.99,3631,3631
كيان,صندوق س. با درآمد ثابت كيان,1346,32342418,8.77098E+11,27098,27118,27125,27.00,0.10,27119,21.00,0.08,27114,27125
كفرآور,فرآورده هاي سيمان شرق,1331,4882900,1.23767E+11,24914,25360,25520,606.00,2.43,25347,433.00,1.74,24300,25661
شپديس,پتروشيمي پرديس,1326,1224729,1.15519E+11,94410,94390,93580,-830.00,-0.88,94320,-90.00,-0.10,92050,96550
شكلر,نيروكلر,1324,3254712,1.72105E+11,52020,52100,54600,"2,580.00",4.96,52880,860.00,1.65,49730,54620
حپارسا,توسعه حمل و نقل ريلي پارسيان,1316,2487807,93974689764,36994,38400,37470,476.00,1.29,37774,780.00,2.11,36110,38800
حفاري,حفاري شمال,1308,11940445,1.34281E+11,10790,11110,11320,530.00,4.91,11250,460.00,4.26,10910,11320
ركيش,كارت اعتباري ايران كيش,1303,3554267,85716785060,23870,24100,24930,"1,060.00",4.44,24120,250.00,1.05,22680,25000
فيروزه,صندوق شاخص30 شركت فيروزه- سهام,1301,965708,1.382E+11,141130,138970,143980,"2,850.00",2.02,143110,"1,980.00",1.40,137190,146390
وصندوق,سرمايه‌گذاري‌صندوق‌بازنشستگي‌,1277,7717378,1.06216E+11,13240,12850,13900,660.00,4.98,13690,450.00,3.40,12850,13900
پارسان,گسترش نفت و گاز پارسيان,1268,17826576,3.42409E+11,18320,18350,19230,910.00,4.97,19210,890.00,4.86,17800,19230
وبيمه,سرمايه‌ گذاري‌ صنعت‌ بيمه‌,1264,22824717,66520852600,2830,2830,2970,140.00,4.95,2910,80.00,2.83,2830,2970
داروح,ح . كارخانجات‌داروپخش,1262,4503839,1.20305E+11,24890,26860,27380,"2,490.00",10.00,26710,"1,820.00",7.31,24150,27380
وبوعلي,سرمايه‌گذاري‌بوعلي‌,1262,13466061,78537896310,5600,5700,5880,280.00,5.00,5830,230.00,4.11,5510,5880
ولشرق,ليزينگ ايران و شرق,1259,6785513,49689057547,7509,7365,7365,-144.00,-1.92,7323,-186.00,-2.48,7170,7450
ثاباد,توريستي ورفاهي آبادگران ايران,1256,2316606,1.24831E+11,51570,52750,54140,"2,570.00",4.98,53890,"2,320.00",4.50,51850,54140
شصدف,صنعتي دوده فام,1255,26475,767483775,27609,28989,28989,"1,380.00",5.00,27629,20.00,0.07,28989,28989
فمراد,آلومراد,1253,871100,1.31052E+11,158180,151700,150280,"-7,900.00",-4.99,150440,"-7,740.00",-4.89,150280,151780
ثغرب,شركت سرمايه گذاري مسكن شمالغرب,1252,11343447,78307746289,6701,6710,7036,335.00,5.00,6903,202.00,3.01,6422,7036
رنيك,جنرال مكانيك,1251,2479496,51442363382,20846,20950,21050,204.00,0.98,20747,-99.00,-0.47,20340,21304
بورس,بورس اوراق بهادار تهران,1241,1818871,75430119530,41050,41060,42390,"1,340.00",3.26,41470,420.00,1.02,40200,42510
غدشت,دشت‌ مرغاب‌,1239,298437,92674510190,318210,303100,308380,"-9,830.00",-3.09,310530,"-7,680.00",-2.41,303000,333100
اپرداز,آتيه داده پرداز,1234,3273579,71581446426,22212,21390,21716,-496.00,-2.23,21866,-346.00,-1.56,21220,22600
رمپنا,گروه مپنا (سهامي عام),1233,4572186,77222096700,17000,16970,17070,70.00,0.41,16930,-70.00,-0.41,16360,17360
زاگرس,پتروشيمي زاگرس,1229,476562,92337800501,188334,189980,193700,"5,366.00",2.85,192966,"4,632.00",2.46,185601,196290
سكرد,سيمان كردستان,1220,7708406,76141479720,9600,9600,10080,480.00,5.00,9880,280.00,2.92,9210,10080
كهمدا,شيشه‌ همدان‌,1219,5487435,57630744100,10130,10340,10630,500.00,4.94,10500,370.00,3.65,9990,10630
رانفور,خدمات‌انفورماتيك‌,1210,3920589,1.03752E+11,26370,26990,26480,110.00,0.42,26460,90.00,0.34,25480,26990
وآوا,سرمايه گذاري آوا نوين,1206,6154016,50188058175,7793,8000,8182,389.00,4.99,8128,335.00,4.30,8000,8182
ولملت,واسپاري ملت,1195,5790811,49293789750,8760,8430,8540,-220.00,-2.51,8510,-250.00,-2.85,8350,8760
شتولي,تولي‌پرس‌,1195,1379665,55001546468,39232,40016,40016,784.00,2.00,39866,634.00,1.62,38448,40016
كپشير,پشم‌شيشه‌ايران‌,1182,2967300,1.05999E+11,34080,35780,35780,"1,700.00",4.99,35720,"1,640.00",4.81,34880,35780
ساربيل,سيمان آرتا اردبيل,1180,2605184,1.35744E+11,49660,52140,52140,"2,480.00",4.99,52110,"2,450.00",4.93,50640,52140
لخزر,پارس‌ خزر,1164,482922,81184863530,175110,171010,170000,"-5,110.00",-2.92,168110,"-7,000.00",-4.00,166360,174980
كاريس,صندوق س.سپهر كاريزما-س,1153,7104794,78744567066,10948,11033,11122,174.00,1.59,11083,135.00,1.23,10645,11249
تپمپي,پمپ‌ سازي‌ ايران‌,1151,3148994,60850362890,18770,18500,19700,930.00,4.95,19320,550.00,2.93,18010,19700
وخاور,بانك خاورميانه,1143,9443037,91849872190,9970,9650,9800,-170.00,-1.71,9730,-240.00,-2.41,9560,10290
واتي,سرمايه‌ گذاري‌ آتيه‌ دماوند,1135,7489748,90028065030,11900,11610,12050,150.00,1.26,12020,120.00,1.01,11440,12400
افق,فروشگاههاي زنجيره اي افق كوروش,1135,1778673,1.43845E+11,80770,78910,81000,230.00,0.28,80870,100.00,0.12,78910,82000
افرا,افرانت,1132,2220467,69831110463,30715,30700,32250,"1,535.00",5.00,31449,734.00,2.39,29200,32250
وبانك,سرمايه گذاري گروه توسعه ملي,1131,4141441,34078312410,8120,8350,8270,150.00,1.85,8160,40.00,0.49,8110,8370
كشرق,صنعتي و معدني شمال شرق شاهرود,1131,1181477,1.18727E+11,96853,94001,100000,"3,147.00",3.25,100490,"3,637.00",3.76,92012,101695
داوه,داروسازي آوه سينا,1131,3845970,72360917336,18417,17497,19337,920.00,5.00,18815,398.00,2.16,17497,19337
وبهمن,سرمايه‌گذاري‌بهمن‌,1129,3863969,63030399600,16030,15400,16830,800.00,4.99,16310,280.00,1.75,15260,16830
سامان,بانك سامان,1125,12755944,1.1786E+11,9175,8920,9450,275.00,3.00,9240,65.00,0.71,8911,9450
شگل,گلتاش‌,1124,2563950,62583021730,25020,24500,24790,-230.00,-0.92,24410,-610.00,-2.44,23770,25070
ريشمك,توليد و صادرات ريشمك,1122,1588795,89182296361,57010,57799,56200,-810.00,-1.42,56132,-878.00,-1.54,55100,57799
خلنت,لنت‌ ترمزايران‌,1114,470334,45096969700,95160,90860,97530,"2,370.00",2.49,95860,700.00,0.74,90500,99480
تايرا,تراكتورسازي‌ايران‌,1114,3779446,1.02105E+11,26780,27120,27120,340.00,1.27,27020,240.00,0.90,25840,28090
فسرب,ملي‌ سرب‌وروي‌ ايران‌,1105,926705,75295316630,77980,80000,81870,"3,890.00",4.99,81250,"3,270.00",4.19,77400,81870
سكرما,سيمان‌ كرمان‌,1097,4262747,79545511290,17900,18400,18790,890.00,4.97,18660,760.00,4.25,18000,18790
ضسپا1102,اختيارخ خساپا-2000-1399/11/26,1088,51785,14618480000,211,210,297,86.00,40.76,282,71.00,33.65,210,298
فباهنر,مس‌ شهيدباهنر,1088,1300865,67245593590,50390,51040,52440,"2,050.00",4.07,51690,"1,300.00",2.58,50430,52500
ختراك,ريخته‌گري‌ تراكتورسازي‌ ايران‌,1086,8559915,1.32781E+11,14790,15520,15520,730.00,4.94,15510,720.00,4.87,15020,15520
ونفت,سرمايه‌گذاري‌ صنعت‌ نفت‌,1078,4128040,66560906710,15880,16190,16060,180.00,1.13,16120,240.00,1.51,15720,16490
وثنو,سرمايه گذاري ساختماني نوين,1073,2752676,47762013586,17495,17550,17190,-305.00,-1.74,17351,-144.00,-0.82,16850,17899
سباقر,سيمان باقران,1065,12825514,2.31223E+11,17171,18029,18029,858.00,5.00,18028,857.00,4.99,17686,18029
چفيبر,فيبر ايران‌,1065,8909108,1.18649E+11,13900,13210,13210,-690.00,-4.96,13320,-580.00,-4.17,13210,13900
تپولا,مهندسي مرآت پولاد,1058,2006424,76272803356,37217,37000,38100,883.00,2.37,38014,797.00,2.14,36260,38333
اميد,تامين سرمايه اميد,1058,6988748,53984109320,7920,7540,7700,-220.00,-2.78,7720,-200.00,-2.53,7540,7890
سفانو,سيمان فارس نو,1056,2675360,1.03539E+11,37140,37000,38990,"1,850.00",4.98,38700,"1,560.00",4.20,36850,38990
فلوله,لوله‌وماشين‌سازي‌ايران‌,1040,2903641,65808781200,22390,23360,22480,90.00,0.40,22660,270.00,1.21,22010,23400
همراه,شركت ارتباطات سيار ايران,1029,2228824,58589698330,26270,26010,26680,410.00,1.56,26280,10.00,0.04,25930,26970
فايرا,آلومينيوم‌ايران‌,1019,5699834,1.47709E+11,24810,24800,26050,"1,240.00",5.00,25910,"1,100.00",4.43,24500,26050
قنقش,قند نقش جهان,1016,973628,77210447013,80573,82184,78962,"-1,611.00",-2.00,79302,"-1,271.00",-1.58,78962,82184
وپخش,داروپخش‌ (هلدينگ‌,1012,513807,55322261030,111690,106150,108390,"-3,300.00",-2.95,107670,"-4,020.00",-3.60,106110,113390
دفارا,داروسازي‌ فارابي‌,1003,1513224,95765739430,61100,60190,64150,"3,050.00",4.99,63290,"2,190.00",3.58,60190,64150
كمنگنز,معادن‌منگنزايران‌,993,952239,89973699770,92820,93300,96220,"3,400.00",3.66,94490,"1,670.00",1.80,90510,96990
شفن,پتروشيمي فناوران,992,213913,61785779730,289320,285000,290310,990.00,0.34,289030,-290.00,-0.10,283210,292000
تسه9908,امتياز تسهيلات مسكن آبان99,992,27251,16766217044,605675,620000,635000,"29,325.00",4.84,615251,"9,576.00",1.58,590109,635958
دسانكو,داروسازي سبحان انكولوژي,991,2717136,41777587395,15155,15200,15318,163.00,1.08,15347,192.00,1.27,14991,15800
بهپاك,صنعتي بهپاك,972,1652681,80160881699,46395,48600,48714,"2,319.00",5.00,48504,"2,109.00",4.55,46400,48714
فخاسح,ح . فولاد خراسان,970,10118725,2.28135E+11,24000,23000,23000,"-1,000.00",-4.17,22550,"-1,450.00",-6.04,22500,23500
خديزل,بهمن  ديزل,958,1342838,58903720803,43152,44500,44829,"1,677.00",3.89,43865,713.00,1.65,43000,45200
وصنا,گروه‌صنايع‌بهشهرايران‌,957,6062434,36855260870,6050,6060,6170,120.00,1.98,6070,20.00,0.33,5990,6250
غشهداب,كشت و صنعت شهداب ناب خراسان,923,15135200,60086744000,3781,3970,3970,189.00,5.00,3970,189.00,5.00,3970,3970
وآرين,شركت توسعه اقتصادي آرين,908,9246249,37976692534,4225,4220,4099,-126.00,-2.98,4107,-118.00,-2.79,4099,4220
سخوز,سيمان خوزستان,904,3155604,70355559400,22160,22400,22200,40.00,0.18,22300,140.00,0.63,21980,22800
فپنتا,سپنتا,895,132817,50224110490,390220,385000,383000,"-7,220.00",-1.85,378150,"-12,070.00",-3.09,372600,390000
سمازن,سيمان‌مازندران‌,888,5383625,56860557670,10400,10600,10640,240.00,2.31,10560,160.00,1.54,10210,10840
ميدكو,هلدينگ صنايع  معدني خاورميانه,886,7916609,2.47038E+11,30983,30984,31250,267.00,0.86,31205,222.00,0.72,30983,31290
دامين,داروسازي‌ امين‌,883,2794127,39930639890,14910,14310,14380,-530.00,-3.55,14380,-530.00,-3.55,14170,14790
وتوس,توسعه‌شهري‌توس‌گستر,876,3957145,65625585830,17450,16580,16580,-870.00,-4.99,16580,-870.00,-4.99,16580,16720
تسه9909,امتياز تسهيلات مسكن آذر99,876,20067,12385261579,606044,636345,636346,"30,302.00",5.00,617195,"11,151.00",1.84,582222,636346
چكارن,كارتن‌ ايران‌,873,31550714,1.05175E+11,3190,3300,3340,150.00,4.70,3330,140.00,4.39,3300,3340
غفارس,شير پاستوريزه پگاه فارس,867,15336236,2.07897E+11,12911,13556,13556,645.00,5.00,13556,645.00,5.00,13498,13556
فسازان,غلتك سازان سپاهان,864,2489607,89104350110,35480,35500,36350,870.00,2.45,35790,310.00,0.87,35000,36770
قچار,فراوردههاي غذايي وقند چهارمحال,864,1217058,1.10351E+11,94686,91030,89952,"-4,734.00",-5.00,90671,"-4,015.00",-4.24,89952,95900
خمحور,توليدمحورخودرو,860,1232515,73658285420,57330,58400,60190,"2,860.00",4.99,59760,"2,430.00",4.24,57300,60190
آپ,آسان پرداخت پرشين,855,2450136,41875847930,16660,17470,17140,480.00,2.88,17010,350.00,2.10,16810,17480
كطبس,ذغال‌سنگ‌ نگين‌ ط‌بس‌,852,1400365,1.0462E+11,73710,72000,74530,820.00,1.11,74710,"1,000.00",1.36,70500,76310
شپاكسا,پاكسان‌,851,2358212,70435787450,29710,29750,30400,690.00,2.32,29870,160.00,0.54,28770,30990
شاراك,پتروشيمي شازند,839,3644745,90138012890,24510,24500,24600,90.00,0.37,24730,220.00,0.90,24420,25000
فسپا,گروه‌صنعتي‌سپاهان‌,829,1723556,68844264110,39200,40000,41130,"1,930.00",4.92,39940,740.00,1.89,39000,41130
فنوال,نورد آلومينيوم‌,825,3301595,91218775650,26460,25800,27780,"1,320.00",4.99,27630,"1,170.00",4.42,25800,27780
شخارك,پتروشيمي‌ خارك‌,824,1720499,74772959810,42390,42000,43500,"1,110.00",2.62,43180,790.00,1.86,41520,44500
حسينا,توسعه خدمات دريايي وبندري سينا,821,971164,69632219816,72637,71590,72000,-637.00,-0.88,71700,-937.00,-1.29,70240,73400
هجرت,پخش هجرت,817,904258,23109335919,26487,26399,25701,-786.00,-2.97,26021,-466.00,-1.76,25200,26399
تبرك,گروه كارخانجات صنعتي تبرك,813,3242669,51301272355,15165,15800,15923,758.00,5.00,15821,656.00,4.33,15300,15923
وكار,بانك‌ كارآفرين‌,805,18433668,47045677570,2590,2640,2560,-30.00,-1.16,2550,-40.00,-1.54,2490,2640
غپاك,لبنيات‌ پاك‌,798,4742501,72793566910,15280,15310,15740,460.00,3.01,15350,70.00,0.46,14610,15940
ولتجار,واسپاري تجارت وسرمايه ايرانيان,787,10641994,79874533735,7724,7955,7530,-194.00,-2.51,7506,-218.00,-2.82,7493,7955
كحافظ,كاشي‌ وسراميك‌ حافظ‌,787,4647644,63856011790,13190,13380,13840,650.00,4.93,13740,550.00,4.17,13000,13840
سرود,سيمان‌شاهرود,787,5710295,1.1102E+11,18650,18650,19580,930.00,4.99,19440,790.00,4.24,17810,19580
واميد,گروه مديريت سرمايه گذاري اميد,786,1779267,66814135100,37470,36750,37470,0,0,37520,50.00,0.13,36750,38190
كمينا,شيشه سازي مينا,785,1967003,54782662569,26886,26013,28001,"1,115.00",4.15,27851,965.00,3.59,26013,28230
وثخوز,سرمايه گذاري و توسعه خوزستان,784,1151181,99706814382,82490,86614,86614,"4,124.00",5.00,86613,"4,123.00",5.00,86000,86614
لبوتان,گروه‌صنعتي‌بوتان‌,783,522077,32125608560,61520,60010,62320,800.00,1.30,61530,10.00,0.02,60010,63470
سصفها,سيمان‌اصفهان‌,781,248667,86882504870,367610,350020,349230,"-18,380.00",-5.00,349390,"-18,220.00",-4.96,349230,360000
وگستر,گسترش سرمايه گذاري ايرانيان,779,1628612,31727767101,19821,20100,19570,-251.00,-1.27,19601,-220.00,-1.11,19030,20100
شرانل,نفت ايرانول,776,1906617,73072184059,37261,37050,38710,"1,449.00",3.89,38326,"1,065.00",2.86,36120,38988
اطلس,صندوق س.توسعه اندوخته آينده-س,773,217143,43804957273,200721,200000,201056,335.00,0.17,201733,"1,012.00",0.50,197500,203950
شجم,صنايع پتروشيمي تخت جمشيد,769,8798393,91970660264,10767,10444,10444,-323.00,-3.00,10453,-314.00,-2.92,10444,10583
بالاس,مهندسي ساختمان تاسيسات راه آهن,768,1205810,71503613550,56519,59344,59344,"2,825.00",5.00,59299,"2,780.00",4.92,57501,59344
تنوين,تامين سرمايه نوين,760,13788201,86748644660,6270,6310,6370,100.00,1.59,6290,20.00,0.32,6250,6390
دارو,كارخانجات‌داروپخش‌,758,1261894,42735270230,33160,31660,34010,850.00,2.56,33780,620.00,1.87,31660,34760
پرديس,سرمايه گذاري پرديس,749,4286672,28447705550,6500,6530,6710,210.00,3.23,6580,80.00,1.23,6400,6730
شوينده,مديريت صنعت شوينده ت.ص.بهشهر,745,1591312,50947391770,32400,31340,32500,100.00,0.31,32020,-380.00,-1.17,31340,32880
غاذر,كشت‌وصنعت‌پياذر,745,992804,52928295760,56050,53260,54400,"-1,650.00",-2.94,53310,"-2,740.00",-4.89,53250,54900
بسويچ,پارس‌سويچ‌,743,937039,44285020270,49650,48000,47170,"-2,480.00",-4.99,47410,"-2,240.00",-4.51,47170,48110
دشيمي,شيمي‌ داروئي‌ داروپخش‌,738,1927038,59283317190,29310,30770,30770,"1,460.00",4.98,30760,"1,450.00",4.95,30000,30770
شفارا,پتروشيمي فارابي,736,7585641,32079697314,4353,4260,4223,-130.00,-2.99,4229,-124.00,-2.85,4223,4344
وبشهر,توسعه‌ صنايع‌ بهشهر(هلدينگ,733,2949255,34136000700,11330,11340,11610,280.00,2.47,11500,170.00,1.50,11020,11890
دتوزيعح,ح . توزيع دارو پخش,727,3575741,1.12296E+11,33057,31405,31405,"-1,652.00",-5.00,31405,"-1,652.00",-5.00,31405,31405
سرچشمه,سرمايه گذاري مس سرچشمه,723,4566549,31565459657,6799,6880,6959,160.00,2.35,6868,69.00,1.01,6701,7013
وپترو,سرمايه‌گذاري صنايع پتروشيمي‌,722,4201015,64286267290,14790,14850,15520,730.00,4.94,15300,510.00,3.45,14700,15520
پسهند,صنايع‌ لاستيكي‌  سهند,721,1232568,53374775270,41440,43290,43490,"2,050.00",4.95,43240,"1,800.00",4.34,42000,43510
رتاپ,تجارت الكترونيك  پارسيان,719,2662313,16149234950,6060,6100,6120,60.00,0.99,6060,0,0,5960,6150
عيار,صندوق س. پشتوانه طلاي مفيد,712,712068,21132260615,28570,29330,29400,830.00,2.91,29677,"1,107.00",3.87,29330,29901
واعتبار,سرمايه گذاري اعتبار ايران,705,5048518,41382168340,8300,8010,8320,20.00,0.24,8210,-90.00,-1.08,8010,8400
پارسيان,بيمه پارسيان,701,2601205,26723963600,10530,10540,10120,-410.00,-3.89,10390,-140.00,-1.33,10020,10540
وليز,ليزينگ‌ايران‌,701,5183410,37276902840,7100,7180,7250,150.00,2.11,7170,70.00,0.99,6900,7350
پارند,صندوق س. پارند پايدار سپهر,699,21887787,2.45506E+11,11206,11217,11217,11.00,0.10,11217,11.00,0.10,11215,11235
وتوسم,سرمايه‌گذاري‌توسعه‌ملي‌,693,2531507,30558043860,11750,11920,12170,420.00,3.57,11940,190.00,1.62,11330,12210
شكف,كف,689,506347,45207700055,86688,88288,90155,"3,467.00",4.00,89282,"2,594.00",2.99,83500,90155
وارس,سرمايه گذاري ارس صبا,689,2690670,43330739862,16601,16103,16103,-498.00,-3.00,16104,-497.00,-2.99,16103,16405
كگاز,شيشه‌ و گاز,680,1694146,29749736000,17490,17110,17670,180.00,1.03,17530,40.00,0.23,17110,17800
شبهرن,نفت‌ بهران‌,678,767185,45525846860,58940,58940,59500,560.00,0.95,59240,300.00,0.51,58000,60500
اتكام,شركت بيمه اتكايي امين,677,6503583,34995370590,5233,5233,5494,261.00,4.99,5332,99.00,1.89,5191,5494
ما,بيمه  ما,677,6630747,55281082390,8420,8450,8300,-120.00,-1.43,8340,-80.00,-0.95,8100,8500
كفرا,فراورده‌ هاي‌ نسوزايران‌,661,475488,21158179600,46530,46460,45030,"-1,500.00",-3.22,45610,-920.00,-1.98,44210,46460
كپرور,فرآوري زغال سنگ پروده طبس,659,1115859,44505431616,40148,39300,40100,-48.00,-0.12,39910,-238.00,-0.59,38150,41700
بميلا,توسعه بازرگاني آهن وفولادميلاد,659,4589373,97413665097,20259,20889,21271,"1,012.00",5.00,21226,967.00,4.77,20260,21271
غشصفا,شيرپاستوريزه‌پگاه‌اصفهان‌,654,1631547,47826218560,28380,29590,29790,"1,410.00",4.97,29240,860.00,3.03,27580,29790
دتماد,توليدمواداوليه‌داروپخش‌,650,864195,39149817330,46590,47750,45600,-990.00,-2.12,45470,"-1,120.00",-2.40,44280,47750
ثقزوي,شركت عمران و سازندگي قزوين,648,1981841,64395959613,31547,32493,32493,946.00,3.00,32493,946.00,3.00,32493,32493
سهرمز,سيمان‌هرمزگان‌,646,1303971,33265636000,25180,25000,25800,620.00,2.46,25420,240.00,0.95,24110,26000
قپيرا,فرآورده‌هاي‌غدايي‌وقندپيرانشهر,644,762057,80991417960,101220,106280,106280,"5,060.00",5.00,106280,"5,060.00",5.00,106280,106280
پخش,پخش البرز,643,1347473,47486864755,34417,36092,36137,"1,720.00",5.00,35160,743.00,2.16,34417,36137
كگهر,سنگ آهن گهرزمين,642,563742,26134438364,46811,45900,46000,-811.00,-1.73,46711,-100.00,-0.21,44973,47580
پارس,پتروشيمي پارس,641,623377,80967614100,130170,132910,130000,-170.00,-0.13,129950,-220.00,-0.17,128000,132910
غبشهر,صنعتي‌ بهشهر,634,1884233,37628934020,19970,19970,20270,300.00,1.50,19970,0,0,19210,20500
غشان,شيرپاستوريزه‌پگاه‌خراسان‌,633,7549111,47518048310,6000,6300,6300,300.00,5.00,6250,250.00,4.17,6150,6300
سخزر,سيمان‌ خزر,628,2003345,63766471350,30320,31830,31830,"1,510.00",4.98,31830,"1,510.00",4.98,31830,31830
آتيمس,صندوق س.آرمان آتيه درخشان مس-س,627,394035,69764589073,174679,172900,177580,"2,901.00",1.66,177052,"2,373.00",1.36,172000,178500
ياقوت,صندوق س ياقوت آگاه-ثابت,613,18864657,2.23628E+11,11850,11856,11858,8.00,0.07,11854,4.00,0.03,11854,11867
ضخود2007,اختيارخ خودرو-3000-1400/02/08,612,23219,6258169000,244,259,280,36.00,14.75,270,26.00,10.66,245,297
فولاژ,فولاد آلياژي ايران,611,2275727,36044419290,15410,15450,16080,670.00,4.35,15650,240.00,1.56,15020,16100
قهكمت,قندهكمتان‌,607,522831,23124746650,42920,43880,44710,"1,790.00",4.17,43540,620.00,1.44,42920,44740
دلرح,ح . داروسازي‌ اكسير,604,1120326,32215819630,27740,28920,28960,"1,220.00",4.40,28760,"1,020.00",3.68,26620,29900
سمتاز,سيمان ممتازان كرمان,602,2685471,52589872500,19435,19950,19310,-125.00,-0.64,19583,148.00,0.76,19020,20018
آ س پ,آ.س.پ,598,6746229,1.15367E+11,16287,17101,17101,814.00,5.00,17101,814.00,5.00,17101,17101
قزوين,كارخانجات‌ قند قزوين‌,594,1449678,55654947500,36850,37970,38690,"1,840.00",4.99,38390,"1,540.00",4.18,36910,38690
درهآور,دارويي ره آورد تامين,594,1605885,82743224625,49072,51525,51525,"2,453.00",5.00,51525,"2,453.00",5.00,51525,51525
ثمسكن,سرمايه‌گذاري‌ مسكن‌,590,7355060,36729863760,4790,4750,5020,230.00,4.80,4940,150.00,3.13,4750,5020
وتوشه,سرمايه‌ گذاري‌ پارس‌ توشه‌,585,1529505,36030346180,22780,22780,23910,"1,130.00",4.96,23310,530.00,2.33,22350,23910
وسرمد,بيمه  سرمد,583,6499299,39129296147,6061,5909,6242,181.00,2.99,6021,-40.00,-0.66,5880,6242
دلر,داروسازي‌ اكسير,578,1073335,37902800360,34650,34360,34880,230.00,0.66,35160,510.00,1.47,33800,36380
خموتور,موتورسازان‌تراكتورسازي‌ايران‌,577,3564526,54858055140,16190,15390,15390,-800.00,-4.94,15390,-800.00,-4.94,15390,15390
تيپيكو,سرمايه گذاري دارويي تامين,569,897178,39617304620,44540,45360,44160,-380.00,-0.85,44340,-200.00,-0.45,43410,45360
كي بي سي,شركت كي بي سي,565,1951059,55530958092,27298,27880,28662,"1,364.00",5.00,28462,"1,164.00",4.26,26521,28662
شساخت,مهندسي و ساختمان صنايع نفت,556,1038193,40432602400,39982,40000,39990,8.00,0.02,38945,"-1,037.00",-2.59,38783,40000
زر,صندوق س.پشتوانه سكه طلاي زر,555,835013,42934506437,49200,50010,51380,"2,180.00",4.43,51418,"2,218.00",4.51,50010,51600
فلات,گروه صنايع معادن فلات ايرانيان,555,3488190,44294351377,13038,12710,12880,-158.00,-1.21,12698,-340.00,-2.61,12647,13140
حريل,ريل پردازسير,551,10402099,54579813453,4998,5247,5247,249.00,4.98,5246,248.00,4.96,5247,5247
وسپه,سرمايه‌گذاري‌ سپه‌,547,8549547,61608412730,6910,7090,7250,340.00,4.92,7210,300.00,4.34,6790,7250
آساس,صندوق س.آسمان آرماني سهام-س,547,187135,30898718977,164067,164070,165998,"1,931.00",1.18,165115,"1,048.00",0.64,162020,167113
كاوه,فولاد كاوه جنوب كيش,545,13556650,2.42257E+11,17020,17870,17870,850.00,4.99,17870,850.00,4.99,17870,17870
كنور,توسعه معدني و صنعتي صبانور,533,611123,27975019750,44870,44870,45500,630.00,1.40,45340,470.00,1.05,44870,46990
بشهاب,لامپ‌  پارس‌ شهاب‌,531,557610,69723430040,119090,125040,125040,"5,950.00",5.00,125040,"5,950.00",5.00,125000,125040
فوكا,فولاد كاويان,530,7255800,97118883000,12996,13385,13385,389.00,2.99,13385,389.00,2.99,13385,13385
بخاور,بيمه زندگي خاورميانه,530,4584142,31098357603,6834,6898,6870,36.00,0.53,6802,-32.00,-0.47,6670,6930
زكشت,كشاورزي مكانيزه اصفهان كشت,524,2957272,1.01967E+11,33339,31760,35005,"1,666.00",5.00,34480,"1,141.00",3.42,31760,35005
تماوند,تامين سرمايه دماوند,524,2540533,44473999286,17308,17970,17400,92.00,0.53,17506,198.00,1.14,17000,17990
شكبير,پتروشيمي اميركبير,521,1241581,1.1011E+11,87481,85500,89475,"1,994.00",2.28,88685,"1,204.00",1.38,85002,90000
بترانس,ايران‌ ترانسفو,520,14848678,42021758740,2700,2830,2830,130.00,4.81,2800,100.00,3.70,2830,2830
سپ,پرداخت الكترونيك سامان كيش,517,1272648,19304967190,15390,15010,15380,-10.00,-0.06,15300,-90.00,-0.58,14860,15490
خپويش,سازه‌ پويش‌,513,979206,52192942080,50780,53310,53310,"2,530.00",4.98,53200,"2,420.00",4.77,52730,53310
شبصير,توليدات پتروشيمي قائد بصير,505,234999,21185593322,90919,88003,90430,-489.00,-0.54,90580,-339.00,-0.37,88003,92324
ارفع,شركت آهن و فولاد ارفع,504,4178745,51284085678,11717,12150,12302,585.00,4.99,12201,484.00,4.13,11800,12302
بمپنا,توليد برق عسلويه  مپنا,499,335423,24028434710,74448,71002,71920,"-2,528.00",-3.40,73020,"-1,428.00",-1.92,70800,73496
ضسپا1103,اختيارخ خساپا-2500-1399/11/26,499,26356,447326000,14,14,21,7.00,50.00,17,3.00,21.43,12,23
پارتا,مجتمع‌صنعتي‌آرتاويل‌تاير,489,904376,53793266989,61125,59292,59292,"-1,833.00",-3.00,59481,"-1,644.00",-2.69,59292,61127
ضخود2006,اختيارخ خودرو-2500-1400/02/08,485,18502,9082315000,446,453,510,64.00,14.35,491,45.00,10.09,444,512
واحيا,م .صنايع و معادن احياء سپاهان,479,593052,85872705861,141095,141003,145327,"4,232.00",3.00,144798,"3,703.00",2.62,141003,145327
چخزر,صنايع چوب خزر كاسپين,479,604710,34802269920,60581,57552,57552,"-3,029.00",-5.00,58123,"-2,458.00",-4.06,57552,57552
سيدكو,سرمايه گذاري توسعه صنايع سيمان,478,2947699,17396828820,5850,5760,5990,140.00,2.39,5870,20.00,0.34,5620,6010
دالبر,البرزدارو,475,1584628,33565489740,21220,21220,21070,-150.00,-0.71,21190,-30.00,-0.14,20400,21910
بساما,بيمه سامان,471,1324808,29626945530,21592,22660,22671,"1,079.00",5.00,22037,445.00,2.06,21610,22671
گكيش,توريستي ورفاهي آبادگران كيش,471,604745,52165908445,88928,86261,86261,"-2,667.00",-3.00,86261,"-2,667.00",-3.00,86261,86261
فخاس,فولاد خراسان,463,691295,17857571060,25830,26000,26000,170.00,0.66,25830,0,0,25180,26350
وسنا,سرمايه گذاري نيروگاهي ايران,462,2130088,36406117278,16920,17500,17090,170.00,1.00,17091,171.00,1.01,16531,17600
اوان,مبين وان كيش,462,992112,49611555573,50498,48700,50555,57.00,0.11,50006,-492.00,-0.97,48700,51700
شپاس,نفت پاسارگاد,461,891428,19518328979,22115,22670,22115,0,0,22028,-87.00,-0.39,21510,22670
دسبحا,گروه دارويي سبحان,461,1630673,31673709130,19230,19730,19420,190.00,0.99,19350,120.00,0.62,19210,19860
شراز,پالايش نفت شيراز,459,277638,27794762987,99531,98200,99971,440.00,0.44,99847,316.00,0.32,98200,101680
ساروج,بين المللي ساروج بوشهر,452,2081838,42770884045,20074,20671,20676,602.00,3.00,20545,471.00,2.35,19474,20676
كرماشا,صنايع پتروشيمي كرمانشاه,450,851522,30990533330,36030,37100,36500,470.00,1.30,36250,220.00,0.61,35530,37680
ثجوان,تامين مسكن جوانان,447,3126463,39645840670,13037,12650,12647,-390.00,-2.99,12681,-356.00,-2.73,12646,13167
لسرما,سرما آفرين‌,447,2702687,70175005850,24830,25650,26070,"1,240.00",4.99,25960,"1,130.00",4.55,25110,26070
بفجر,فجر انرژي خليج فارس,445,920571,21653176470,23670,24260,23620,-50.00,-0.21,23620,-50.00,-0.21,23320,24260
شفا,سرمايه گذاري شفادارو,442,726919,32908849420,44790,44650,44760,-30.00,-0.07,45100,310.00,0.69,42660,46400
لوتوس,تامين سرمايه لوتوس پارسيان,439,1373512,13964064390,10090,10010,10200,110.00,1.09,10110,20.00,0.20,9990,10280
دپارس,پارس‌ دارو,435,381454,32347094440,84510,80430,83330,"-1,180.00",-1.40,84700,190.00,0.22,80420,88010
دابور,داروسازي‌ ابوريحان‌,422,396058,14810116950,37690,38400,38040,350.00,0.93,37600,-90.00,-0.24,36220,38400
پكرمان,گروه‌ صنعتي‌ بارز,416,886847,23391264260,26340,26140,26920,580.00,2.20,26360,20.00,0.08,25080,27000
وزمين,بانك ايران زمين,414,2440304,33967222292,13802,13999,14078,276.00,2.00,13919,117.00,0.85,13638,14078
فلامي,لاميران‌,411,622776,28193069520,47650,45270,45270,"-2,380.00",-4.99,46220,"-1,430.00",-3.00,45270,45270
وملت,سرمايه گذاري ملت,410,4443195,20580501853,4550,4641,4641,91.00,2.00,4632,82.00,1.80,4572,4641
دسبحان,سبحان دارو,408,951230,20502284920,21200,21800,22000,800.00,3.77,21340,140.00,0.66,21210,22000
دجابر,داروسازي‌ جابرابن‌حيان‌,406,476462,9980923480,21330,21380,21250,-80.00,-0.38,21250,-80.00,-0.38,20500,21500
سهگمت,سيمان‌هگمتان‌,405,673601,15695052220,23370,23450,23270,-100.00,-0.43,23350,-20.00,-0.09,22660,23880
دكيمي,كيميدارو,405,893572,23420908620,25550,26780,26600,"1,050.00",4.11,25860,310.00,1.21,25600,26800
پاسا,ايران‌ياساتايرورابر,402,2223554,59257714100,25390,26650,26650,"1,260.00",4.96,26650,"1,260.00",4.96,26650,26650
بنو,بيمه تجارت نو,399,2109371,75123138794,33919,35614,35614,"1,695.00",5.00,35614,"1,695.00",5.00,35614,35614
وساشرقي,شركت س استان آذربايجان شرقي,392,14636229,14106300490,970,930,990,20.00,2.06,970,0,0,930,1010
بموتو,موتوژن‌,383,787157,45928205120,55660,57860,58440,"2,780.00",4.99,58000,"2,340.00",4.20,56580,58440
جم پيلن,پلي پروپيلن جم - جم پيلن,382,785631,55526212560,68250,69000,71660,"3,410.00",5.00,70630,"2,380.00",3.49,68400,71660
سكه0012پ01,سكه تمام بهارتحويلي 1روزه رفاه,370,119400,1.39126E+11,1135973,1160010,1160000,"24,027.00",2.12,1165205,"29,232.00",2.57,1160000,1169800
زنگان,صنعت روي زنگان,363,290012,32492364456,117934,112038,112038,"-5,896.00",-5.00,113479,"-4,455.00",-3.78,112038,112038
وآفري,بيمه كارآفرين,362,1274084,26547553165,21054,21000,20800,-254.00,-1.21,20837,-217.00,-1.03,20500,21369
سيلام,سيمان‌ ايلام‌,356,3255585,37276448250,10910,11450,11450,540.00,4.95,11250,340.00,3.12,11450,11450
گوهر,صندوق سكه طلاي كيان,349,744546,43442373334,56125,57010,58300,"2,175.00",3.88,58347,"2,222.00",3.96,57010,59000
درازك,دارويي‌ رازك‌,346,605529,21954355070,36280,34720,36700,420.00,1.16,36270,-10.00,-0.03,34720,37770
ساينا,صنايع بهداشتي ساينا,346,78150,12393710199,163605,155450,159979,"-3,626.00",-2.22,162289,"-1,316.00",-0.80,155450,160490
تسه9801,امتياز تسهيلات مسكن فروردين98,341,4767,2915555914,606969,582500,625000,"18,031.00",2.97,611612,"4,643.00",0.76,582500,637317
كفپارس,فرآورده‌هاي‌ نسوز پارس‌,340,6120806,28339331780,4410,4630,4630,220.00,4.99,4520,110.00,2.49,4630,4630
آكورد,صندوق س. آرمان آتي كوثر-د,338,7333896,2.24832E+11,30642,30657,30656,14.00,0.05,30657,15.00,0.05,30655,30663
شپارس,بين‌ المللي‌ محصولات‌  پارس‌,337,880406,14335895170,16370,16680,16270,-100.00,-0.61,16340,-30.00,-0.18,15880,16680
گشان,توسعه بين المللي پديده شانديز,337,335841,13814483694,41973,41134,41134,-839.00,-2.00,41499,-474.00,-1.13,41134,41134
شاملا,معدني‌ املاح‌  ايران‌,334,287314,14608368760,53270,51480,51760,"-1,510.00",-2.83,52510,-760.00,-1.43,50610,52240
گدنا,تهيه توزيع غذاي دنا آفرين فدك,334,1153588,31867868500,29078,27625,27625,"-1,453.00",-5.00,28028,"-1,050.00",-3.61,27625,27625
ثرود,سرمايه‌گذاري مسكن زاينده رود,331,2927427,50623995111,16470,17293,17293,823.00,5.00,17168,698.00,4.24,17293,17293
مارون,پتروشيمي مارون,327,150764,22223300849,150117,146021,149600,-517.00,-0.34,149496,-621.00,-0.41,144082,150000
زعف0008پ10,زعفران0008نگين طلاي سرخ(پ),324,220525,27853673054,126153,123030,126468,315.00,0.25,126306,153.00,0.12,123030,126490
هجرتح,ح . پخش هجرت,313,963833,19209396975,20035,20000,20120,85.00,0.42,19930,-105.00,-0.52,19422,20120
معيار,سرمايه گذاري معيار صنعت پارس,312,1072596,47965260700,43458,44761,44761,"1,303.00",3.00,44719,"1,261.00",2.90,43504,44761
تسه9907,امتياز تسهيلات مسكن مهر99,307,6786,4241290024,619444,623000,640002,"20,558.00",3.32,625006,"5,562.00",0.90,588472,650000
غشهد,شهد ايران ‌,303,4924967,33769054210,6540,6860,6860,320.00,4.89,6740,200.00,3.06,6620,6860
غپونه,نوش پونه مشهد,300,1023737,21425791673,20320,20929,20929,609.00,3.00,20924,604.00,2.97,20929,20929
حتوكا,حمل‌ونقل‌توكا,295,1044820,32159559600,32390,30780,30780,"-1,610.00",-4.97,31270,"-1,120.00",-3.46,30780,30780
شنفت,نفت‌ پارس‌,295,426594,22689977140,52570,55100,52980,410.00,0.78,52830,260.00,0.49,52000,55100
خفولا,خدمات فني فولاد يزد,294,835715,68392408455,79454,81837,81837,"2,383.00",3.00,81837,"2,383.00",3.00,81837,81837
وتعاون,بيمه  تعاون,292,2842179,17937051481,6506,6311,6311,-195.00,-3.00,6319,-187.00,-2.87,6311,6330
قشهد,شهد,284,228319,7431676860,32940,33450,32430,-510.00,-1.55,32880,-60.00,-0.18,32150,33450
كاسپين,داروسازي كاسپين تامين,282,269535,6494403735,24774,23766,24170,-604.00,-2.44,24682,-92.00,-0.37,23766,24486
نيرو,نيرو سرمايه,277,384515,23838089358,60419,60000,62231,"1,812.00",3.00,61995,"1,576.00",2.61,60000,62231
فافزا,فولاد افزا سپاهان,276,439180,25132075500,55559,57225,57225,"1,666.00",3.00,57225,"1,666.00",3.00,57225,57225
قلرست,قند لرستان‌,275,923093,32132867330,33160,34810,34810,"1,650.00",4.98,34180,"1,020.00",3.08,34810,34810
شتوكا,توكا رنگ فولاد سپاهان,273,282667,14613883900,54421,51700,51700,"-2,721.00",-5.00,53529,-892.00,-1.64,51700,51700
خفناور,مهندسي صنعتي روان فن آور,272,761929,40642054789,50801,53341,53341,"2,540.00",5.00,53341,"2,540.00",5.00,53341,53341
سپاس,صندوق س. پاداش سهامداري توسعه1,266,9633049,96604185345,10018,10033,10040,22.00,0.22,10028,10.00,0.10,10001,10040
كخاك,صنايع‌خاك‌چيني‌ايران‌,262,263703,11670829860,44200,43200,45200,"1,000.00",2.26,44210,10.00,0.02,42620,45500
دسينا,داروسازي‌ سينا,262,447336,11583896690,26420,25550,26100,-320.00,-1.21,26290,-130.00,-0.49,25440,26410
افق ملت,صندوق س در سهام افق ملت,256,78056,9600344110,123020,122980,122800,-220.00,-0.18,122990,-30.00,-0.02,121000,124880
بپاس,بيمه پاسارگاد,256,409666,35678221606,91674,87091,87091,"-4,583.00",-5.00,89924,"-1,750.00",-1.91,87091,87091
شصفها,پتروشيمي‌ اصفهان‌,253,165322,19180409649,117106,116870,117734,628.00,0.54,116018,"-1,088.00",-0.93,114764,118900
خراسان,پتروشيمي خراسان,252,166865,11361367140,68300,67200,68180,-120.00,-0.18,68250,-50.00,-0.07,66540,70000
لكما,كارخانجات‌مخابراتي‌ايران‌,245,1685643,11003877504,6729,6528,6528,-201.00,-2.99,6605,-124.00,-1.84,6528,6528
غالبر,لبنيات‌ كالبر,245,1078040,18887260800,16690,17520,17520,830.00,4.97,16970,280.00,1.68,17520,17520
ثنور,سرمايه گذاري كوه نور,243,3479596,40057109152,11868,11512,11512,-356.00,-3.00,11512,-356.00,-3.00,11512,11512
بكاب,صنايع‌جوشكاب‌يزد,239,36160,12829568000,373470,354800,354800,"-18,670.00",-5.00,367850,"-5,620.00",-1.50,354800,354800
تسه9902,امتياز تسهيلات مسكن ارديبهشت99,237,3639,2240216473,612052,582300,621550,"9,498.00",1.55,615613,"3,561.00",0.58,582300,642654
كساوه,صنايع‌ كاشي‌ و سراميك‌ سينا,234,295650,19116729000,68060,64660,64660,"-3,400.00",-5.00,66610,"-1,450.00",-2.13,64660,64660
دلقما,دارويي‌ لقمان‌,231,1057146,25244646480,22750,23880,23880,"1,130.00",4.97,23290,540.00,2.37,23880,23880
تسه9802,امتياز تسهيلات مسكن ارديبهشت98,228,2965,1834300384,612570,582021,643000,"30,430.00",4.97,618651,"6,081.00",0.99,582021,643000
ضخود2005,اختيارخ خودرو-2000-1400/02/08,228,5667,4770846000,725,725,879,154.00,21.24,842,117.00,16.14,740,880
كتوكا,توليدي و خدمات صنايع نسوز توكا,223,968792,38137465872,37492,39366,39366,"1,874.00",5.00,38752,"1,260.00",3.36,39366,39366
قشرين,قند شيرين خراسان,223,905106,15628465302,17801,17267,17267,-534.00,-3.00,17374,-427.00,-2.40,17267,17267
تسه9810,امتياز تسهيلات مسكن دي98,221,4218,2598486224,613711,600000,611000,"-2,711.00",-0.44,616047,"2,336.00",0.38,585205,644396
ضسپا1101,اختيارخ خساپا-1800-1399/11/26,220,11994,5802620000,418,470,490,72.00,17.22,484,66.00,15.79,460,493
حپترو,حمل و نقل پتروشيمي( سهامي عام,219,587262,29462934540,47790,50170,50170,"2,380.00",4.98,49010,"1,220.00",2.55,50170,50170
ولغدر,ليزينگ‌خودروغدير,213,594966,11774377140,20830,19790,19790,"-1,040.00",-4.99,20540,-290.00,-1.39,19790,19790
سفار,سيمان‌فارس‌,204,327313,47296728500,137620,144500,144500,"6,880.00",5.00,143610,"5,990.00",4.35,144500,144500
تسه9712,امتياز تسهيلات مسكن اسفند97,204,3623,2213872070,597772,600000,620000,"22,228.00",3.72,611060,"13,288.00",2.22,569005,627660
دشيري,شيرين دارو,197,93972,23577113633,258611,250854,250853,"-7,758.00",-3.00,250895,"-7,716.00",-2.98,250853,259994
تسه9904,امتياز تسهيلات مسكن تير99,195,2163,1347623089,620887,592000,635000,"14,113.00",2.27,623034,"2,147.00",0.35,592000,645000
فردا,صندوق س آواي فرداي زاگرس-ثابت,191,3818673,38759809227,10146,10150,10150,4.00,0.04,10150,4.00,0.04,10148,10152
سپر,صندوق س سپر سرمايه بيدار- ثابت,189,2475206,28224352409,11396,11400,11401,5.00,0.04,11403,7.00,0.06,11399,11415
تابا,تابان نيرو سپاهان,187,254351,15729574542,60041,61842,61842,"1,801.00",3.00,61362,"1,321.00",2.20,61842,61842
تسه9906,امتياز تسهيلات مسكن شهريور99,185,2030,1265422275,614605,584600,630000,"15,395.00",2.50,623361,"8,756.00",1.42,583900,645335
تسه9803,امتياز تسهيلات مسكن خرداد98,183,1715,1067911339,619514,590010,627500,"7,986.00",1.29,622689,"3,175.00",0.51,590010,649799
وتوكا,سرمايه‌گذاري‌توكافولاد(هلدينگ,181,2424349,27128465310,10660,11190,11190,530.00,4.97,10910,250.00,2.35,11190,11190
ضسپا3004,اختيارخ خساپا-2500-1400/03/26,180,8439,2990783000,292,310,370,78.00,26.71,354,62.00,21.23,310,379
شيراز,پتروشيمي‌شيراز,179,181979,9760316370,54430,56830,53900,-530.00,-0.97,54350,-80.00,-0.15,52840,56830
شفارس,صنايع‌ شيميايي‌ فارس‌,174,680699,35192138300,49240,51700,51700,"2,460.00",5.00,50790,"1,550.00",3.15,51700,51700
كيميا,معدني كيمياي زنجان گستران,173,3448542,54780089670,15129,15885,15885,756.00,5.00,15857,728.00,4.81,15885,15885
كدما,معدني‌ دماوند,170,23578,5471274900,244260,232050,232050,"-12,210.00",-5.00,242830,"-1,430.00",-0.59,232050,232050
تسه9905,امتياز تسهيلات مسكن مرداد99,165,2586,1596604527,613530,600000,620000,"6,470.00",1.05,617403,"3,873.00",0.63,588000,640000
سبجنو,سيمان‌ بجنورد,165,236250,13272525000,53510,56180,56180,"2,670.00",4.99,54140,630.00,1.18,56180,56180
پرداخت,به پرداخت ملت,164,357354,12700361160,37410,35540,35540,"-1,870.00",-5.00,36870,-540.00,-1.44,35540,35540
وسين,بيمه سينا,160,1120621,23144185513,19670,20653,20653,983.00,5.00,20653,983.00,5.00,20653,20653
غبهار,كشت وصنعت بهاران گلبهار خراسان,153,192028,6769947140,36345,35255,35255,"-1,090.00",-3.00,35958,-387.00,-1.06,35255,35255
تصميم,صندوق س با درآمد ثابت تصميم,150,943284,14729863124,15594,15602,15623,29.00,0.19,15616,22.00,0.14,15602,15625
سكه9912پ04,سكه تمام بهارتحويل1روزه صادرات,149,69300,80705963300,1134887,1160000,1161100,"26,213.00",2.31,1164588,"29,701.00",2.62,1160000,1169594
كهرام,توليدي گرانيت بهسرام,148,193668,18912842208,94812,97656,97656,"2,844.00",3.00,97245,"2,433.00",2.57,97656,97656
كيان2,صندوق س. با درآمد ثابت كيان,148,14800000,14800000,27098,1,1,"-27,097.00",-100.00,1,"-27,097.00",-100.00,1,1
تسه9903,امتياز تسهيلات مسكن خرداد99,147,1373,850045478,609158,620000,620000,"10,842.00",1.78,619115,"9,957.00",1.63,579000,639615
آساميد,صندوق س.مشترك آسمان اميد -د,144,5808843,67016268415,11526,11532,11534,8.00,0.07,11537,11.00,0.10,11532,11539
ضپاس2002,اختيارخ وپارس-3000-1400/02/29,143,4420,2560654000,495,520,611,116.00,23.43,579,84.00,16.97,520,611
دارا,صندوق س. دارا الگوريتم-د,142,3151193,31762650308,10073,10080,10089,16.00,0.16,10080,7.00,0.07,10054,10094
سجام,مجتمع سيمان غرب آسيا,137,1349372,7208345224,5507,5342,5342,-165.00,-3.00,5443,-64.00,-1.16,5342,5342
مفاخر,توسعه فناوري اطلاعات خوارزمي,136,2024973,1.15446E+11,54297,57011,57011,"2,714.00",5.00,57011,"2,714.00",5.00,57011,57011
زنجان,صنايع كشاورزي وكود زنجان,135,621577,5772585599,9775,9287,9287,-488.00,-4.99,9626,-149.00,-1.52,9287,9287
وسديد,گروه ‌صنعتي‌سديد,135,181857,4118151765,23107,22645,22645,-462.00,-2.00,23054,-53.00,-0.23,22645,22645
وكادو,تكادو,135,541589,11735692041,22809,21669,21669,"-1,140.00",-5.00,22059,-750.00,-3.29,21669,21669
فسديد,لوله‌وتجهيزات‌ سديد - ورشكسته,134,94337,11226289918,119658,118462,118462,"-1,196.00",-1.00,119002,-656.00,-0.55,118462,120854
بذر,صندوق س بذر اميد آفرين-سهام,133,42959,4247387530,96080,96520,98880,"2,800.00",2.91,98870,"2,790.00",2.90,96500,99550
دمعيار,صندوق س. توازن معيار-د,130,6032562,60943972120,10098,10105,10105,7.00,0.07,10103,5.00,0.05,10090,10107
لخانه,لوازم‌ خانگي‌ پارس‌,122,391828,11598500628,28739,29601,29601,862.00,3.00,29222,483.00,1.68,29601,29601
بايكا,كارخانجات كابلسازي ‌ايران‌,121,151645,6671773420,45356,43996,43996,"-1,360.00",-3.00,44892,-464.00,-1.02,43996,43996
قمرو,قند مرودشت‌,120,702962,23914767240,32400,34020,34020,"1,620.00",5.00,33070,670.00,2.07,34020,34020
داريك,صندوق س.اعتماد داريك-د,118,8015639,82766639510,10339,10310,10330,-9.00,-0.09,10326,-13.00,-0.13,10135,10345
ثاژن,سخت آژند,117,1797619,19094309018,10414,10622,10622,208.00,2.00,10622,208.00,2.00,10622,10622
ضپاس2001,اختيارخ وپارس-2500-1400/02/29,113,3074,2622327000,724,800,940,216.00,29.83,853,129.00,17.82,800,940
دقاضي,داروسازي شهيد قاضي,113,211505,9776713124,47601,46173,46173,"-1,428.00",-3.00,46918,-683.00,-1.43,46173,47540
تسه9812,امتياز تسهيلات مسكن اسفند98,112,1633,1020127951,622481,610000,629000,"6,519.00",1.05,624696,"2,215.00",0.36,591357,653605
سكه0011پ02,سكه تمام بهارتحويلي 1روزه ملت,108,24100,28053312200,1136958,1163000,1161000,"24,042.00",2.11,1164038,"27,080.00",2.38,1160000,1168898
گوهران,سرمايه گذاري توسعه گوهران اميد,107,2533133,17932048507,6742,7079,7079,337.00,5.00,6857,115.00,1.71,7079,7079
سكه0112پ03,سكه تمام بهارتحويلي1روزه سامان,104,23700,27550493100,1135007,1159912,1160000,"24,993.00",2.20,1162468,"27,461.00",2.42,1159800,1169998
سمايه,بانك سرمايه,99,388522,2691680416,7292,6928,6928,-364.00,-4.99,7240,-52.00,-0.71,6928,6928
كصدف,كاشي صدف سرام استقلال آباده,98,157251,4049055999,26545,25749,25749,-796.00,-3.00,26375,-170.00,-0.64,25749,25749
فالوم,آلومتك‌,95,553647,20971594713,39050,37879,37879,"-1,171.00",-3.00,37879,"-1,171.00",-3.00,37879,37879
سفاسي,شركت فارسيت اهواز,94,275213,3876925531,14828,14087,14087,-741.00,-5.00,14676,-152.00,-1.03,14087,14087
فيروزا,صندوق بادرآمد ثابت فيروزه آسيا,93,217014,4831571946,22250,22250,22283,33.00,0.15,22264,14.00,0.06,22201,22296
صايند,صندوق س. گنجينه آينده روشن-د,92,825430,8234337840,9979,9980,9999,20.00,0.20,9976,-3.00,-0.03,9958,9999
ضسپا3003,اختيارخ خساپا-2000-1400/03/26,92,3809,2316413000,526,621,631,105.00,19.96,608,82.00,15.59,580,635
تسه9901,امتياز تسهيلات مسكن فروردين99,88,1040,641158158,622140,600000,640000,"17,860.00",2.87,616498,"-5,642.00",-0.91,591150,640000
اخزا903,اسنادخزانه-م3بودجه99-011110,88,364941,2.54538E+11,699007,695500,696777,"-2,230.00",-0.32,697478,"-1,529.00",-0.22,694000,700988
ارمغان,ص سرمايه گذاري ارمغان ايرانيان,88,2114463,21224699875,10030,10030,10040,10.00,0.10,10038,8.00,0.08,10030,10055
حخزر,كشتيراني درياي خزر,88,2079529,51651341302,23656,24838,24838,"1,182.00",5.00,24812,"1,156.00",4.89,24838,24838
زعف0008پ20,زعفران0008نگين وحدت جام(پ),86,76711,9441468273,123118,119130,124300,"1,182.00",0.96,123078,-40.00,-0.03,119130,124789
اخزا902,اسنادخزانه-م2بودجه99-011019,85,312026,2.19862E+11,704665,704000,704935,270.00,0.04,704628,-37.00,-0.01,703000,705101
زعف0008پ05,زعفران0008نگين زرين(پ),84,67449,8365428740,123899,123000,124400,501.00,0.40,124026,127.00,0.10,123000,125000
اتكاي,بيمه اتكايي ايرانيان,83,432944,5742136272,13961,13263,13263,-698.00,-5.00,13871,-90.00,-0.64,13263,13263
فن آوا,گروه فن آوا,83,1143052,22538699336,19144,19718,19718,574.00,3.00,19718,574.00,3.00,19718,19718
فنفت,صنايع تجهيزات نفت,82,582658,17809524428,29676,30566,30566,890.00,3.00,30446,770.00,2.59,30566,30566
پارسيانح,ح.بيمه پارسيان,82,3604036,30845706000,9000,9000,8500,-500.00,-5.56,8560,-440.00,-4.89,8500,9000
الماس,صندوق س.امين تدبيرگران فردا-س,82,31149,3418025602,109048,109000,110071,"1,023.00",0.94,109731,683.00,0.63,106403,111493
ضشنا2001,اختيارخ شپنا-10000-1400/02/27,81,627,1881922000,2421,2800,3190,769.00,31.76,3001,580.00,23.96,2699,3200
تسه9811,امتياز تسهيلات مسكن بهمن98,81,891,548249456,615802,600000,610000,"-5,802.00",-0.94,615319,-483.00,-0.08,585012,646592
ثروتم,صندوق س. ثروت آفرين پارسيان-س,81,116320,9356107200,79216,80010,81250,"2,034.00",2.57,80434,"1,218.00",1.54,79500,81600
ضمخا7071,اختيارخ اخابر-24000-1400/07/28,79,4302,738902000,158,158,155,-3.00,-1.90,172,14.00,8.86,155,190
تسه9809,امتياز تسهيلات مسكن آذر98,78,939,576649089,613788,610000,610001,"-3,787.00",-0.62,614110,322.00,0.05,583099,644477
غشوكو,شوكو پارس,77,218576,8839869168,41693,40443,40443,"-1,250.00",-3.00,41086,-607.00,-1.46,40443,40443
ولراز,ليزينگ رازي,77,139946,7930879766,59653,56671,56671,"-2,982.00",-5.00,58373,"-1,280.00",-2.15,56671,56671
ضغدر1119,اختيارخ وغدير-10000-1399/11/26,74,1593,3006135000,1313,1760,2000,687.00,52.32,1887,574.00,43.72,1490,2000
دقاضيح,ح . داروسازي شهيد قاضي,72,142050,5027040061,35390,34501,34563,-827.00,-2.34,35389,-1.00,0,34500,36451
امين يكم2,صندوق درآمد ثابت امين يكم فردا,71,7100000,7100000,10197,1,1,"-10,196.00",-99.99,1,"-10,196.00",-99.99,1,1
زعف0008پ11,زعفران0008نگين سحرخيز(پ),71,312714,39265040808,125515,125160,125721,206.00,0.16,125562,47.00,0.04,125160,125900
ضخود2008,اختيارخ خودرو-3500-1400/02/08,71,3104,448855000,125,148,140,15.00,12.00,145,20.00,16.00,139,170
پلاست,كارخانجات توليدي پلاستيران,68,98922,7307763828,76158,73874,73874,"-2,284.00",-3.00,75307,-851.00,-1.12,73874,73874
اخزا907,اسنادخزانه-م7بودجه99-020704,65,43544,26784431314,611502,610009,614000,"2,498.00",0.41,615112,"3,610.00",0.59,610009,620000
آكورد2,صندوق س. آرمان آتي كوثر-د,60,6000000,6000000,30642,1,1,"-30,641.00",-100.00,1,"-30,641.00",-100.00,1,1
ضسپا1100,اختيارخ خساپا-1600-1399/11/26,60,1958,1322095000,612,698,690,78.00,12.75,675,63.00,10.29,603,710
وآرينح,ح. شركت توسعه اقتصادي آرين,59,1252378,3537029505,2985,3164,2806,-179.00,-6.00,2824,-161.00,-5.39,2806,3164
سخواف,سيمان مجد خواف,59,91104,1667658720,18871,18305,18305,-566.00,-3.00,18819,-52.00,-0.28,18305,18305
وسگيلا,شركت س استان گيلان,55,2205232,1675976320,800,760,760,-40.00,-5.00,800,0,0,760,760
تسه9808,امتياز تسهيلات مسكن آبان98,55,575,361164815,642482,674606,620000,"-22,482.00",-3.50,628113,"-14,369.00",-2.24,616500,674606
سنوين,سرمايه گذاري اقتصاد نوين,52,1155951,11457786312,9624,9912,9912,288.00,2.99,9775,151.00,1.57,9912,9912
تسه9806,امتياز تسهيلات مسكن شهريور98,51,789,485043720,635730,610001,610000,"-25,730.00",-4.05,614758,"-20,972.00",-3.30,610000,666940
ضخود2009,اختيارخ خودرو-4000-1400/02/08,49,2229,215396000,92,92,95,3.00,3.26,97,5.00,5.43,89,118
فسا,پتروشيمي فسا,49,559188,1013807844,1869,1813,1813,-56.00,-3.00,1866,-3.00,-0.16,1813,1813
نمرينو,ايران‌ مرينوس‌,48,148009,8628924700,55530,58300,58300,"2,770.00",4.99,55980,450.00,0.81,58300,58300
سايرا,ايرانيت‌,48,113097,5471972151,49370,48383,48383,-987.00,-2.00,48840,-530.00,-1.07,48383,48383
افران,صندوق س افرا نماد پايدار-ثابت,46,358506,4532651127,12628,12650,12644,16.00,0.13,12643,15.00,0.12,12636,12650
ضفلا1154,اختيارخ فولاد-12000-1399/11/28,46,804,293844000,240,348,397,157.00,65.42,365,125.00,52.08,300,444
اوصتا,صندوق انديشه ورزان صباتامين -د,45,864199,15421681949,17845,17845,17846,1.00,0.01,17845,0,0,17845,17852
اخزا910,اسنادخزانه-م10بودجه99-020807,44,95768,56579475276,1000000,585001,597102,"-402,898.00",-40.29,590797,"-409,203.00",-40.92,585001,607699
جهرم,پتروشيمي جهرم,43,437091,865877271,2042,1981,1981,-61.00,-2.99,2039,-3.00,-0.15,1981,1981
گپارس,امور رفاهي كارگزاران پارس,42,23345,5080525660,211290,217628,217628,"6,338.00",3.00,212774,"1,484.00",0.70,217628,217628
تسه9807,امتياز تسهيلات مسكن مهر98,42,332,203833787,617498,610000,612000,"-5,498.00",-0.89,613957,"-3,541.00",-0.57,586624,630000
اخزا815,اسنادخزانه-م15بودجه98-010406,41,102958,80399273433,780397,778012,780635,238.00,0.03,780894,497.00,0.06,778012,782000
اخزا817,اسنادخزانه-م17بودجه98-010512,41,53215,40905584336,770303,767000,768800,"-1,503.00",-0.20,768685,"-1,618.00",-0.21,764000,770998
ضگل1142,اختيارخ كگل-16000-1399/11/21,41,817,1520166000,1343,2200,1600,257.00,19.14,1861,518.00,38.57,1401,2250
ضسپا1104,اختيارخ خساپا-3000-1399/11/26,40,1900,1900000,1,1,1,0,0,1,0,0,1,1
ضفار3000,اختيارخ فارس-8000-1400/03/05,39,1492,3128300000,2158,2000,2100,-58.00,-2.69,2097,-61.00,-2.83,2000,2100
ضفلا1153,اختيارخ فولاد-10000-1399/11/28,39,519,1003590000,1482,1999,2000,518.00,34.95,1934,452.00,30.50,1800,2000
ضشنا2002,اختيارخ شپنا-12000-1400/02/27,39,1727,3128315000,1420,2050,1850,430.00,30.28,1811,391.00,27.54,1500,2050
كقزوي,شيشه‌ قزوين‌,38,126440,1272239280,10373,10062,10062,-311.00,-3.00,10352,-21.00,-0.20,10062,10062
صنوين,صندوق سرمايه‌گذاري صنوين-مختلط,36,7248,720485420,99070,99010,100990,"1,920.00",1.94,99400,330.00,0.33,99000,101000
ضملت1129,اختيارخ وبملت-7000-1399/11/28,36,2086,2086000,1,1,1,0,0,1,0,0,1,1
زعف0008پ16,زعفران0008نگين بيرجند(پ),36,21369,2647268500,123768,123500,124000,232.00,0.19,123884,116.00,0.09,123500,124700
خاتم,صندوق س خاتم ايساتيس پويا-ثابت,35,419749,4415990262,10513,10519,10520,7.00,0.07,10521,8.00,0.08,10519,10525
اخزا909,اسنادخزانه-م9بودجه99-020316,35,177974,1.15214E+11,647367,645500,647710,343.00,0.05,647363,-4.00,0,645043,649000
دحاوي,الحاوي,35,53752,628683392,12311,11696,11696,-615.00,-5.00,12291,-20.00,-0.16,11696,11696
آسام,صندوق س.آرمان سپهر آشنا-م,34,17890,1841004810,102742,102742,103400,658.00,0.64,102907,165.00,0.16,102300,103497
وبيمهح,ح . سرمايه‌ گذاري‌ صنعت‌ بيمه‌,33,524285,880798800,1680,1680,1680,0,0,1680,0,0,1680,1680
سخند,صندوق س.سپهرخبرگان نفت-د,32,277550,2784852220,10027,10039,10031,4.00,0.04,10034,7.00,0.07,10031,10039
ضسپا1105,اختيارخ خساپا-3500-1399/11/26,31,1510,1540000,2,1,4,2.00,100.00,1,-1.00,-50.00,1,4
وسكرد,شركت س استان كردستان,31,866147,614964370,740,710,710,-30.00,-4.05,740,0,0,710,710
وايرا,سرمايه گذاري صنايع ايران,31,538900,6050230300,11574,11227,11227,-347.00,-3.00,11461,-113.00,-0.98,11227,11227
تسه9805,امتياز تسهيلات مسكن مرداد98,30,143,88322420,619945,620000,596000,"-23,945.00",-3.86,617639,"-2,306.00",-0.37,589000,650942
اخزا908,اسنادخزانه-م8بودجه99-020606,30,118025,73397665354,621618,622000,622000,382.00,0.06,621882,264.00,0.04,621500,623000
قجام,فرآوردههاي غذايي وقندتربت‌جام‌,29,319625,5341573000,17053,16712,16712,-341.00,-2.00,16867,-186.00,-1.09,16712,16712
اخزا901,اسنادخزانه-م1بودجه99-010621,29,22638,16905597761,746244,746000,747400,"1,156.00",0.15,746780,536.00,0.07,746000,748949
سجامح,ح.مجتمع سيمان غرب آسيا,28,78154,243527864,3212,3116,3116,-96.00,-2.99,3116,-96.00,-2.99,3116,3116
آبين,كشت و صنعت آبشيرين,28,67521,287977065,4352,4265,4265,-87.00,-2.00,4349,-3.00,-0.07,4265,4265
تشتاد,صنايع توليدي اشتاد ايران‌,27,32640,503210880,15893,15417,15417,-476.00,-3.00,15880,-13.00,-0.08,15417,15417
زعف0008پ08,زعفران0008نگين روستا(پ),27,33652,4166519000,124000,123500,124450,450.00,0.36,123812,-188.00,-0.15,123000,124500
ضترا3003,اختيارخ شتران-9000-1400/03/09,26,435,783000000,2000,1800,1800,-200.00,-10.00,1800,-200.00,-10.00,1800,1800
تسه9804,امتياز تسهيلات مسكن تير98,26,590,363933705,608866,609000,639309,"30,443.00",5.00,616837,"7,971.00",1.31,600000,639309
اخزا821,اسنادخزانه-م21بودجه98-020906,25,55172,32744359896,594802,593006,594600,-202.00,-0.03,593496,"-1,306.00",-0.22,593000,595900
ضخود2013,اختيارخ خودرو-7000-1400/02/08,24,838,16068000,19,13,21,2.00,10.53,19,0,0,12,21
گنجين,صندوق س. گنجينه يكم آويد-د,24,99630,1214539632,12187,12187,12194,7.00,0.06,12191,4.00,0.03,12187,12194
ضملت1130,اختيارخ وبملت-8000-1399/11/28,23,937,937000,1,1,1,0,0,1,0,0,1,1
كارين,صندوق س نگين سامان-ثابت,23,554121,5608894596,10119,10120,10121,2.00,0.02,10122,3.00,0.03,10120,10126
سكارون,سيمان كارون,23,4766,840884444,181890,176434,176434,"-5,456.00",-3.00,181649,-241.00,-0.13,176434,176434
اخزا809,اسنادخزانه-م9بودجه98-000923,22,5343,4600159091,859776,860000,862801,"3,025.00",0.35,860969,"1,193.00",0.14,860000,862900
اخزا808,اسنادخزانه-م8بودجه98-000817,22,11642,10206112420,876066,876990,877777,"1,711.00",0.20,876663,597.00,0.07,872201,877990
اخزا721,اسنادخزانه-م21بودجه97-000728,22,108319,95297638263,879574,879509,883000,"3,426.00",0.39,879787,213.00,0.02,879509,883360
ضفلا1155,اختيارخ فولاد-14000-1399/11/28,21,805,11177000,12,9,23,11.00,91.67,14,2.00,16.67,7,24
سدشت,صنايع سيمان دشتستان,20,55850,2623274500,44740,46970,46970,"2,230.00",4.98,44850,110.00,0.25,46970,46970
زعف0008پ18,زعفران0008نگين بهرامن(پ),20,64831,8123952000,124925,124650,125500,575.00,0.46,125310,385.00,0.31,124200,126000
خبازرس,بازرسي مهندسي و صنعتي ايران,19,802983,20666373471,24988,25737,25737,749.00,3.00,25722,734.00,2.94,25737,25737
كيسون,شركت كيسون,19,89536,1302122048,14839,14543,14543,-296.00,-1.99,14826,-13.00,-0.09,14543,14543
اخزا818,اسنادخزانه-م18بودجه98-010614,18,4662,3518511815,758608,756013,754000,"-4,608.00",-0.61,754722,"-3,886.00",-0.51,751601,758015
اخزا811,اسنادخزانه-م11بودجه98-001013,18,28103,23976423988,850164,850052,853162,"2,998.00",0.35,853162,"2,998.00",0.35,850052,854000
اخزا812,اسنادخزانه-م12بودجه98-001111,18,9739,8172121941,840063,837504,843100,"3,037.00",0.36,839113,-950.00,-0.11,837504,843100
داراب,پتروشيمي داراب,18,459812,1102629176,2472,2398,2398,-74.00,-2.99,2468,-4.00,-0.16,2398,2398
ضگل1143,اختيارخ كگل-18000-1399/11/21,17,686,101888000,79,300,9,-70.00,-88.61,149,70.00,88.61,5,300
ضغدر1120,اختيارخ وغدير-12000-1399/11/26,17,249,70409000,197,250,375,178.00,90.36,283,86.00,43.65,250,375
سلار,شركت سيمان لارستان,17,13912,865437696,64131,62208,62208,"-1,923.00",-3.00,64043,-88.00,-0.14,62208,62208
پست0008پ09,پسته بادامي30-28مه ولات0008(پ),17,490,639200000,1300000,1300000,1320000,"20,000.00",1.54,1304490,"4,490.00",0.35,1300000,1320000
ضشنا2003,اختيارخ شپنا-14000-1400/02/27,16,277,285943000,965,999,1000,35.00,3.63,1032,67.00,6.94,999,1250
تملي706,تسهيلات مسكن ب. ملي-شهريور97,16,632,338927032,535599,508820,562378,"26,779.00",5.00,536277,678.00,0.13,508820,562378
نگين,ص.س. زمين و ساختمان نگين شهرري,16,2644,125852070,47730,48420,47930,200.00,0.42,47600,-130.00,-0.27,47530,48420
ضپاس2003,اختيارخ وپارس-3500-1400/02/29,15,633,242792000,379,379,400,21.00,5.54,384,5.00,1.32,350,440
ضفلا1151,اختيارخ فولاد-8000-1399/11/28,15,111,424097000,3214,3699,3900,686.00,21.34,3821,607.00,18.89,3699,3900
اخزا806,اسنادخزانه-م6بودجه98-000519,15,89984,81919145714,911485,912000,911535,50.00,0.01,910375,"-1,110.00",-0.12,910010,912000
ضگل1141,اختيارخ كگل-14000-1399/11/21,14,130,514718000,3477,4000,3650,173.00,4.98,3959,482.00,13.86,3650,4150
تاپكيشح,ح.تجارت الكترونيك پارسيان كيش,14,39212,659349780,17700,16815,16815,-885.00,-5.00,16815,-885.00,-5.00,16815,16815
ضملت1127,اختيارخ وبملت-5000-1399/11/28,12,564,752000,2,1,1,-1.00,-50.00,1,-1.00,-50.00,1,2
اخزا820,اسنادخزانه-م20بودجه98-020806,12,7160,4297181300,608790,603000,603100,"-5,690.00",-0.93,600165,"-8,625.00",-1.42,600000,603100
ضپاس2000,اختيارخ وپارس-2000-1400/02/29,12,407,540910000,1195,1330,1400,205.00,17.15,1329,134.00,11.21,1300,1400
شستا992,اجاره تامين اجتماعي-سپهر991226,12,100005,1.00005E+11,1000000,1000000,1000000,0,0,1000000,0,0,999999,1000000
اخزا904,اسنادخزانه-م4بودجه99-011215,12,30192,20902712260,685386,693000,685223,-163.00,-0.02,692326,"6,940.00",1.01,685100,695000
ضفلا3005,اختيارخ فولاد-14000-1400/03/19,12,32,31309000,616,1000,950,334.00,54.22,978,362.00,58.77,950,1000
اخزا813,اسنادخزانه-م13بودجه98-010219,12,7695,6145382831,800017,797501,800002,-15.00,0,798620,"-1,397.00",-0.17,797501,800002
اخزا814,اسنادخزانه-م14بودجه98-010318,11,6771,5329643698,789102,785823,786011,"-3,091.00",-0.39,787128,"-1,974.00",-0.25,785823,789000
ضچاد2000,اختيارخ كچاد-12000-1400/02/05,11,110,1045000000,7500,9500,9500,"2,000.00",26.67,9500,"2,000.00",26.67,9500,9500
اخزا905,اسنادخزانه-م5بودجه99-020218,10,13994,9219956648,658477,655902,658900,423.00,0.06,658851,374.00,0.06,655902,659237
ضجار2002,اختيارخ وتجارت-2500-1400/02/22,10,135,85550000,616,600,677,61.00,9.90,634,18.00,2.92,600,698
اخزا805,اسنادخزانه-م5بودجه98-000422,10,2418,2240189706,923094,924100,927001,"3,907.00",0.42,926464,"3,370.00",0.37,924100,927001
ضملي3004,اختيارخ فملي-14000-1400/03/02,10,96,81396000,500,850,879,379.00,75.80,848,348.00,69.60,800,879
ضجار2000,اختيارخ وتجارت-1800-1400/02/22,9,190,278430000,1265,1151,1300,35.00,2.77,1465,200.00,15.81,1151,1630
داريك2,صندوق س.اعتماد داريك-د,9,8500000,8500000,10339,1,1,"-10,338.00",-99.99,1,"-10,338.00",-99.99,1,1
وحافظ,بيمه حافظ,9,87063,6333397935,74229,72745,72745,"-1,484.00",-2.00,73258,-971.00,-1.31,72745,72745
وسصفا,شركت س استان اصفهان,8,43174,44037480,1070,1020,1020,-50.00,-4.67,1070,0,0,1020,1020
ضملت1126,اختيارخ وبملت-4500-1399/11/28,8,330,7109000,18,20,20,2.00,11.11,22,4.00,22.22,20,40
ضغدر1118,اختيارخ وغدير-9000-1399/11/26,8,122,354856000,2139,2800,2958,819.00,38.29,2909,770.00,36.00,2800,2958
ضفلا3004,اختيارخ فولاد-12000-1400/03/19,8,8,17100000,2000,2000,2300,300.00,15.00,2137,137.00,6.85,2000,2300
ضملي3002,اختيارخ فملي-10000-1400/03/02,8,36,101418000,1909,2600,2700,791.00,41.44,2817,908.00,47.56,2599,3300
تملي701,تسهيلات مسكن ب. ملي-فروردين97,8,109,65453895,601771,624999,571683,"-30,088.00",-5.00,600494,"-1,277.00",-0.21,571683,631859
اخزا816,اسنادخزانه-م16بودجه98-010503,7,3228,2485652798,772742,770000,770070,"-2,672.00",-0.35,770029,"-2,713.00",-0.35,770000,771000
ضغدر3003,اختيارخ وغدير-10000-1400/03/26,7,103,369900000,2704,3300,3800,"1,096.00",40.53,3591,887.00,32.80,3300,3800
ضفلا1152,اختيارخ فولاد-9000-1399/11/28,7,254,737560000,2032,2500,2980,948.00,46.65,2904,872.00,42.91,2500,2980
ضملي3000,اختيارخ فملي-8000-1400/03/02,6,16,60978000,3315,4000,3900,585.00,17.65,3811,496.00,14.96,3700,4000
وسيستا,شركت س استان سيستان وبلوچستان,6,174529,129151460,770,740,740,-30.00,-3.90,770,0,0,740,740
ضسپا3002,اختيارخ خساپا-1800-1400/03/26,6,24,24010000,1,1000,1000,999.00,"99,900.00",1000,999.00,"99,900.00",1000,1005
خعمرا,توسعه و عمران شهرستان نائين,6,3088,70474336,22158,22822,22822,664.00,3.00,22160,2.00,0.01,22822,22822
هصيكو402,اختيارف ت تاصيكو13500-00/02/20,6,87725,252998900,2460,2884,2884,424.00,17.24,2884,424.00,17.24,2884,2884
ساذري,آذريت‌,6,7132,43583652,5820,6111,6111,291.00,5.00,5821,1.00,0.02,6111,6111
شستا991,اجاره تامين اجتماعي-امين991226,5,176,175390685,996504,971000,1000000,"3,496.00",0.35,996538,34.00,0,971000,1000000
ضملت1124,اختيارخ وبملت-3500-1399/11/28,5,70,37030000,397,500,500,103.00,25.94,529,132.00,33.25,500,600
ضجار2004,اختيارخ وتجارت-3500-1400/02/22,5,90,32367000,500,350,398,-102.00,-20.40,360,-140.00,-28.00,350,400
اخزا807,اسنادخزانه-م7بودجه98-000719,5,15400,13606756700,883539,883542,883555,16.00,0,883556,17.00,0,883542,884000
پست0008پ08,پسته فندقي32-30مه ولات0008(پ),5,124,165340000,1341326,1325000,1340000,"-1,326.00",-0.10,1333387,"-7,939.00",-0.59,1325000,1360000
زعف0008پ19,زعفران0008نگين تروند قاينات(پ),5,2801,347417113,123935,123993,124200,265.00,0.21,124033,98.00,0.08,123993,124200
اخزا804,اسنادخزانه-م4بودجه98-000421,5,3415,3162218018,927516,922005,926014,"-1,502.00",-0.16,925979,"-1,537.00",-0.17,922005,926015
زير0003پ01,زيره سبز0003كيميابذر(پ),5,105,55519250,520513,527989,529987,"9,474.00",1.82,528755,"8,242.00",1.58,527989,529987
تملي804,تسهيلات مسكن ب. ملي-تير98,4,348,191516580,524129,550335,550335,"26,206.00",5.00,550335,"26,206.00",5.00,550335,550335
ضگل1149,اختيارخ كگل-10000-1399/11/21,4,26,207990000,7588,8000,7890,302.00,3.98,8000,412.00,5.43,7890,8100
ضپاس2005,اختيارخ وپارس-4500-1400/02/29,4,44,4158000,700,12,52,-648.00,-92.57,94,-606.00,-86.57,12,300
پشاهن,توليدي پلاستيك‌ شاهين,4,8000,60768000,7375,7596,7596,221.00,3.00,7376,1.00,0.01,7596,7596
ضپيك2008,اختيارخ تاپيكو-9000-00/02/19,4,13,53264000,2122,4088,4100,"1,978.00",93.21,4097,"1,975.00",93.07,4088,4100
شرق1400,مشاركت ليزينگ ايران وشرق140010,4,34,34339810,999900,1009990,1010000,"10,100.00",1.01,1009994,"10,094.00",1.01,1009990,1010000
وسخراج,شركت س استان خراسان جنوبي,4,18047,38079170,2220,2110,2110,-110.00,-4.95,2220,0,0,2110,2110
كابگن,توليدي و صنعتي آبگينه‌,3,10865,56324160,5083,5184,5184,101.00,1.99,5084,1.00,0.02,5184,5184
شستا994,اجاره تامين اجتماعي-نوين991226,3,56,56000000,993500,1000000,1000000,"6,500.00",0.65,1000000,"6,500.00",0.65,1000000,1000000
ضملي3003,اختيارخ فملي-12000-1400/03/02,3,78,92829000,1044,1050,1440,396.00,37.93,1190,146.00,13.98,1050,1449
زعف0008پ12,زعفران0008پوشالمعمول سحرخيز(پ),3,467,37953600,80800,80800,82000,"1,200.00",1.49,81271,471.00,0.58,80800,82000
ضجار2005,اختيارخ وتجارت-4000-1400/02/22,3,101,10133000,121,100,133,12.00,9.92,100,-21.00,-17.36,100,133
اراد50,مرابحه عام دولت5-ش.خ0302,3,62000,62000062000,1000001,1000001,1000001,0,0,1000001,0,0,1000001,1000001
ضشنا2000,اختيارخ شپنا-9000-1400/02/27,3,120,462000000,3463,3850,3850,387.00,11.18,3850,387.00,11.18,3850,3850
سرو2,صندوق س سروسودمند مدبران-سهام,3,1500000,1500000,66950,1,1,"-66,949.00",-100.00,1,"-66,949.00",-100.00,1,1
ضفلا3003,اختيارخ فولاد-10000-1400/03/19,3,20,71000000,2571,3550,3550,979.00,38.08,3550,979.00,38.08,3550,3550
شسم,توليد سموم‌ علف‌ كش,3,482,43353008,88181,89944,89944,"1,763.00",2.00,88188,7.00,0.01,89944,89944
ضصاد3004,اختيارخ وبصادر-3500-1400/03/12,3,4,4468000,124,233,2000,"1,876.00","1,512.90",1117,993.00,800.81,233,2000
تملي805,تسهيلات مسكن ب. ملي-مرداد98,3,46,37943482,802188,802188,842297,"40,109.00",5.00,824858,"22,670.00",2.83,802188,842297
فولاد2,فولاد مباركه اصفهان,3,27000000,3.213E+11,11340,11900,11900,560.00,4.94,11900,560.00,4.94,11900,11900
اخزا718,اسنادخزانه-م18بودجه97-000525,3,7097,6458284460,908345,910000,910010,"1,665.00",0.18,910002,"1,657.00",0.18,910000,910010
اخزا810,اسنادخزانه-م10بودجه98-001006,2,7279,6218931745,855891,852505,855000,-891.00,-0.10,854366,"-1,525.00",-0.18,852505,855000
ضسان2008,اختيارخ پارسان-16750-00/02/15,2,3,13500000,700,4500,4500,"3,800.00",542.86,4500,"3,800.00",542.86,4500,4500
سپر2,صندوق س سپر سرمايه بيدار- ثابت,2,1500000,1500000,11396,1,1,"-11,395.00",-99.99,1,"-11,395.00",-99.99,1,1
ضگل3001,اختيارخ كگل-14000-1400/03/23,2,2,11710000,3800,6010,5700,"1,900.00",50.00,5855,"2,055.00",54.08,5700,6010
عكاوه2,اوراق سلف شمش فولاد كاوه كيش,2,73,312205148,4274588,4207616,4291769,"17,181.00",0.40,4276783,"2,195.00",0.05,4207616,4291769
هفارس912,اختيارف ت فارس-14576-99/12/13,2,180,941760,6037,5232,5232,-805.00,-13.33,5232,-805.00,-13.33,5232,5232
وسلرستا,شركت س استان لرستان,2,20000,17200000,900,860,860,-40.00,-4.44,900,0,0,860,860
ضملي3001,اختيارخ فملي-9000-1400/03/02,2,20,64000000,2400,3200,3200,800.00,33.33,3200,800.00,33.33,3200,3200
ضصاد3001,اختيارخ وبصادر-2000-1400/03/12,2,7,6997000,826,999,1000,174.00,21.07,1000,174.00,21.07,999,1000
ضپيك2010,اختيارخ تاپيكو-12000-00/02/19,2,2,4600000,2046,2300,2300,254.00,12.41,2300,254.00,12.41,2300,2300
سپرمي,پرميت‌,2,2200,18880400,8498,8582,8582,84.00,0.99,8498,0,0,8582,8582
ضفلا1158,اختيارخ فولاد-20000-1399/11/28,2,26,26000,8,1,1,-7.00,-87.50,1,-7.00,-87.50,1,1
ضخود2011,اختيارخ خودرو-5000-1400/02/08,2,100,4500000,56,45,45,-11.00,-19.64,45,-11.00,-19.64,45,45
تفيرو,مهندسي فيروزا,2,924,18001368,19100,19482,19482,382.00,2.00,19101,1.00,0.01,19482,19482
ضملت1125,اختيارخ وبملت-4000-1399/11/28,2,110,17600000,153,170,60,-93.00,-60.78,160,7.00,4.58,60,170
ضمخا7074,اختيارخ اخابر-36000-1400/07/28,2,2,3301000,3000,301,3000,0,0,1650,"-1,350.00",-45.00,301,3000
اخزا716,اسنادخزانه-م16بودجه97-000407,2,27000,25246200000,932000,935000,935100,"3,100.00",0.33,935044,"3,044.00",0.33,935000,935100
اراد544,مرابحه عام دولت5-ش.خ 0109,2,6000000,5.70856E+12,964500,951452,951400,"-13,100.00",-1.36,951426,"-13,074.00",-1.36,951400,951452
اراد704,مرابحه عام دولت70-ش.خ0112,1,500000,4.71305E+11,941720,942610,942610,890.00,0.09,942610,890.00,0.09,942610,942610
وسمازن,س.سهام عدالت استان مازندران,1,5892,5479560,970,930,930,-40.00,-4.12,970,0,0,930,930
زعف0008پ15,زعفران0008پوشالمعمول طلاسرخ(پ),1,38,3116000,80587,82000,82000,"1,413.00",1.75,82000,"1,413.00",1.75,82000,82000
وملل2,اعتباري ملل,1,55000000,8.8165E+11,15413,16030,16030,617.00,4.00,16030,617.00,4.00,16030,16030
ضجار2001,اختيارخ وتجارت-2000-1400/02/22,1,10,11900000,1100,1190,1190,90.00,8.18,1190,90.00,8.18,1190,1190
سميعا001,سلف موازي استاندارد سميعا001,1,9210,9992850000,1008159,1085000,1085000,"76,841.00",7.62,1085000,"76,841.00",7.62,1085000,1085000
فبستم,صنايع ‌بسته‌بندي‌ مشهد,1,5000,4160000,793,832,832,39.00,4.92,793,0,0,832,832
اراد364,مرابحه عام دولت3-ش.خ 0104,1,450000,4.28355E+11,950400,951900,951900,"1,500.00",0.16,951900,"1,500.00",0.16,951900,951900
اراد534,مرابحه عام دولت5-ش.خ 0207,1,2000000,1.882E+12,958293,941000,941000,"-17,293.00",-1.80,941000,"-17,293.00",-1.80,941000,941000
دروز4,داروسازي‌ روزدارو,1,3200000,90624000000,27720,28320,28320,600.00,2.16,28320,600.00,2.16,28320,28320
پا ر 28,بار پايه روز 28,1,6000,2280000,380,380,380,0,0,380,0,0,380,380
اراد22,مرابحه عام دولت2-ش.خ لوتوس0212,1,3000,2895000000,980000,965000,965000,"-15,000.00",-1.53,965000,"-15,000.00",-1.53,965000,965000
شستا001,اجاره تامين اجتماعي-امين000523,1,7,7007049,1001007,1001007,1001007,0,0,1001007,0,0,1001007,1001007
سنفت001,سلف موازي استاندارد سنفت001,1,8970,10001550000,1096332,1115000,1115000,"18,668.00",1.70,1115000,"18,668.00",1.70,1115000,1115000
ضصاد3000,اختيارخ وبصادر-1800-1400/03/12,1,53,53000000,1050,1000,1000,-50.00,-4.76,1000,-50.00,-4.76,1000,1000
پا ر 29,بار پايه روز 29,1,6000,2280000,380,380,380,0,0,380,0,0,380,380
كچاد2,معدني‌وصنعتي‌چادرملو,1,19500000,3.98385E+11,20130,20430,20430,300.00,1.49,20430,300.00,1.49,20430,20430
تملي802,تسهيلات مسكن ب. ملي-ارديبهشت98,1,20,15962240,840117,798112,798112,"-42,005.00",-5.00,798112,"-42,005.00",-5.00,798112,798112
ضغدر1121,اختيارخ وغدير-14000-1399/11/26,1,1,1000,6,1,1,-5.00,-83.33,1,-5.00,-83.33,1,1
صخابر102,صكوك اجاره مخابرات-3 ماهه 16%,1,5000,4925000000,1000000,985000,985000,"-15,000.00",-1.50,985000,"-15,000.00",-1.50,985000,985000
ضفار3002,اختيارخ فارس-10000-1400/03/05,1,10,7500000,1750,750,750,"-1,000.00",-57.14,750,"-1,000.00",-57.14,750,750
اخزا720,اسنادخزانه-م20بودجه97-000324,1,1100,1035101100,946000,941001,941001,"-4,999.00",-0.53,941001,"-4,999.00",-0.53,941001,941001
مشير9911,مشاركت شهرداري شيراز-3ماهه16%,1,6,5999400,990168,999900,999900,"9,732.00",0.98,999900,"9,732.00",0.98,999900,999900
ضشنا2010,اختيارخ شپنا-8000-1400/02/27,1,30,144000000,4175,4800,4800,625.00,14.97,4800,625.00,14.97,4800,4800
ضگل3000,اختيارخ كگل-12000-1400/03/23,1,10,75000000,1,7500,7500,"7,499.00","749,900.00",7500,"7,499.00","749,900.00",7500,7500
ضچاد2001,اختيارخ كچاد-14000-1400/02/05,1,30,210000000,6000,7000,7000,"1,000.00",16.67,7000,"1,000.00",16.67,7000,7000
اراد654,مرابحه عام دولتي65-ش.خ0210,1,3235000,2.9992E+12,927050,927110,927110,60.00,0.01,927110,60.00,0.01,927110,927110
ضگل3002,اختيارخ كگل-16000-1400/03/23,1,1,4000000,3820,4000,4000,180.00,4.71,4000,180.00,4.71,4000,4000
تملي806,تسهيلات مسكن ب. ملي-شهريور98,1,7,4863866,731408,694838,694838,"-36,570.00",-5.00,694838,"-36,570.00",-5.00,694838,694838
بزاگرس2,نيروگاه زاگرس كوثر,1,25500000,1.6802E+11,6656,6589,6589,-67.00,-1.01,6589,-67.00,-1.01,6589,6589
ضمخا7072,اختيارخ اخابر-28000-1400/07/28,1,1,100000,1150,100,100,"-1,050.00",-91.30,100,"-1,050.00",-91.30,100,100
اراد55,مرابحه عام دولت5-ش.خ 0209,1,6000,5571000000,960000,928500,928500,"-31,500.00",-3.28,928500,"-31,500.00",-3.28,928500,928500
اشاد10,مشاركت دولتي10-شرايط خاص001226,1,100,96890000,968900,968900,968900,0,0,968900,0,0,968900,968900
ياقوت2,صندوق س ياقوت آگاه-ثابت,1,28635265,28635265,11850,1,1,"-11,849.00",-99.99,1,"-11,849.00",-99.99,1,1
ضملت3002,اختيارخ وبملت-4000-1400/03/19,1,5,3900000,500,780,780,280.00,56.00,780,280.00,56.00,780,780
ضگل1150,اختيارخ كگل-12000-1399/11/21,1,1,6200000,3600,6200,6200,"2,600.00",72.22,6200,"2,600.00",72.22,6200,6200
كگل2,معدني و صنعتي گل گهر,1,22000000,3.9512E+11,17810,17960,17960,150.00,0.84,17960,150.00,0.84,17960,17960
كوير2,توليدي فولاد سپيد فراب كوير,1,8038315,1.89222E+11,24520,23540,23540,-980.00,-4.00,23540,-980.00,-4.00,23540,23540
زكوثر2,سرمايه گذاري كشاورزي كوثر,1,5000000,1.051E+11,21120,21020,21020,-100.00,-0.47,21020,-100.00,-0.47,21020,21020
ضچاد2004,اختيارخ كچاد-20000-1400/02/05,1,1,2989000,2333,2989,2989,656.00,28.12,2989,656.00,28.12,2989,2989
شكبير2,پتروشيمي اميركبير,1,8000000,6.99848E+11,87481,87481,87481,0,0,87481,0,0,87481,87481
اخزا9082,اسنادخزانه-م8بودجه99-020606,1,226587,1.4173E+11,621618,625500,625500,"3,882.00",0.62,625500,"3,882.00",0.62,625500,625500
كرمان00,رهني كرمان موتور14001130,1,2500,2560767500,1024307,1024307,1024307,0,0,1024307,0,0,1024307,1024307
اوان2,مبين وان كيش,1,6930000,3.46618E+11,50498,50017,50017,-481.00,-0.95,50017,-481.00,-0.95,50017,50017
تملي705,تسهيلات مسكن ب. ملي-مرداد97,1,37,19277666,548440,521018,521018,"-27,422.00",-5.00,521018,"-27,422.00",-5.00,521018,521018
ضجار2003,اختيارخ وتجارت-3000-1400/02/22,1,8,3200000,465,400,400,-65.00,-13.98,400,-65.00,-13.98,400,400
ضملت3004,اختيارخ وبملت-5000-1400/03/19,1,3,150000,999,50,50,-949.00,-94.99,50,-949.00,-94.99,50,50
گندم2,مرابحه گندم2-واجدشرايط خاص1400,1,200,190000000,990000,950000,950000,"-40,000.00",-4.04,950000,"-40,000.00",-4.04,950000,950000
اخزا9092,اسنادخزانه-م9بودجه99-020316,1,140000,90720000000,647367,648000,648000,633.00,0.10,648000,633.00,0.10,648000,648000
ثعمرا2,عمران و توسعه شاهد,1,12000000,1.40736E+11,12122,11728,11728,-394.00,-3.25,11728,-394.00,-3.25,11728,11728
اطلس2,صندوق س.توسعه اندوخته آينده-س,1,10000,10000,200721,1,1,"-200,720.00",-100.00,1,"-200,720.00",-100.00,1,1
ضفلا3000,اختيارخ فولاد-7000-1400/03/19,1,10,57500000,4880,5750,5750,870.00,17.83,5750,870.00,17.83,5750,5750
ضملت3001,اختيارخ وبملت-3500-1400/03/19,1,10,7740000,950,774,774,-176.00,-18.53,774,-176.00,-18.53,774,774
پا ر 30,بار پايه روز 30,1,6000,2280000,380,380,380,0,0,380,0,0,380,380
پا ر 31,بار پايه روز 31,1,6000,2280000,380,380,380,0,0,380,0,0,380,380
,,,,,,,,,,,,,,
,,,,,,,,,,,,,,
