{
  "streams": [
    {
      "table_name": "sahamyab",
      "stream": "sahamyab",
      "metadata": [
        {
          "breadcrumb": [],
          "metadata": {
            "table-key-properties": [
              "_id"
            ],
            "database-name": "tweets",
            "row-count": 3,
            "is-view": false,
            "valid-replication-keys": [
              "_id"
            ] ,
            "selected": true,
            "replication-method": "FULL_TABLE"

          }
        }  

      ],
      "tap_stream_id": "tweets-sahamyab",
      "schema": {
        "type": "object"
      }
    },
    {
      "table_name": "delete_me",
      "stream": "delete_me",
      "metadata": [
        {
          "breadcrumb": [],
          "metadata": {
            "table-key-properties": [
              "_id"
            ],
            "database-name": "tweets",
            "row-count": 0,
            "is-view": false,
            "valid-replication-keys": [
              "_id"
            ]
          }
        }
      ],
      "tap_stream_id": "tweets-delete_me",
      "schema": {
        "type": "object"
      }
    }
  ]
}
